name,hdf,horizontal_bounding,vertical_bounding,startdatetime,enddatetime,bound_west,bound_east,bound_north,bound_south,dimension,bands,btd_image,mask_image,flight_file_processed
MODTBGA.A2012095.h18v05.006.2015240011541,data/granules/MODTBGA/MODTBGA.A2012095.h18v05.006.2015240011541.hdf,h18,v5,2012-04-04 08:00:00+00:00,2012-04-04 09:45:00+00:00,0.0,13.06495128554,29.9999999973059,39.9999999964079,"(1200, 1200)",,data/output/20210921-0113_standard_a_0/MODTBGA.A2012095.h18v05.006.2015240011541.png,data/output/20210921-0113_standard_a_0/MODTBGA.A2012095.h18v05.006.2015240011541_mask.png,data/flights/processed/h18_v5_20120404_0800_20120404_0945.csv
MODTBGA.A2012096.h17v05.006.2015240021802,data/granules/MODTBGA/MODTBGA.A2012096.h17v05.006.2015240021802.hdf,h17,v5,2012-04-05 08:45:00+00:00,2012-04-05 10:30:00+00:00,-13.0540728914637,0.0108783940762432,29.9999999973059,39.9999999964079,"(1200, 1200)",,,,data/flights/processed/h17_v5_20120405_0845_20120405_1030.csv
MODTBGA.A2012099.h16v05.006.2015239220821,data/granules/MODTBGA/MODTBGA.A2012099.h16v05.006.2015239220821.hdf,h16,v5,2012-04-08 09:15:00+00:00,2012-04-08 11:05:00+00:00,-26.1081457829275,-11.5373828779567,29.9999999973059,39.9999999964079,"(1200, 1200)",,,,data/flights/processed/h16_v5_20120408_0915_20120408_1105.csv
MODTBGA.A2012095.h15v05.006.2015240012339,data/granules/MODTBGA/MODTBGA.A2012095.h15v05.006.2015240012339.hdf,h15,v5,2012-04-04 09:40:00+00:00,2012-04-04 11:30:00+00:00,-39.1622186743913,-23.0843882603988,29.9999999973059,39.9999999964079,"(1200, 1200)",,,,data/flights/processed/h15_v5_20120404_0940_20120404_1130.csv
MODTBGA.A2012101.h11v04.006.2015240012943,data/granules/MODTBGA/MODTBGA.A2012101.h11v04.006.2015240012943.hdf,h11,v4,2012-04-10 14:00:00+00:00,2012-04-10 17:20:00+00:00,-108.900667860278,-78.3135589547063,39.9999999964079,49.9999999955098,"(1200, 1200)",,data/output/20210921-0113_standard_a_0/MODTBGA.A2012101.h11v04.006.2015240012943.png,data/output/20210921-0113_standard_a_0/MODTBGA.A2012101.h11v04.006.2015240012943_mask.png,data/flights/processed/h11_v4_20120410_1400_20120410_1720.csv
MODTBGA.A2012100.h19v04.006.2015240001742,data/granules/MODTBGA/MODTBGA.A2012100.h19v04.006.2015240001742.hdf,h19,v4,2012-04-09 06:40:00+00:00,2012-04-09 08:25:00+00:00,13.0540728914638,31.1274408967296,39.9999999964079,49.9999999955098,"(1200, 1200)",,,,data/flights/processed/h19_v4_20120409_0640_20120409_0825.csv
MODTBGA.A2012095.h12v03.006.2015240011907,data/granules/MODTBGA/MODTBGA.A2012095.h12v03.006.2015240011907.hdf,h12,v3,2012-04-04 14:35:00+00:00,2012-04-04 17:55:00+00:00,-119.999999969677,-77.7732269635488,49.9999999955098,59.9999999946118,"(1200, 1200)",,data/output/20210921-0113_standard_a_0/MODTBGA.A2012095.h12v03.006.2015240011907.png,data/output/20210921-0113_standard_a_0/MODTBGA.A2012095.h12v03.006.2015240011907_mask.png,data/flights/processed/h12_v3_20120404_1435_20120404_1755.csv
MODTBGA.A2012099.h18v04.006.2015239220842,data/granules/MODTBGA/MODTBGA.A2012099.h18v04.006.2015239220842.hdf,h18,v4,2012-04-08 07:35:00+00:00,2012-04-08 09:20:00+00:00,0.0,15.5702026309755,39.9999999964079,49.9999999955098,"(1200, 1200)",,,,data/flights/processed/h18_v4_20120408_0735_20120408_0920.csv
MODTBGA.A2012100.h18v03.006.2015240003246,data/granules/MODTBGA/MODTBGA.A2012100.h18v03.006.2015240003246.hdf,h18,v3,2012-04-09 08:15:00+00:00,2012-04-09 10:00:00+00:00,0.0,20.0166666616087,49.9999999955098,59.9999999946118,"(1200, 1200)",,,,data/flights/processed/h18_v3_20120409_0815_20120409_1000.csv
MODTBGA.A2012100.h12v04.006.2015240001042,data/granules/MODTBGA/MODTBGA.A2012100.h12v04.006.2015240001042.hdf,h12,v4,2012-04-09 13:15:00+00:00,2012-04-09 15:00:00+00:00,-93.3434295945244,-65.2594860632426,39.9999999964079,49.9999999955098,"(1200, 1200)",,,,data/flights/processed/h12_v4_20120409_1315_20120409_1500.csv
MODTBGA.A2012094.h17v03.006.2015240001502,data/granules/MODTBGA/MODTBGA.A2012094.h17v03.006.2015240001502.hdf,h17,v3,2012-04-03 08:50:00+00:00,2012-04-03 12:15:00+00:00,-19.9999999949462,0.016666666662491,49.9999999955098,59.9999999946118,"(1200, 1200)",,,,data/flights/processed/h17_v3_20120403_0850_20120403_1215.csv
MODTBGA.A2012099.h12v03.006.2015239220644,data/granules/MODTBGA/MODTBGA.A2012099.h12v03.006.2015239220644.hdf,h12,v3,2012-04-08 14:10:00+00:00,2012-04-08 17:30:00+00:00,-119.999999969677,-77.7732269635488,49.9999999955098,59.9999999946118,"(1200, 1200)",,data/output/20210921-0113_standard_a_0/MODTBGA.A2012099.h12v03.006.2015239220644.png,data/output/20210921-0113_standard_a_0/MODTBGA.A2012099.h12v03.006.2015239220644_mask.png,data/flights/processed/h12_v3_20120408_1410_20120408_1730.csv
MODTBGA.A2012097.h19v03.006.2015239225201,data/granules/MODTBGA/MODTBGA.A2012097.h19v03.006.2015239225201.hdf,h19,v3,2012-04-06 06:05:00+00:00,2012-04-06 09:30:00+00:00,15.5572382657541,40.016666656555,49.9999999955098,59.9999999946118,"(1200, 1200)",,data/output/20210921-0113_standard_a_0/MODTBGA.A2012097.h19v03.006.2015239225201.png,data/output/20210921-0113_standard_a_0/MODTBGA.A2012097.h19v03.006.2015239225201_mask.png,data/flights/processed/h19_v3_20120406_0605_20120406_0930.csv
MODTBGA.A2012100.h11v05.006.2015240000946,data/granules/MODTBGA/MODTBGA.A2012100.h11v05.006.2015240000946.hdf,h11,v5,2012-04-09 13:20:00+00:00,2012-04-09 15:05:00+00:00,-91.3785102402463,-69.2724097901671,29.9999999973059,39.9999999964079,"(1200, 1200)",,,,data/flights/processed/h11_v5_20120409_1320_20120409_1505.csv
MODTBGA.A2012096.h12v03.006.2015240020926,data/granules/MODTBGA/MODTBGA.A2012096.h12v03.006.2015240020926.hdf,h12,v3,2012-04-05 13:40:00+00:00,2012-04-05 18:35:00+00:00,-119.999999969677,-77.7732269635488,49.9999999955098,59.9999999946118,"(1200, 1200)",,,,data/flights/processed/h12_v3_20120405_1340_20120405_1835.csv
MODTBGA.A2012095.h11v05.006.2015240011726,data/granules/MODTBGA/MODTBGA.A2012095.h11v05.006.2015240011726.hdf,h11,v5,2012-04-04 13:00:00+00:00,2012-04-04 14:45:00+00:00,-91.3785102402463,-69.2724097901671,29.9999999973059,39.9999999964079,"(1200, 1200)",,data/output/20210921-0113_standard_a_0/MODTBGA.A2012095.h11v05.006.2015240011726.png,data/output/20210921-0113_standard_a_0/MODTBGA.A2012095.h11v05.006.2015240011726_mask.png,data/flights/processed/h11_v5_20120404_1300_20120404_1445.csv
MODTBGA.A2012096.h14v03.006.2015240021806,data/granules/MODTBGA/MODTBGA.A2012096.h14v03.006.2015240021806.hdf,h14,v3,2012-04-05 12:00:00+00:00,2012-04-05 13:45:00+00:00,-79.9999999797849,-46.6587504320407,49.9999999955098,59.9999999946118,"(1200, 1200)",,data/output/20210921-0113_standard_a_0/MODTBGA.A2012096.h14v03.006.2015240021806.png,data/output/20210921-0113_standard_a_0/MODTBGA.A2012096.h14v03.006.2015240021806_mask.png,data/flights/processed/h14_v3_20120405_1200_20120405_1345.csv
MODTBGA.A2012098.h13v03.006.2015239215429,data/granules/MODTBGA/MODTBGA.A2012098.h13v03.006.2015239215429.hdf,h13,v3,2012-04-07 13:25:00+00:00,2012-04-07 16:45:00+00:00,-99.9999999747312,-62.2159886977948,49.9999999955098,59.9999999946118,"(1200, 1200)",,data/output/20210921-0113_standard_a_0/MODTBGA.A2012098.h13v03.006.2015239215429.png,data/output/20210921-0113_standard_a_0/MODTBGA.A2012098.h13v03.006.2015239215429_mask.png,data/flights/processed/h13_v3_20120407_1325_20120407_1645.csv
MODTBGA.A2012099.h12v05.006.2015239221751,data/granules/MODTBGA/MODTBGA.A2012099.h12v05.006.2015239221751.hdf,h12,v5,2012-04-08 12:35:00+00:00,2012-04-08 14:20:00+00:00,-78.3244373487825,-57.7254044077251,29.9999999973059,39.9999999964079,"(1200, 1200)",,,,data/flights/processed/h12_v5_20120408_1235_20120408_1420.csv
MODTBGA.A2012092.h12v04.006.2015240000342,data/granules/MODTBGA/MODTBGA.A2012092.h12v04.006.2015240000342.hdf,h12,v4,2012-04-01 12:30:00+00:00,2012-04-01 15:50:00+00:00,-93.3434295945244,-65.2594860632426,39.9999999964079,49.9999999955098,"(1200, 1200)",,data/output/20210921-0113_standard_a_0/MODTBGA.A2012092.h12v04.006.2015240000342.png,data/output/20210921-0113_standard_a_0/MODTBGA.A2012092.h12v04.006.2015240000342_mask.png,data/flights/processed/h12_v4_20120401_1230_20120401_1550.csv
MODTBGA.A2012095.h14v03.006.2015240013203,data/granules/MODTBGA/MODTBGA.A2012095.h14v03.006.2015240013203.hdf,h14,v3,2012-04-04 11:15:00+00:00,2012-04-04 16:15:00+00:00,-79.9999999797849,-46.6587504320407,49.9999999955098,59.9999999946118,"(1200, 1200)",,data/output/20210921-0113_standard_a_0/MODTBGA.A2012095.h14v03.006.2015240013203.png,data/output/20210921-0113_standard_a_0/MODTBGA.A2012095.h14v03.006.2015240013203_mask.png,data/flights/processed/h14_v3_20120404_1115_20120404_1615.csv
MODTBGA.A2012101.h19v05.006.2015240013307,data/granules/MODTBGA/MODTBGA.A2012101.h19v05.006.2015240013307.hdf,h19,v5,2012-04-10 07:25:00+00:00,2012-04-10 07:35:00+00:00,11.5470053824421,26.1190241770037,29.9999999973059,39.9999999964079,"(1200, 1200)",,data/output/20210921-0113_standard_a_0/MODTBGA.A2012101.h19v05.006.2015240013307.png,data/output/20210921-0113_standard_a_0/MODTBGA.A2012101.h19v05.006.2015240013307_mask.png,data/flights/processed/h19_v5_20120410_0725_20120410_0735.csv
MODTBGA.A2012098.h15v03.006.2015239215510,data/granules/MODTBGA/MODTBGA.A2012098.h15v03.006.2015239215510.hdf,h15,v3,2012-04-07 10:10:00+00:00,2012-04-07 13:30:00+00:00,-59.9999999848387,-31.1015121662867,49.9999999955098,59.9999999946118,"(1200, 1200)",,data/output/20210921-0113_standard_a_0/MODTBGA.A2012098.h15v03.006.2015239215510.png,data/output/20210921-0113_standard_a_0/MODTBGA.A2012098.h15v03.006.2015239215510_mask.png,data/flights/processed/h15_v3_20120407_1010_20120407_1330.csv
MODTBGA.A2012096.h17v04.006.2015240021842,data/granules/MODTBGA/MODTBGA.A2012096.h17v04.006.2015240021842.hdf,h17,v4,2012-04-05 08:45:00+00:00,2012-04-05 10:30:00+00:00,-15.557238265754,0.0129643652214896,39.9999999964079,49.9999999955098,"(1200, 1200)",,,,data/flights/processed/h17_v4_20120405_0845_20120405_1030.csv
MODTBGA.A2012097.h19v05.006.2015239224600,data/granules/MODTBGA/MODTBGA.A2012097.h19v05.006.2015239224600.hdf,h19,v5,2012-04-06 07:50:00+00:00,2012-04-06 08:00:00+00:00,11.5470053824421,26.1190241770037,29.9999999973059,39.9999999964079,"(1200, 1200)",,,,data/flights/processed/h19_v5_20120406_0750_20120406_0800.csv
MODTBGA.A2012096.h14v04.006.2015240021947,data/granules/MODTBGA/MODTBGA.A2012096.h14v04.006.2015240021947.hdf,h14,v4,2012-04-05 12:00:00+00:00,2012-04-05 13:45:00+00:00,-62.2289530630162,-39.1513402803151,39.9999999964079,49.9999999955098,"(1200, 1200)",,data/output/20210921-0113_standard_a_0/MODTBGA.A2012096.h14v04.006.2015240021947.png,data/output/20210921-0113_standard_a_0/MODTBGA.A2012096.h14v04.006.2015240021947_mask.png,data/flights/processed/h14_v4_20120405_1200_20120405_1345.csv
MODTBGA.A2012094.h16v05.006.2015240000902,data/granules/MODTBGA/MODTBGA.A2012094.h16v05.006.2015240000902.hdf,h16,v5,2012-04-03 09:00:00+00:00,2012-04-03 10:45:00+00:00,-26.1081457829275,-11.5373828779567,29.9999999973059,39.9999999964079,"(1200, 1200)",,data/output/20210921-0113_standard_a_0/MODTBGA.A2012094.h16v05.006.2015240000902.png,data/output/20210921-0113_standard_a_0/MODTBGA.A2012094.h16v05.006.2015240000902_mask.png,data/flights/processed/h16_v5_20120403_0900_20120403_1045.csv
MODTBGA.A2012093.h11v04.006.2015239224744,data/granules/MODTBGA/MODTBGA.A2012093.h11v04.006.2015239224744.hdf,h11,v4,2012-04-02 14:50:00+00:00,2012-04-02 16:30:00+00:00,-108.900667860278,-78.3135589547063,39.9999999964079,49.9999999955098,"(1200, 1200)",,,,data/flights/processed/h11_v4_20120402_1450_20120402_1630.csv
MODTBGA.A2012100.h12v03.006.2015240001249,data/granules/MODTBGA/MODTBGA.A2012100.h12v03.006.2015240001249.hdf,h12,v3,2012-04-09 13:15:00+00:00,2012-04-09 18:15:00+00:00,-119.999999969677,-77.7732269635488,49.9999999955098,59.9999999946118,"(1200, 1200)",,data/output/20210921-0113_standard_a_0/MODTBGA.A2012100.h12v03.006.2015240001249.png,data/output/20210921-0113_standard_a_0/MODTBGA.A2012100.h12v03.006.2015240001249_mask.png,data/flights/processed/h12_v3_20120409_1315_20120409_1815.csv
MODTBGA.A2012097.h14v03.006.2015239224453,data/granules/MODTBGA/MODTBGA.A2012097.h14v03.006.2015239224453.hdf,h14,v3,2012-04-06 12:40:00+00:00,2012-04-06 16:05:00+00:00,-79.9999999797849,-46.6587504320407,49.9999999955098,59.9999999946118,"(1200, 1200)",,,,data/flights/processed/h14_v3_20120406_1240_20120406_1605.csv
MODTBGA.A2012098.h14v04.006.2015239215501,data/granules/MODTBGA/MODTBGA.A2012098.h14v04.006.2015239215501.hdf,h14,v4,2012-04-07 11:50:00+00:00,2012-04-07 13:35:00+00:00,-62.2289530630162,-39.1513402803151,39.9999999964079,49.9999999955098,"(1200, 1200)",,,,data/flights/processed/h14_v4_20120407_1150_20120407_1335.csv
MODTBGA.A2012099.h13v03.006.2015239222429,data/granules/MODTBGA/MODTBGA.A2012099.h13v03.006.2015239222429.hdf,h13,v3,2012-04-08 12:30:00+00:00,2012-04-08 17:30:00+00:00,-99.9999999747312,-62.2159886977948,49.9999999955098,59.9999999946118,"(1200, 1200)",,data/output/20210921-0113_standard_a_0/MODTBGA.A2012099.h13v03.006.2015239222429.png,data/output/20210921-0113_standard_a_0/MODTBGA.A2012099.h13v03.006.2015239222429_mask.png,data/flights/processed/h13_v3_20120408_1230_20120408_1730.csv
MODTBGA.A2012099.h17v05.006.2015239220724,data/granules/MODTBGA/MODTBGA.A2012099.h17v05.006.2015239220724.hdf,h17,v5,2012-04-08 09:15:00+00:00,2012-04-08 09:25:00+00:00,-13.0540728914637,0.0108783940762432,29.9999999973059,39.9999999964079,"(1200, 1200)",,data/output/20210921-0113_standard_a_0/MODTBGA.A2012099.h17v05.006.2015239220724.png,data/output/20210921-0113_standard_a_0/MODTBGA.A2012099.h17v05.006.2015239220724_mask.png,data/flights/processed/h17_v5_20120408_0915_20120408_0925.csv
MODTBGA.A2012093.h18v03.006.2015239224200,data/granules/MODTBGA/MODTBGA.A2012093.h18v03.006.2015239224200.hdf,h18,v3,2012-04-02 08:10:00+00:00,2012-04-02 09:55:00+00:00,0.0,20.0166666616087,49.9999999955098,59.9999999946118,"(1200, 1200)",,data/output/20210921-0113_standard_a_0/MODTBGA.A2012093.h18v03.006.2015239224200.png,data/output/20210921-0113_standard_a_0/MODTBGA.A2012093.h18v03.006.2015239224200_mask.png,data/flights/processed/h18_v3_20120402_0810_20120402_0955.csv
MODTBGA.A2012092.h11v05.006.2015240000031,data/granules/MODTBGA/MODTBGA.A2012092.h11v05.006.2015240000031.hdf,h11,v5,2012-04-01 14:05:00+00:00,2012-04-01 15:50:00+00:00,-91.3785102402463,-69.2724097901671,29.9999999973059,39.9999999964079,"(1200, 1200)",,data/output/20210921-0113_standard_a_0/MODTBGA.A2012092.h11v05.006.2015240000031.png,data/output/20210921-0113_standard_a_0/MODTBGA.A2012092.h11v05.006.2015240000031_mask.png,data/flights/processed/h11_v5_20120401_1405_20120401_1550.csv
MODTBGA.A2012093.h18v04.006.2015239224242,data/granules/MODTBGA/MODTBGA.A2012093.h18v04.006.2015239224242.hdf,h18,v4,2012-04-02 08:10:00+00:00,2012-04-02 10:00:00+00:00,0.0,15.5702026309755,39.9999999964079,49.9999999955098,"(1200, 1200)",,,,data/flights/processed/h18_v4_20120402_0810_20120402_1000.csv
MODTBGA.A2012095.h18v04.006.2015240012141,data/granules/MODTBGA/MODTBGA.A2012095.h18v04.006.2015240012141.hdf,h18,v4,2012-04-04 08:00:00+00:00,2012-04-04 09:45:00+00:00,0.0,15.5702026309755,39.9999999964079,49.9999999955098,"(1200, 1200)",,data/output/20210921-0113_standard_a_0/MODTBGA.A2012095.h18v04.006.2015240012141.png,data/output/20210921-0113_standard_a_0/MODTBGA.A2012095.h18v04.006.2015240012141_mask.png,data/flights/processed/h18_v4_20120404_0800_20120404_0945.csv
MODTBGA.A2012093.h19v03.006.2015239224348,data/granules/MODTBGA/MODTBGA.A2012093.h19v03.006.2015239224348.hdf,h19,v3,2012-04-02 06:30:00+00:00,2012-04-02 08:15:00+00:00,15.5572382657541,40.016666656555,49.9999999955098,59.9999999946118,"(1200, 1200)",,,,data/flights/processed/h19_v3_20120402_0630_20120402_0815.csv
MODTBGA.A2012094.h18v05.006.2015240002230,data/granules/MODTBGA/MODTBGA.A2012094.h18v05.006.2015240002230.hdf,h18,v5,2012-04-03 07:20:00+00:00,2012-04-03 09:05:00+00:00,0.0,13.06495128554,29.9999999973059,39.9999999964079,"(1200, 1200)",,,,data/flights/processed/h18_v5_20120403_0720_20120403_0905.csv
MODTBGA.A2012096.h15v03.006.2015240021727,data/granules/MODTBGA/MODTBGA.A2012096.h15v03.006.2015240021727.hdf,h15,v3,2012-04-05 10:20:00+00:00,2012-04-05 13:45:00+00:00,-59.9999999848387,-31.1015121662867,49.9999999955098,59.9999999946118,"(1200, 1200)",,data/output/20210921-0113_standard_a_0/MODTBGA.A2012096.h15v03.006.2015240021727.png,data/output/20210921-0113_standard_a_0/MODTBGA.A2012096.h15v03.006.2015240021727_mask.png,data/flights/processed/h15_v3_20120405_1020_20120405_1345.csv
MODTBGA.A2012096.h11v04.006.2015240021059,data/granules/MODTBGA/MODTBGA.A2012096.h11v04.006.2015240021059.hdf,h11,v4,2012-04-05 13:40:00+00:00,2012-04-05 13:45:00+00:00,-108.900667860278,-78.3135589547063,39.9999999964079,49.9999999955098,"(1200, 1200)",,data/output/20210921-0113_standard_a_0/MODTBGA.A2012096.h11v04.006.2015240021059.png,data/output/20210921-0113_standard_a_0/MODTBGA.A2012096.h11v04.006.2015240021059_mask.png,data/flights/processed/h11_v4_20120405_1340_20120405_1345.csv
MODTBGA.A2012101.h14v04.006.2015240012838,data/granules/MODTBGA/MODTBGA.A2012101.h14v04.006.2015240012838.hdf,h14,v4,2012-04-10 10:45:00+00:00,2012-04-10 14:05:00+00:00,-62.2289530630162,-39.1513402803151,39.9999999964079,49.9999999955098,"(1200, 1200)",,,,data/flights/processed/h14_v4_20120410_1045_20120410_1405.csv
MODTBGA.A2012101.h15v03.006.2015240013148,data/granules/MODTBGA/MODTBGA.A2012101.h15v03.006.2015240013148.hdf,h15,v3,2012-04-10 10:40:00+00:00,2012-04-10 14:00:00+00:00,-59.9999999848387,-31.1015121662867,49.9999999955098,59.9999999946118,"(1200, 1200)",,,,data/flights/processed/h15_v3_20120410_1040_20120410_1400.csv
MODTBGA.A2012097.h19v04.006.2015239224751,data/granules/MODTBGA/MODTBGA.A2012097.h19v04.006.2015239224751.hdf,h19,v4,2012-04-06 06:10:00+00:00,2012-04-06 07:55:00+00:00,13.0540728914638,31.1274408967296,39.9999999964079,49.9999999955098,"(1200, 1200)",,data/output/20210921-0113_standard_a_0/MODTBGA.A2012097.h19v04.006.2015239224751.png,data/output/20210921-0113_standard_a_0/MODTBGA.A2012097.h19v04.006.2015239224751_mask.png,data/flights/processed/h19_v4_20120406_0610_20120406_0755.csv
MODTBGA.A2012093.h16v05.006.2015239225020,data/granules/MODTBGA/MODTBGA.A2012093.h16v05.006.2015239225020.hdf,h16,v5,2012-04-02 09:55:00+00:00,2012-04-02 11:35:00+00:00,-26.1081457829275,-11.5373828779567,29.9999999973059,39.9999999964079,"(1200, 1200)",,,,data/flights/processed/h16_v5_20120402_0955_20120402_1135.csv
MODTBGA.A2012097.h14v04.006.2015239224813,data/granules/MODTBGA/MODTBGA.A2012097.h14v04.006.2015239224813.hdf,h14,v4,2012-04-06 11:05:00+00:00,2012-04-06 14:25:00+00:00,-62.2289530630162,-39.1513402803151,39.9999999964079,49.9999999955098,"(1200, 1200)",,data/output/20210921-0113_standard_a_0/MODTBGA.A2012097.h14v04.006.2015239224813.png,data/output/20210921-0113_standard_a_0/MODTBGA.A2012097.h14v04.006.2015239224813_mask.png,data/flights/processed/h14_v4_20120406_1105_20120406_1425.csv
MODTBGA.A2012095.h19v05.006.2015240011629,data/granules/MODTBGA/MODTBGA.A2012095.h19v05.006.2015240011629.hdf,h19,v5,2012-04-04 06:25:00+00:00,2012-04-04 08:10:00+00:00,11.5470053824421,26.1190241770037,29.9999999973059,39.9999999964079,"(1200, 1200)",,,,data/flights/processed/h19_v5_20120404_0625_20120404_0810.csv
MODTBGA.A2012092.h13v03.006.2015240001519,data/granules/MODTBGA/MODTBGA.A2012092.h13v03.006.2015240001519.hdf,h13,v3,2012-04-01 12:25:00+00:00,2012-04-01 17:25:00+00:00,-99.9999999747312,-62.2159886977948,49.9999999955098,59.9999999946118,"(1200, 1200)",,data/output/20210921-0113_standard_a_0/MODTBGA.A2012092.h13v03.006.2015240001519.png,data/output/20210921-0113_standard_a_0/MODTBGA.A2012092.h13v03.006.2015240001519_mask.png,data/flights/processed/h13_v3_20120401_1225_20120401_1725.csv
MODTBGA.A2012101.h18v05.006.2015240012751,data/granules/MODTBGA/MODTBGA.A2012101.h18v05.006.2015240012751.hdf,h18,v5,2012-04-10 07:25:00+00:00,2012-04-10 09:10:00+00:00,0.0,13.06495128554,29.9999999973059,39.9999999964079,"(1200, 1200)",,,,data/flights/processed/h18_v5_20120410_0725_20120410_0910.csv
MODTBGA.A2012093.h13v03.006.2015239224811,data/granules/MODTBGA/MODTBGA.A2012093.h13v03.006.2015239224811.hdf,h13,v3,2012-04-02 13:05:00+00:00,2012-04-02 16:30:00+00:00,-99.9999999747312,-62.2159886977948,49.9999999955098,59.9999999946118,"(1200, 1200)",,data/output/20210921-0113_standard_a_0/MODTBGA.A2012093.h13v03.006.2015239224811.png,data/output/20210921-0113_standard_a_0/MODTBGA.A2012093.h13v03.006.2015239224811_mask.png,data/flights/processed/h13_v3_20120402_1305_20120402_1630.csv
MODTBGA.A2012095.h11v04.006.2015240011952,data/granules/MODTBGA/MODTBGA.A2012095.h11v04.006.2015240011952.hdf,h11,v4,2012-04-04 14:35:00+00:00,2012-04-04 16:20:00+00:00,-108.900667860278,-78.3135589547063,39.9999999964079,49.9999999955098,"(1200, 1200)",,,,data/flights/processed/h11_v4_20120404_1435_20120404_1620.csv
MODTBGA.A2012100.h12v05.006.2015240000643,data/granules/MODTBGA/MODTBGA.A2012100.h12v05.006.2015240000643.hdf,h12,v5,2012-04-09 13:15:00+00:00,2012-04-09 15:00:00+00:00,-78.3244373487825,-57.7254044077251,29.9999999973059,39.9999999964079,"(1200, 1200)",,,,data/flights/processed/h12_v5_20120409_1315_20120409_1500.csv
MODTBGA.A2012094.h12v04.006.2015240004352,data/granules/MODTBGA/MODTBGA.A2012094.h12v04.006.2015240004352.hdf,h12,v4,2012-04-03 13:50:00+00:00,2012-04-03 15:35:00+00:00,-93.3434295945244,-65.2594860632426,39.9999999964079,49.9999999955098,"(1200, 1200)",,,,data/flights/processed/h12_v4_20120403_1350_20120403_1535.csv
MODTBGA.A2012098.h18v04.006.2015239215315,data/granules/MODTBGA/MODTBGA.A2012098.h18v04.006.2015239215315.hdf,h18,v4,2012-04-07 08:30:00+00:00,2012-04-07 10:15:00+00:00,0.0,15.5702026309755,39.9999999964079,49.9999999955098,"(1200, 1200)",,,,data/flights/processed/h18_v4_20120407_0830_20120407_1015.csv
MODTBGA.A2012096.h16v05.006.2015240022307,data/granules/MODTBGA/MODTBGA.A2012096.h16v05.006.2015240022307.hdf,h16,v5,2012-04-05 08:45:00+00:00,2012-04-05 10:30:00+00:00,-26.1081457829275,-11.5373828779567,29.9999999973059,39.9999999964079,"(1200, 1200)",,,,data/flights/processed/h16_v5_20120405_0845_20120405_1030.csv
MODTBGA.A2012098.h13v04.006.2015239215449,data/granules/MODTBGA/MODTBGA.A2012098.h13v04.006.2015239215449.hdf,h13,v4,2012-04-07 11:50:00+00:00,2012-04-07 15:10:00+00:00,-77.7861913287703,-52.2054131717788,39.9999999964079,49.9999999955098,"(1200, 1200)",,,,data/flights/processed/h13_v4_20120407_1150_20120407_1510.csv
MODTBGA.A2012096.h17v03.006.2015240023227,data/granules/MODTBGA/MODTBGA.A2012096.h17v03.006.2015240023227.hdf,h17,v3,2012-04-05 08:40:00+00:00,2012-04-05 12:00:00+00:00,-19.9999999949462,0.016666666662491,49.9999999955098,59.9999999946118,"(1200, 1200)",,,,data/flights/processed/h17_v3_20120405_0840_20120405_1200.csv
MODTBGA.A2012094.h12v05.006.2015240000746,data/granules/MODTBGA/MODTBGA.A2012094.h12v05.006.2015240000746.hdf,h12,v5,2012-04-03 12:15:00+00:00,2012-04-03 14:00:00+00:00,-78.3244373487825,-57.7254044077251,29.9999999973059,39.9999999964079,"(1200, 1200)",,,,data/flights/processed/h12_v5_20120403_1215_20120403_1400.csv
MODTBGA.A2012095.h13v04.006.2015240013015,data/granules/MODTBGA/MODTBGA.A2012095.h13v04.006.2015240013015.hdf,h13,v4,2012-04-04 12:55:00+00:00,2012-04-04 14:40:00+00:00,-77.7861913287703,-52.2054131717788,39.9999999964079,49.9999999955098,"(1200, 1200)",,,,data/flights/processed/h13_v4_20120404_1255_20120404_1440.csv
MODTBGA.A2012097.h12v05.006.2015239223920,data/granules/MODTBGA/MODTBGA.A2012097.h12v05.006.2015239223920.hdf,h12,v5,2012-04-06 12:45:00+00:00,2012-04-06 14:30:00+00:00,-78.3244373487825,-57.7254044077251,29.9999999973059,39.9999999964079,"(1200, 1200)",,,,data/flights/processed/h12_v5_20120406_1245_20120406_1430.csv
MODTBGA.A2012096.h18v03.006.2015240022117,data/granules/MODTBGA/MODTBGA.A2012096.h18v03.006.2015240022117.hdf,h18,v3,2012-04-05 07:00:00+00:00,2012-04-05 10:25:00+00:00,0.0,20.0166666616087,49.9999999955098,59.9999999946118,"(1200, 1200)",,data/output/20210921-0113_standard_a_0/MODTBGA.A2012096.h18v03.006.2015240022117.png,data/output/20210921-0113_standard_a_0/MODTBGA.A2012096.h18v03.006.2015240022117_mask.png,data/flights/processed/h18_v3_20120405_0700_20120405_1025.csv
MODTBGA.A2012093.h19v04.006.2015239224530,data/granules/MODTBGA/MODTBGA.A2012093.h19v04.006.2015239224530.hdf,h19,v4,2012-04-02 06:35:00+00:00,2012-04-02 08:20:00+00:00,13.0540728914638,31.1274408967296,39.9999999964079,49.9999999955098,"(1200, 1200)",,,,data/flights/processed/h19_v4_20120402_0635_20120402_0820.csv
MODTBGA.A2012094.h19v04.006.2015239235807,data/granules/MODTBGA/MODTBGA.A2012094.h19v04.006.2015239235807.hdf,h19,v4,2012-04-03 07:15:00+00:00,2012-04-03 09:00:00+00:00,13.0540728914638,31.1274408967296,39.9999999964079,49.9999999955098,"(1200, 1200)",,,,data/flights/processed/h19_v4_20120403_0715_20120403_0900.csv
MODTBGA.A2012099.h15v05.006.2015239220636,data/granules/MODTBGA/MODTBGA.A2012099.h15v05.006.2015239220636.hdf,h15,v5,2012-04-08 10:55:00+00:00,2012-04-08 11:05:00+00:00,-39.1622186743913,-23.0843882603988,29.9999999973059,39.9999999964079,"(1200, 1200)",,,,data/flights/processed/h15_v5_20120408_1055_20120408_1105.csv
MODTBGA.A2012093.h18v05.006.2015239223631,data/granules/MODTBGA/MODTBGA.A2012093.h18v05.006.2015239223631.hdf,h18,v5,2012-04-02 08:15:00+00:00,2012-04-02 08:25:00+00:00,0.0,13.06495128554,29.9999999973059,39.9999999964079,"(1200, 1200)",,data/output/20210921-0113_standard_a_0/MODTBGA.A2012093.h18v05.006.2015239223631.png,data/output/20210921-0113_standard_a_0/MODTBGA.A2012093.h18v05.006.2015239223631_mask.png,data/flights/processed/h18_v5_20120402_0815_20120402_0825.csv
MODTBGA.A2012092.h18v05.006.2015240000249,data/granules/MODTBGA/MODTBGA.A2012092.h18v05.006.2015240000249.hdf,h18,v5,2012-04-01 07:30:00+00:00,2012-04-01 09:20:00+00:00,0.0,13.06495128554,29.9999999973059,39.9999999964079,"(1200, 1200)",,,,data/flights/processed/h18_v5_20120401_0730_20120401_0920.csv
MODTBGA.A2012097.h13v04.006.2015239224624,data/granules/MODTBGA/MODTBGA.A2012097.h13v04.006.2015239224624.hdf,h13,v4,2012-04-06 12:45:00+00:00,2012-04-06 14:30:00+00:00,-77.7861913287703,-52.2054131717788,39.9999999964079,49.9999999955098,"(1200, 1200)",,,,data/flights/processed/h13_v4_20120406_1245_20120406_1430.csv
MODTBGA.A2012092.h19v03.006.2015240000128,data/granules/MODTBGA/MODTBGA.A2012092.h19v03.006.2015240000128.hdf,h19,v3,2012-04-01 05:45:00+00:00,2012-04-01 09:10:00+00:00,15.5572382657541,40.016666656555,49.9999999955098,59.9999999946118,"(1200, 1200)",,,,data/flights/processed/h19_v3_20120401_0545_20120401_0910.csv
MODTBGA.A2012098.h18v03.006.2015239215407,data/granules/MODTBGA/MODTBGA.A2012098.h18v03.006.2015239215407.hdf,h18,v3,2012-04-07 06:50:00+00:00,2012-04-07 10:15:00+00:00,0.0,20.0166666616087,49.9999999955098,59.9999999946118,"(1200, 1200)",,,,data/flights/processed/h18_v3_20120407_0650_20120407_1015.csv
MODTBGA.A2012092.h14v04.006.2015239235951,data/granules/MODTBGA/MODTBGA.A2012092.h14v04.006.2015239235951.hdf,h14,v4,2012-04-01 10:50:00+00:00,2012-04-01 14:10:00+00:00,-62.2289530630162,-39.1513402803151,39.9999999964079,49.9999999955098,"(1200, 1200)",,,,data/flights/processed/h14_v4_20120401_1050_20120401_1410.csv
MODTBGA.A2012100.h11v03.006.2015240000821,data/granules/MODTBGA/MODTBGA.A2012100.h11v03.006.2015240000821.hdf,h11,v3,2012-04-09 14:55:00+00:00,2012-04-09 19:50:00+00:00,-139.999999964624,-93.3304652293029,49.9999999955098,59.9999999946118,"(1200, 1200)",,,,data/flights/processed/h11_v3_20120409_1455_20120409_1950.csv
MODTBGA.A2012095.h11v03.006.2015240012231,data/granules/MODTBGA/MODTBGA.A2012095.h11v03.006.2015240012231.hdf,h11,v3,2012-04-04 14:35:00+00:00,2012-04-04 19:35:00+00:00,-139.999999964624,-93.3304652293029,49.9999999955098,59.9999999946118,"(1200, 1200)",,data/output/20210921-0113_standard_a_0/MODTBGA.A2012095.h11v03.006.2015240012231.png,data/output/20210921-0113_standard_a_0/MODTBGA.A2012095.h11v03.006.2015240012231_mask.png,data/flights/processed/h11_v3_20120404_1435_20120404_1935.csv
MODTBGA.A2012094.h19v03.006.2015240000841,data/granules/MODTBGA/MODTBGA.A2012094.h19v03.006.2015240000841.hdf,h19,v3,2012-04-03 05:35:00+00:00,2012-04-03 09:00:00+00:00,15.5572382657541,40.016666656555,49.9999999955098,59.9999999946118,"(1200, 1200)",,,,data/flights/processed/h19_v3_20120403_0535_20120403_0900.csv
MODTBGA.A2012098.h14v03.006.2015239215747,data/granules/MODTBGA/MODTBGA.A2012098.h14v03.006.2015239215747.hdf,h14,v3,2012-04-07 11:45:00+00:00,2012-04-07 15:10:00+00:00,-79.9999999797849,-46.6587504320407,49.9999999955098,59.9999999946118,"(1200, 1200)",,,,data/flights/processed/h14_v3_20120407_1145_20120407_1510.csv
MODTBGA.A2012099.h12v04.006.2015239222156,data/granules/MODTBGA/MODTBGA.A2012099.h12v04.006.2015239222156.hdf,h12,v4,2012-04-08 12:35:00+00:00,2012-04-08 15:55:00+00:00,-93.3434295945244,-65.2594860632426,39.9999999964079,49.9999999955098,"(1200, 1200)",,data/output/20210921-0113_standard_a_0/MODTBGA.A2012099.h12v04.006.2015239222156.png,data/output/20210921-0113_standard_a_0/MODTBGA.A2012099.h12v04.006.2015239222156_mask.png,data/flights/processed/h12_v4_20120408_1235_20120408_1555.csv
MODTBGA.A2012094.h17v05.006.2015240001008,data/granules/MODTBGA/MODTBGA.A2012094.h17v05.006.2015240001008.hdf,h17,v5,2012-04-03 09:00:00+00:00,2012-04-03 10:40:00+00:00,-13.0540728914637,0.0108783940762432,29.9999999973059,39.9999999964079,"(1200, 1200)",,data/output/20210921-0113_standard_a_0/MODTBGA.A2012094.h17v05.006.2015240001008.png,data/output/20210921-0113_standard_a_0/MODTBGA.A2012094.h17v05.006.2015240001008_mask.png,data/flights/processed/h17_v5_20120403_0900_20120403_1040.csv
MODTBGA.A2012100.h16v05.006.2015240000948,data/granules/MODTBGA/MODTBGA.A2012100.h16v05.006.2015240000948.hdf,h16,v5,2012-04-09 10:00:00+00:00,2012-04-09 10:10:00+00:00,-26.1081457829275,-11.5373828779567,29.9999999973059,39.9999999964079,"(1200, 1200)",,data/output/20210921-0113_standard_a_0/MODTBGA.A2012100.h16v05.006.2015240000948.png,data/output/20210921-0113_standard_a_0/MODTBGA.A2012100.h16v05.006.2015240000948_mask.png,data/flights/processed/h16_v5_20120409_1000_20120409_1010.csv
MODTBGA.A2012097.h18v04.006.2015239225116,data/granules/MODTBGA/MODTBGA.A2012097.h18v04.006.2015239225116.hdf,h18,v4,2012-04-06 07:45:00+00:00,2012-04-06 09:35:00+00:00,0.0,15.5702026309755,39.9999999964079,49.9999999955098,"(1200, 1200)",,,,data/flights/processed/h18_v4_20120406_0745_20120406_0935.csv
MODTBGA.A2012097.h15v05.006.2015239224538,data/granules/MODTBGA/MODTBGA.A2012097.h15v05.006.2015239224538.hdf,h15,v5,2012-04-06 09:30:00+00:00,2012-04-06 11:15:00+00:00,-39.1622186743913,-23.0843882603988,29.9999999973059,39.9999999964079,"(1200, 1200)",,,,data/flights/processed/h15_v5_20120406_0930_20120406_1115.csv
MODTBGA.A2012101.h15v05.006.2015240013234,data/granules/MODTBGA/MODTBGA.A2012101.h15v05.006.2015240013234.hdf,h15,v5,2012-04-10 10:45:00+00:00,2012-04-10 12:25:00+00:00,-39.1622186743913,-23.0843882603988,29.9999999973059,39.9999999964079,"(1200, 1200)",,,,data/flights/processed/h15_v5_20120410_1045_20120410_1225.csv
MODTBGA.A2012096.h12v04.006.2015240021411,data/granules/MODTBGA/MODTBGA.A2012096.h12v04.006.2015240021411.hdf,h12,v4,2012-04-05 13:40:00+00:00,2012-04-05 13:45:00+00:00,-93.3434295945244,-65.2594860632426,39.9999999964079,49.9999999955098,"(1200, 1200)",,data/output/20210921-0113_standard_a_0/MODTBGA.A2012096.h12v04.006.2015240021411.png,data/output/20210921-0113_standard_a_0/MODTBGA.A2012096.h12v04.006.2015240021411_mask.png,data/flights/processed/h12_v4_20120405_1340_20120405_1345.csv
MODTBGA.A2012098.h12v05.006.2015239215453,data/granules/MODTBGA/MODTBGA.A2012098.h12v05.006.2015239215453.hdf,h12,v5,2012-04-07 11:55:00+00:00,2012-04-07 13:35:00+00:00,-78.3244373487825,-57.7254044077251,29.9999999973059,39.9999999964079,"(1200, 1200)",,,,data/flights/processed/h12_v5_20120407_1155_20120407_1335.csv
MODTBGA.A2012092.h18v03.006.2015240001014,data/granules/MODTBGA/MODTBGA.A2012092.h18v03.006.2015240001014.hdf,h18,v3,2012-04-01 07:25:00+00:00,2012-04-01 10:50:00+00:00,0.0,20.0166666616087,49.9999999955098,59.9999999946118,"(1200, 1200)",,data/output/20210921-0113_standard_a_0/MODTBGA.A2012092.h18v03.006.2015240001014.png,data/output/20210921-0113_standard_a_0/MODTBGA.A2012092.h18v03.006.2015240001014_mask.png,data/flights/processed/h18_v3_20120401_0725_20120401_1050.csv
MODTBGA.A2012094.h18v04.006.2015240002946,data/granules/MODTBGA/MODTBGA.A2012094.h18v04.006.2015240002946.hdf,h18,v4,2012-04-03 07:15:00+00:00,2012-04-03 09:05:00+00:00,0.0,15.5702026309755,39.9999999964079,49.9999999955098,"(1200, 1200)",,,,data/flights/processed/h18_v4_20120403_0715_20120403_0905.csv
MODTBGA.A2012095.h15v03.006.2015240012109,data/granules/MODTBGA/MODTBGA.A2012095.h15v03.006.2015240012109.hdf,h15,v3,2012-04-04 11:15:00+00:00,2012-04-04 14:35:00+00:00,-59.9999999848387,-31.1015121662867,49.9999999955098,59.9999999946118,"(1200, 1200)",,data/output/20210921-0113_standard_a_0/MODTBGA.A2012095.h15v03.006.2015240012109.png,data/output/20210921-0113_standard_a_0/MODTBGA.A2012095.h15v03.006.2015240012109_mask.png,data/flights/processed/h15_v3_20120404_1115_20120404_1435.csv
MODTBGA.A2012099.h14v03.006.2015239222504,data/granules/MODTBGA/MODTBGA.A2012099.h14v03.006.2015239222504.hdf,h14,v3,2012-04-08 12:30:00+00:00,2012-04-08 15:50:00+00:00,-79.9999999797849,-46.6587504320407,49.9999999955098,59.9999999946118,"(1200, 1200)",,data/output/20210921-0113_standard_a_0/MODTBGA.A2012099.h14v03.006.2015239222504.png,data/output/20210921-0113_standard_a_0/MODTBGA.A2012099.h14v03.006.2015239222504_mask.png,data/flights/processed/h14_v3_20120408_1230_20120408_1550.csv
MODTBGA.A2012094.h19v05.006.2015239235750,data/granules/MODTBGA/MODTBGA.A2012094.h19v05.006.2015239235750.hdf,h19,v5,2012-04-03 07:20:00+00:00,2012-04-03 09:05:00+00:00,11.5470053824421,26.1190241770037,29.9999999973059,39.9999999964079,"(1200, 1200)",,,,data/flights/processed/h19_v5_20120403_0720_20120403_0905.csv
MODTBGA.A2012093.h12v03.006.2015239224018,data/granules/MODTBGA/MODTBGA.A2012093.h12v03.006.2015239224018.hdf,h12,v3,2012-04-02 14:45:00+00:00,2012-04-02 18:05:00+00:00,-119.999999969677,-77.7732269635488,49.9999999955098,59.9999999946118,"(1200, 1200)",,,,data/flights/processed/h12_v3_20120402_1445_20120402_1805.csv
MODTBGA.A2012097.h17v04.006.2015239224636,data/granules/MODTBGA/MODTBGA.A2012097.h17v04.006.2015239224636.hdf,h17,v4,2012-04-06 09:25:00+00:00,2012-04-06 11:10:00+00:00,-15.557238265754,0.0129643652214896,39.9999999964079,49.9999999955098,"(1200, 1200)",,,,data/flights/processed/h17_v4_20120406_0925_20120406_1110.csv
MODTBGA.A2012095.h13v03.006.2015240013127,data/granules/MODTBGA/MODTBGA.A2012095.h13v03.006.2015240013127.hdf,h13,v3,2012-04-04 12:55:00+00:00,2012-04-04 16:15:00+00:00,-99.9999999747312,-62.2159886977948,49.9999999955098,59.9999999946118,"(1200, 1200)",,,,data/flights/processed/h13_v3_20120404_1255_20120404_1615.csv
MODTBGA.A2012100.h15v03.006.2015240001100,data/granules/MODTBGA/MODTBGA.A2012100.h15v03.006.2015240001100.hdf,h15,v3,2012-04-09 11:35:00+00:00,2012-04-09 14:55:00+00:00,-59.9999999848387,-31.1015121662867,49.9999999955098,59.9999999946118,"(1200, 1200)",,data/output/20210921-0113_standard_a_0/MODTBGA.A2012100.h15v03.006.2015240001100.png,data/output/20210921-0113_standard_a_0/MODTBGA.A2012100.h15v03.006.2015240001100_mask.png,data/flights/processed/h15_v3_20120409_1135_20120409_1455.csv
MODTBGA.A2012100.h13v04.006.2015240000420,data/granules/MODTBGA/MODTBGA.A2012100.h13v04.006.2015240000420.hdf,h13,v4,2012-04-09 11:40:00+00:00,2012-04-09 15:00:00+00:00,-77.7861913287703,-52.2054131717788,39.9999999964079,49.9999999955098,"(1200, 1200)",,,,data/flights/processed/h13_v4_20120409_1140_20120409_1500.csv
MODTBGA.A2012099.h11v04.006.2015239220623,data/granules/MODTBGA/MODTBGA.A2012099.h11v04.006.2015239220623.hdf,h11,v4,2012-04-08 14:10:00+00:00,2012-04-08 17:30:00+00:00,-108.900667860278,-78.3135589547063,39.9999999964079,49.9999999955098,"(1200, 1200)",,data/output/20210921-0113_standard_a_0/MODTBGA.A2012099.h11v04.006.2015239220623.png,data/output/20210921-0113_standard_a_0/MODTBGA.A2012099.h11v04.006.2015239220623_mask.png,data/flights/processed/h11_v4_20120408_1410_20120408_1730.csv
MODTBGA.A2012099.h17v03.006.2015239220739,data/granules/MODTBGA/MODTBGA.A2012099.h17v03.006.2015239220739.hdf,h17,v3,2012-04-08 09:10:00+00:00,2012-04-08 10:55:00+00:00,-19.9999999949462,0.016666666662491,49.9999999955098,59.9999999946118,"(1200, 1200)",,data/output/20210921-0113_standard_a_0/MODTBGA.A2012099.h17v03.006.2015239220739.png,data/output/20210921-0113_standard_a_0/MODTBGA.A2012099.h17v03.006.2015239220739_mask.png,data/flights/processed/h17_v3_20120408_0910_20120408_1055.csv
MODTBGA.A2012101.h11v03.006.2015240013220,data/granules/MODTBGA/MODTBGA.A2012101.h11v03.006.2015240013220.hdf,h11,v3,2012-04-10 15:35:00+00:00,2012-04-10 18:55:00+00:00,-139.999999964624,-93.3304652293029,49.9999999955098,59.9999999946118,"(1200, 1200)",,data/output/20210921-0113_standard_a_0/MODTBGA.A2012101.h11v03.006.2015240013220.png,data/output/20210921-0113_standard_a_0/MODTBGA.A2012101.h11v03.006.2015240013220_mask.png,data/flights/processed/h11_v3_20120410_1535_20120410_1855.csv
MODTBGA.A2012098.h11v03.006.2015239215714,data/granules/MODTBGA/MODTBGA.A2012098.h11v03.006.2015239215714.hdf,h11,v3,2012-04-07 15:05:00+00:00,2012-04-07 20:05:00+00:00,-139.999999964624,-93.3304652293029,49.9999999955098,59.9999999946118,"(1200, 1200)",,data/output/20210921-0113_standard_a_0/MODTBGA.A2012098.h11v03.006.2015239215714.png,data/output/20210921-0113_standard_a_0/MODTBGA.A2012098.h11v03.006.2015239215714_mask.png,data/flights/processed/h11_v3_20120407_1505_20120407_2005.csv
MODTBGA.A2012096.h12v05.006.2015240021446,data/granules/MODTBGA/MODTBGA.A2012096.h12v05.006.2015240021446.hdf,h12,v5,2012-04-05 12:05:00+00:00,2012-04-05 13:50:00+00:00,-78.3244373487825,-57.7254044077251,29.9999999973059,39.9999999964079,"(1200, 1200)",,data/output/20210921-0113_standard_a_0/MODTBGA.A2012096.h12v05.006.2015240021446.png,data/output/20210921-0113_standard_a_0/MODTBGA.A2012096.h12v05.006.2015240021446_mask.png,data/flights/processed/h12_v5_20120405_1205_20120405_1350.csv
MODTBGA.A2012101.h18v03.006.2015240013341,data/granules/MODTBGA/MODTBGA.A2012101.h18v03.006.2015240013341.hdf,h18,v3,2012-04-10 07:20:00+00:00,2012-04-10 10:40:00+00:00,0.0,20.0166666616087,49.9999999955098,59.9999999946118,"(1200, 1200)",,data/output/20210921-0113_standard_a_0/MODTBGA.A2012101.h18v03.006.2015240013341.png,data/output/20210921-0113_standard_a_0/MODTBGA.A2012101.h18v03.006.2015240013341_mask.png,data/flights/processed/h18_v3_20120410_0720_20120410_1040.csv
MODTBGA.A2012098.h17v03.006.2015239215401,data/granules/MODTBGA/MODTBGA.A2012098.h17v03.006.2015239215401.hdf,h17,v3,2012-04-07 08:30:00+00:00,2012-04-07 11:50:00+00:00,-19.9999999949462,0.016666666662491,49.9999999955098,59.9999999946118,"(1200, 1200)",,data/output/20210921-0113_standard_a_0/MODTBGA.A2012098.h17v03.006.2015239215401.png,data/output/20210921-0113_standard_a_0/MODTBGA.A2012098.h17v03.006.2015239215401_mask.png,data/flights/processed/h17_v3_20120407_0830_20120407_1150.csv
MODTBGA.A2012096.h15v05.006.2015240021524,data/granules/MODTBGA/MODTBGA.A2012096.h15v05.006.2015240021524.hdf,h15,v5,2012-04-05 10:25:00+00:00,2012-04-05 12:10:00+00:00,-39.1622186743913,-23.0843882603988,29.9999999973059,39.9999999964079,"(1200, 1200)",,,,data/flights/processed/h15_v5_20120405_1025_20120405_1210.csv
MODTBGA.A2012100.h17v05.006.2015240000335,data/granules/MODTBGA/MODTBGA.A2012100.h17v05.006.2015240000335.hdf,h17,v5,2012-04-09 08:20:00+00:00,2012-04-09 10:05:00+00:00,-13.0540728914637,0.0108783940762432,29.9999999973059,39.9999999964079,"(1200, 1200)",,,,data/flights/processed/h17_v5_20120409_0820_20120409_1005.csv
MODTBGA.A2012097.h11v03.006.2015239225045,data/granules/MODTBGA/MODTBGA.A2012097.h11v03.006.2015239225045.hdf,h11,v3,2012-04-06 14:25:00+00:00,2012-04-06 19:20:00+00:00,-139.999999964624,-93.3304652293029,49.9999999955098,59.9999999946118,"(1200, 1200)",,,,data/flights/processed/h11_v3_20120406_1425_20120406_1920.csv
MODTBGA.A2012097.h17v05.006.2015239224159,data/granules/MODTBGA/MODTBGA.A2012097.h17v05.006.2015239224159.hdf,h17,v5,2012-04-06 09:30:00+00:00,2012-04-06 09:35:00+00:00,-13.0540728914637,0.0108783940762432,29.9999999973059,39.9999999964079,"(1200, 1200)",,data/output/20210921-0113_standard_a_0/MODTBGA.A2012097.h17v05.006.2015239224159.png,data/output/20210921-0113_standard_a_0/MODTBGA.A2012097.h17v05.006.2015239224159_mask.png,data/flights/processed/h17_v5_20120406_0930_20120406_0935.csv
MODTBGA.A2012097.h11v05.006.2015239223847,data/granules/MODTBGA/MODTBGA.A2012097.h11v05.006.2015239223847.hdf,h11,v5,2012-04-06 12:50:00+00:00,2012-04-06 14:35:00+00:00,-91.3785102402463,-69.2724097901671,29.9999999973059,39.9999999964079,"(1200, 1200)",,,,data/flights/processed/h11_v5_20120406_1250_20120406_1435.csv
MODTBGA.A2012098.h11v04.006.2015239215556,data/granules/MODTBGA/MODTBGA.A2012098.h11v04.006.2015239215556.hdf,h11,v4,2012-04-07 13:30:00+00:00,2012-04-07 16:50:00+00:00,-108.900667860278,-78.3135589547063,39.9999999964079,49.9999999955098,"(1200, 1200)",,data/output/20210921-0113_standard_a_0/MODTBGA.A2012098.h11v04.006.2015239215556.png,data/output/20210921-0113_standard_a_0/MODTBGA.A2012098.h11v04.006.2015239215556_mask.png,data/flights/processed/h11_v4_20120407_1330_20120407_1650.csv
MODTBGA.A2012098.h19v03.006.2015239220335,data/granules/MODTBGA/MODTBGA.A2012098.h19v03.006.2015239220335.hdf,h19,v3,2012-04-07 06:50:00+00:00,2012-04-07 08:35:00+00:00,15.5572382657541,40.016666656555,49.9999999955098,59.9999999946118,"(1200, 1200)",,,,data/flights/processed/h19_v3_20120407_0650_20120407_0835.csv
MODTBGA.A2012094.h13v03.006.2015240000758,data/granules/MODTBGA/MODTBGA.A2012094.h13v03.006.2015240000758.hdf,h13,v3,2012-04-03 12:15:00+00:00,2012-04-03 17:10:00+00:00,-99.9999999747312,-62.2159886977948,49.9999999955098,59.9999999946118,"(1200, 1200)",,,,data/flights/processed/h13_v3_20120403_1215_20120403_1710.csv
MODTBGA.A2012101.h18v04.006.2015240012841,data/granules/MODTBGA/MODTBGA.A2012101.h18v04.006.2015240012841.hdf,h18,v4,2012-04-10 07:25:00+00:00,2012-04-10 09:10:00+00:00,0.0,15.5702026309755,39.9999999964079,49.9999999955098,"(1200, 1200)",,,,data/flights/processed/h18_v4_20120410_0725_20120410_0910.csv
MODTBGA.A2012094.h18v03.006.2015240000903,data/granules/MODTBGA/MODTBGA.A2012094.h18v03.006.2015240000903.hdf,h18,v3,2012-04-03 07:15:00+00:00,2012-04-03 10:35:00+00:00,0.0,20.0166666616087,49.9999999955098,59.9999999946118,"(1200, 1200)",,data/output/20210921-0113_standard_a_0/MODTBGA.A2012094.h18v03.006.2015240000903.png,data/output/20210921-0113_standard_a_0/MODTBGA.A2012094.h18v03.006.2015240000903_mask.png,data/flights/processed/h18_v3_20120403_0715_20120403_1035.csv
MODTBGA.A2012100.h18v04.006.2015240003409,data/granules/MODTBGA/MODTBGA.A2012100.h18v04.006.2015240003409.hdf,h18,v4,2012-04-09 08:20:00+00:00,2012-04-09 10:05:00+00:00,0.0,15.5702026309755,39.9999999964079,49.9999999955098,"(1200, 1200)",,,,data/flights/processed/h18_v4_20120409_0820_20120409_1005.csv
MODTBGA.A2012101.h19v03.006.2015240013615,data/granules/MODTBGA/MODTBGA.A2012101.h19v03.006.2015240013615.hdf,h19,v3,2012-04-10 05:40:00+00:00,2012-04-10 09:05:00+00:00,15.5572382657541,40.016666656555,49.9999999955098,59.9999999946118,"(1200, 1200)",,,,data/flights/processed/h19_v3_20120410_0540_20120410_0905.csv
MODTBGA.A2012097.h16v05.006.2015239224659,data/granules/MODTBGA/MODTBGA.A2012097.h16v05.006.2015239224659.hdf,h16,v5,2012-04-06 09:30:00+00:00,2012-04-06 11:15:00+00:00,-26.1081457829275,-11.5373828779567,29.9999999973059,39.9999999964079,"(1200, 1200)",,,,data/flights/processed/h16_v5_20120406_0930_20120406_1115.csv
MODTBGA.A2012100.h19v03.006.2015240002404,data/granules/MODTBGA/MODTBGA.A2012100.h19v03.006.2015240002404.hdf,h19,v3,2012-04-09 06:35:00+00:00,2012-04-09 08:25:00+00:00,15.5572382657541,40.016666656555,49.9999999955098,59.9999999946118,"(1200, 1200)",,,,data/flights/processed/h19_v3_20120409_0635_20120409_0825.csv
MODTBGA.A2012099.h18v03.006.2015239221245,data/granules/MODTBGA/MODTBGA.A2012099.h18v03.006.2015239221245.hdf,h18,v3,2012-04-08 07:30:00+00:00,2012-04-08 10:55:00+00:00,0.0,20.0166666616087,49.9999999955098,59.9999999946118,"(1200, 1200)",,data/output/20210921-0113_standard_a_0/MODTBGA.A2012099.h18v03.006.2015239221245.png,data/output/20210921-0113_standard_a_0/MODTBGA.A2012099.h18v03.006.2015239221245_mask.png,data/flights/processed/h18_v3_20120408_0730_20120408_1055.csv
MODTBGA.A2012099.h13v04.006.2015239220416,data/granules/MODTBGA/MODTBGA.A2012099.h13v04.006.2015239220416.hdf,h13,v4,2012-04-08 12:30:00+00:00,2012-04-08 14:15:00+00:00,-77.7861913287703,-52.2054131717788,39.9999999964079,49.9999999955098,"(1200, 1200)",,,,data/flights/processed/h13_v4_20120408_1230_20120408_1415.csv
MODTBGA.A2012092.h17v04.006.2015240000711,data/granules/MODTBGA/MODTBGA.A2012092.h17v04.006.2015240000711.hdf,h17,v4,2012-04-01 09:05:00+00:00,2012-04-01 10:55:00+00:00,-15.557238265754,0.0129643652214896,39.9999999964079,49.9999999955098,"(1200, 1200)",,data/output/20210921-0113_standard_a_0/MODTBGA.A2012092.h17v04.006.2015240000711.png,data/output/20210921-0113_standard_a_0/MODTBGA.A2012092.h17v04.006.2015240000711_mask.png,data/flights/processed/h17_v4_20120401_0905_20120401_1055.csv
MODTBGA.A2012101.h19v04.006.2015240013130,data/granules/MODTBGA/MODTBGA.A2012101.h19v04.006.2015240013130.hdf,h19,v4,2012-04-10 07:20:00+00:00,2012-04-10 09:10:00+00:00,13.0540728914638,31.1274408967296,39.9999999964079,49.9999999955098,"(1200, 1200)",,,,data/flights/processed/h19_v4_20120410_0720_20120410_0910.csv
MODTBGA.A2012101.h14v03.006.2015240013150,data/granules/MODTBGA/MODTBGA.A2012101.h14v03.006.2015240013150.hdf,h14,v3,2012-04-10 12:15:00+00:00,2012-04-10 15:40:00+00:00,-79.9999999797849,-46.6587504320407,49.9999999955098,59.9999999946118,"(1200, 1200)",,data/output/20210921-0113_standard_a_0/MODTBGA.A2012101.h14v03.006.2015240013150.png,data/output/20210921-0113_standard_a_0/MODTBGA.A2012101.h14v03.006.2015240013150_mask.png,data/flights/processed/h14_v3_20120410_1215_20120410_1540.csv
MODTBGA.A2012095.h17v03.006.2015240011807,data/granules/MODTBGA/MODTBGA.A2012095.h17v03.006.2015240011807.hdf,h17,v3,2012-04-04 09:35:00+00:00,2012-04-04 11:20:00+00:00,-19.9999999949462,0.016666666662491,49.9999999955098,59.9999999946118,"(1200, 1200)",,,,data/flights/processed/h17_v3_20120404_0935_20120404_1120.csv
MODTBGA.A2012093.h13v04.006.2015239224608,data/granules/MODTBGA/MODTBGA.A2012093.h13v04.006.2015239224608.hdf,h13,v4,2012-04-02 11:30:00+00:00,2012-04-02 14:55:00+00:00,-77.7861913287703,-52.2054131717788,39.9999999964079,49.9999999955098,"(1200, 1200)",,data/output/20210921-0113_standard_a_0/MODTBGA.A2012093.h13v04.006.2015239224608.png,data/output/20210921-0113_standard_a_0/MODTBGA.A2012093.h13v04.006.2015239224608_mask.png,data/flights/processed/h13_v4_20120402_1130_20120402_1455.csv
MODTBGA.A2012093.h17v04.006.2015239224458,data/granules/MODTBGA/MODTBGA.A2012093.h17v04.006.2015239224458.hdf,h17,v4,2012-04-02 08:10:00+00:00,2012-04-02 10:00:00+00:00,-15.557238265754,0.0129643652214896,39.9999999964079,49.9999999955098,"(1200, 1200)",,,,data/flights/processed/h17_v4_20120402_0810_20120402_1000.csv
MODTBGA.A2012099.h19v05.006.2015239220624,data/granules/MODTBGA/MODTBGA.A2012099.h19v05.006.2015239220624.hdf,h19,v5,2012-04-08 07:35:00+00:00,2012-04-08 07:45:00+00:00,11.5470053824421,26.1190241770037,29.9999999973059,39.9999999964079,"(1200, 1200)",,data/output/20210921-0113_standard_a_0/MODTBGA.A2012099.h19v05.006.2015239220624.png,data/output/20210921-0113_standard_a_0/MODTBGA.A2012099.h19v05.006.2015239220624_mask.png,data/flights/processed/h19_v5_20120408_0735_20120408_0745.csv
MODTBGA.A2012095.h17v04.006.2015240011727,data/granules/MODTBGA/MODTBGA.A2012095.h17v04.006.2015240011727.hdf,h17,v4,2012-04-04 08:00:00+00:00,2012-04-04 11:20:00+00:00,-15.557238265754,0.0129643652214896,39.9999999964079,49.9999999955098,"(1200, 1200)",,data/output/20210921-0113_standard_a_0/MODTBGA.A2012095.h17v04.006.2015240011727.png,data/output/20210921-0113_standard_a_0/MODTBGA.A2012095.h17v04.006.2015240011727_mask.png,data/flights/processed/h17_v4_20120404_0800_20120404_1120.csv
MODTBGA.A2012092.h12v05.006.2015240000342,data/granules/MODTBGA/MODTBGA.A2012092.h12v05.006.2015240000342.hdf,h12,v5,2012-04-01 12:30:00+00:00,2012-04-01 14:15:00+00:00,-78.3244373487825,-57.7254044077251,29.9999999973059,39.9999999964079,"(1200, 1200)",,,,data/flights/processed/h12_v5_20120401_1230_20120401_1415.csv
MODTBGA.A2012101.h11v05.006.2015240012845,data/granules/MODTBGA/MODTBGA.A2012101.h11v05.006.2015240012845.hdf,h11,v5,2012-04-10 14:00:00+00:00,2012-04-10 15:45:00+00:00,-91.3785102402463,-69.2724097901671,29.9999999973059,39.9999999964079,"(1200, 1200)",,data/output/20210921-0113_standard_a_0/MODTBGA.A2012101.h11v05.006.2015240012845.png,data/output/20210921-0113_standard_a_0/MODTBGA.A2012101.h11v05.006.2015240012845_mask.png,data/flights/processed/h11_v5_20120410_1400_20120410_1545.csv
MODTBGA.A2012092.h16v05.006.2015240000951,data/granules/MODTBGA/MODTBGA.A2012092.h16v05.006.2015240000951.hdf,h16,v5,2012-04-01 09:10:00+00:00,2012-04-01 10:55:00+00:00,-26.1081457829275,-11.5373828779567,29.9999999973059,39.9999999964079,"(1200, 1200)",,data/output/20210921-0113_standard_a_0/MODTBGA.A2012092.h16v05.006.2015240000951.png,data/output/20210921-0113_standard_a_0/MODTBGA.A2012092.h16v05.006.2015240000951_mask.png,data/flights/processed/h16_v5_20120401_0910_20120401_1055.csv
MODTBGA.A2012092.h11v03.006.2015240001023,data/granules/MODTBGA/MODTBGA.A2012092.h11v03.006.2015240001023.hdf,h11,v3,2012-04-01 15:40:00+00:00,2012-04-01 19:05:00+00:00,-139.999999964624,-93.3304652293029,49.9999999955098,59.9999999946118,"(1200, 1200)",,,,data/flights/processed/h11_v3_20120401_1540_20120401_1905.csv
MODTBGA.A2012100.h14v04.006.2015240003720,data/granules/MODTBGA/MODTBGA.A2012100.h14v04.006.2015240003720.hdf,h14,v4,2012-04-09 11:35:00+00:00,2012-04-09 13:20:00+00:00,-62.2289530630162,-39.1513402803151,39.9999999964079,49.9999999955098,"(1200, 1200)",,,,data/flights/processed/h14_v4_20120409_1135_20120409_1320.csv
MODTBGA.A2012101.h12v05.006.2015240013124,data/granules/MODTBGA/MODTBGA.A2012101.h12v05.006.2015240013124.hdf,h12,v5,2012-04-10 12:20:00+00:00,2012-04-10 14:10:00+00:00,-78.3244373487825,-57.7254044077251,29.9999999973059,39.9999999964079,"(1200, 1200)",,,,data/flights/processed/h12_v5_20120410_1220_20120410_1410.csv
MODTBGA.A2012096.h18v05.006.2015240021506,data/granules/MODTBGA/MODTBGA.A2012096.h18v05.006.2015240021506.hdf,h18,v5,2012-04-05 08:45:00+00:00,2012-04-05 08:55:00+00:00,0.0,13.06495128554,29.9999999973059,39.9999999964079,"(1200, 1200)",,data/output/20210921-0113_standard_a_0/MODTBGA.A2012096.h18v05.006.2015240021506.png,data/output/20210921-0113_standard_a_0/MODTBGA.A2012096.h18v05.006.2015240021506_mask.png,data/flights/processed/h18_v5_20120405_0845_20120405_0855.csv
MODTBGA.A2012093.h17v05.006.2015239224123,data/granules/MODTBGA/MODTBGA.A2012093.h17v05.006.2015239224123.hdf,h17,v5,2012-04-02 08:15:00+00:00,2012-04-02 10:00:00+00:00,-13.0540728914637,0.0108783940762432,29.9999999973059,39.9999999964079,"(1200, 1200)",,,,data/flights/processed/h17_v5_20120402_0815_20120402_1000.csv
MODTBGA.A2012096.h19v05.006.2015240022012,data/granules/MODTBGA/MODTBGA.A2012096.h19v05.006.2015240022012.hdf,h19,v5,2012-04-05 07:05:00+00:00,2012-04-05 08:55:00+00:00,11.5470053824421,26.1190241770037,29.9999999973059,39.9999999964079,"(1200, 1200)",,data/output/20210921-0113_standard_a_0/MODTBGA.A2012096.h19v05.006.2015240022012.png,data/output/20210921-0113_standard_a_0/MODTBGA.A2012096.h19v05.006.2015240022012_mask.png,data/flights/processed/h19_v5_20120405_0705_20120405_0855.csv
MODTBGA.A2012098.h17v05.006.2015239215336,data/granules/MODTBGA/MODTBGA.A2012098.h17v05.006.2015239215336.hdf,h17,v5,2012-04-07 08:35:00+00:00,2012-04-07 10:20:00+00:00,-13.0540728914637,0.0108783940762432,29.9999999973059,39.9999999964079,"(1200, 1200)",,,,data/flights/processed/h17_v5_20120407_0835_20120407_1020.csv
MODTBGA.A2012098.h19v04.006.2015239220115,data/granules/MODTBGA/MODTBGA.A2012098.h19v04.006.2015239220115.hdf,h19,v4,2012-04-07 06:50:00+00:00,2012-04-07 08:40:00+00:00,13.0540728914638,31.1274408967296,39.9999999964079,49.9999999955098,"(1200, 1200)",,,,data/flights/processed/h19_v4_20120407_0650_20120407_0840.csv
MODTBGA.A2012097.h12v04.006.2015239223941,data/granules/MODTBGA/MODTBGA.A2012097.h12v04.006.2015239223941.hdf,h12,v4,2012-04-06 12:45:00+00:00,2012-04-06 16:05:00+00:00,-93.3434295945244,-65.2594860632426,39.9999999964079,49.9999999955098,"(1200, 1200)",,,,data/flights/processed/h12_v4_20120406_1245_20120406_1605.csv
MODTBGA.A2012096.h19v03.006.2015240022257,data/granules/MODTBGA/MODTBGA.A2012096.h19v03.006.2015240022257.hdf,h19,v3,2012-04-05 05:20:00+00:00,2012-04-05 08:45:00+00:00,15.5572382657541,40.016666656555,49.9999999955098,59.9999999946118,"(1200, 1200)",,data/output/20210921-0113_standard_a_0/MODTBGA.A2012096.h19v03.006.2015240022257.png,data/output/20210921-0113_standard_a_0/MODTBGA.A2012096.h19v03.006.2015240022257_mask.png,data/flights/processed/h19_v3_20120405_0520_20120405_0845.csv
MODTBGA.A2012093.h17v03.006.2015239224042,data/granules/MODTBGA/MODTBGA.A2012093.h17v03.006.2015239224042.hdf,h17,v3,2012-04-02 08:10:00+00:00,2012-04-02 11:35:00+00:00,-19.9999999949462,0.016666666662491,49.9999999955098,59.9999999946118,"(1200, 1200)",,data/output/20210921-0113_standard_a_0/MODTBGA.A2012093.h17v03.006.2015239224042.png,data/output/20210921-0113_standard_a_0/MODTBGA.A2012093.h17v03.006.2015239224042_mask.png,data/flights/processed/h17_v3_20120402_0810_20120402_1135.csv
MODTBGA.A2012094.h15v03.006.2015240000438,data/granules/MODTBGA/MODTBGA.A2012094.h15v03.006.2015240000438.hdf,h15,v3,2012-04-03 10:30:00+00:00,2012-04-03 13:55:00+00:00,-59.9999999848387,-31.1015121662867,49.9999999955098,59.9999999946118,"(1200, 1200)",,data/output/20210921-0113_standard_a_0/MODTBGA.A2012094.h15v03.006.2015240000438.png,data/output/20210921-0113_standard_a_0/MODTBGA.A2012094.h15v03.006.2015240000438_mask.png,data/flights/processed/h15_v3_20120403_1030_20120403_1355.csv
MODTBGA.A2012095.h14v04.006.2015240012741,data/granules/MODTBGA/MODTBGA.A2012095.h14v04.006.2015240012741.hdf,h14,v4,2012-04-04 11:20:00+00:00,2012-04-04 13:05:00+00:00,-62.2289530630162,-39.1513402803151,39.9999999964079,49.9999999955098,"(1200, 1200)",,,,data/flights/processed/h14_v4_20120404_1120_20120404_1305.csv
MODTBGA.A2012100.h18v05.006.2015240000813,data/granules/MODTBGA/MODTBGA.A2012100.h18v05.006.2015240000813.hdf,h18,v5,2012-04-09 08:20:00+00:00,2012-04-09 08:30:00+00:00,0.0,13.06495128554,29.9999999973059,39.9999999964079,"(1200, 1200)",,data/output/20210921-0113_standard_a_0/MODTBGA.A2012100.h18v05.006.2015240000813.png,data/output/20210921-0113_standard_a_0/MODTBGA.A2012100.h18v05.006.2015240000813_mask.png,data/flights/processed/h18_v5_20120409_0820_20120409_0830.csv
MODTBGA.A2012099.h14v04.006.2015239222332,data/granules/MODTBGA/MODTBGA.A2012099.h14v04.006.2015239222332.hdf,h14,v4,2012-04-08 10:55:00+00:00,2012-04-08 14:15:00+00:00,-62.2289530630162,-39.1513402803151,39.9999999964079,49.9999999955098,"(1200, 1200)",,,,data/flights/processed/h14_v4_20120408_1055_20120408_1415.csv
MODTBGA.A2012100.h19v05.006.2015240001632,data/granules/MODTBGA/MODTBGA.A2012100.h19v05.006.2015240001632.hdf,h19,v5,2012-04-09 06:40:00+00:00,2012-04-09 08:30:00+00:00,11.5470053824421,26.1190241770037,29.9999999973059,39.9999999964079,"(1200, 1200)",,,,data/flights/processed/h19_v5_20120409_0640_20120409_0830.csv
MODTBGA.A2012094.h11v04.006.2015240001003,data/granules/MODTBGA/MODTBGA.A2012094.h11v04.006.2015240001003.hdf,h11,v4,2012-04-03 13:55:00+00:00,2012-04-03 17:15:00+00:00,-108.900667860278,-78.3135589547063,39.9999999964079,49.9999999955098,"(1200, 1200)",,,,data/flights/processed/h11_v4_20120403_1355_20120403_1715.csv
MODTBGA.A2012097.h15v03.006.2015239225327,data/granules/MODTBGA/MODTBGA.A2012097.h15v03.006.2015239225327.hdf,h15,v3,2012-04-06 11:00:00+00:00,2012-04-06 14:25:00+00:00,-59.9999999848387,-31.1015121662867,49.9999999955098,59.9999999946118,"(1200, 1200)",,data/output/20210921-0113_standard_a_0/MODTBGA.A2012097.h15v03.006.2015239225327.png,data/output/20210921-0113_standard_a_0/MODTBGA.A2012097.h15v03.006.2015239225327_mask.png,data/flights/processed/h15_v3_20120406_1100_20120406_1425.csv
MODTBGA.A2012097.h17v03.006.2015239225503,data/granules/MODTBGA/MODTBGA.A2012097.h17v03.006.2015239225503.hdf,h17,v3,2012-04-06 09:25:00+00:00,2012-04-06 11:10:00+00:00,-19.9999999949462,0.016666666662491,49.9999999955098,59.9999999946118,"(1200, 1200)",,,,data/flights/processed/h17_v3_20120406_0925_20120406_1110.csv
MODTBGA.A2012099.h11v05.006.2015239220359,data/granules/MODTBGA/MODTBGA.A2012099.h11v05.006.2015239220359.hdf,h11,v5,2012-04-08 12:35:00+00:00,2012-04-08 15:55:00+00:00,-91.3785102402463,-69.2724097901671,29.9999999973059,39.9999999964079,"(1200, 1200)",,data/output/20210921-0113_standard_a_0/MODTBGA.A2012099.h11v05.006.2015239220359.png,data/output/20210921-0113_standard_a_0/MODTBGA.A2012099.h11v05.006.2015239220359_mask.png,data/flights/processed/h11_v5_20120408_1235_20120408_1555.csv
MODTBGA.A2012097.h13v03.006.2015239224019,data/granules/MODTBGA/MODTBGA.A2012097.h13v03.006.2015239224019.hdf,h13,v3,2012-04-06 12:45:00+00:00,2012-04-06 17:40:00+00:00,-99.9999999747312,-62.2159886977948,49.9999999955098,59.9999999946118,"(1200, 1200)",,,,data/flights/processed/h13_v3_20120406_1245_20120406_1740.csv
MODTBGA.A2012097.h18v05.006.2015239224651,data/granules/MODTBGA/MODTBGA.A2012097.h18v05.006.2015239224651.hdf,h18,v5,2012-04-06 07:50:00+00:00,2012-04-06 09:35:00+00:00,0.0,13.06495128554,29.9999999973059,39.9999999964079,"(1200, 1200)",,,,data/flights/processed/h18_v5_20120406_0750_20120406_0935.csv
MODTBGA.A2012095.h12v04.006.2015240011822,data/granules/MODTBGA/MODTBGA.A2012095.h12v04.006.2015240011822.hdf,h12,v4,2012-04-04 12:55:00+00:00,2012-04-04 16:20:00+00:00,-93.3434295945244,-65.2594860632426,39.9999999964079,49.9999999955098,"(1200, 1200)",,,,data/flights/processed/h12_v4_20120404_1255_20120404_1620.csv
MODTBGA.A2012101.h17v05.006.2015240012747,data/granules/MODTBGA/MODTBGA.A2012101.h17v05.006.2015240012747.hdf,h17,v5,2012-04-10 09:05:00+00:00,2012-04-10 10:45:00+00:00,-13.0540728914637,0.0108783940762432,29.9999999973059,39.9999999964079,"(1200, 1200)",,data/output/20210921-0113_standard_a_0/MODTBGA.A2012101.h17v05.006.2015240012747.png,data/output/20210921-0113_standard_a_0/MODTBGA.A2012101.h17v05.006.2015240012747_mask.png,data/flights/processed/h17_v5_20120410_0905_20120410_1045.csv
MODTBGA.A2012099.h19v03.006.2015239221609,data/granules/MODTBGA/MODTBGA.A2012099.h19v03.006.2015239221609.hdf,h19,v3,2012-04-08 05:55:00+00:00,2012-04-08 09:20:00+00:00,15.5572382657541,40.016666656555,49.9999999955098,59.9999999946118,"(1200, 1200)",,,,data/flights/processed/h19_v3_20120408_0555_20120408_0920.csv
MODTBGA.A2012096.h18v04.006.2015240021829,data/granules/MODTBGA/MODTBGA.A2012096.h18v04.006.2015240021829.hdf,h18,v4,2012-04-05 07:05:00+00:00,2012-04-05 08:50:00+00:00,0.0,15.5702026309755,39.9999999964079,49.9999999955098,"(1200, 1200)",,data/output/20210921-0113_standard_a_0/MODTBGA.A2012096.h18v04.006.2015240021829.png,data/output/20210921-0113_standard_a_0/MODTBGA.A2012096.h18v04.006.2015240021829_mask.png,data/flights/processed/h18_v4_20120405_0705_20120405_0850.csv
MODTBGA.A2012092.h17v03.006.2015240001238,data/granules/MODTBGA/MODTBGA.A2012092.h17v03.006.2015240001238.hdf,h17,v3,2012-04-01 09:05:00+00:00,2012-04-01 10:50:00+00:00,-19.9999999949462,0.016666666662491,49.9999999955098,59.9999999946118,"(1200, 1200)",,data/output/20210921-0113_standard_a_0/MODTBGA.A2012092.h17v03.006.2015240001238.png,data/output/20210921-0113_standard_a_0/MODTBGA.A2012092.h17v03.006.2015240001238_mask.png,data/flights/processed/h17_v3_20120401_0905_20120401_1050.csv
MODTBGA.A2012094.h11v05.006.2015240000911,data/granules/MODTBGA/MODTBGA.A2012094.h11v05.006.2015240000911.hdf,h11,v5,2012-04-03 13:55:00+00:00,2012-04-03 15:40:00+00:00,-91.3785102402463,-69.2724097901671,29.9999999973059,39.9999999964079,"(1200, 1200)",,,,data/flights/processed/h11_v5_20120403_1355_20120403_1540.csv
MODTBGA.A2012093.h11v03.006.2015239225347,data/granules/MODTBGA/MODTBGA.A2012093.h11v03.006.2015239225347.hdf,h11,v3,2012-04-02 14:45:00+00:00,2012-04-02 19:45:00+00:00,-139.999999964624,-93.3304652293029,49.9999999955098,59.9999999946118,"(1200, 1200)",,data/output/20210921-0113_standard_a_0/MODTBGA.A2012093.h11v03.006.2015239225347.png,data/output/20210921-0113_standard_a_0/MODTBGA.A2012093.h11v03.006.2015239225347_mask.png,data/flights/processed/h11_v3_20120402_1445_20120402_1945.csv
MODTBGA.A2012100.h17v04.006.2015240001646,data/granules/MODTBGA/MODTBGA.A2012100.h17v04.006.2015240001646.hdf,h17,v4,2012-04-09 08:20:00+00:00,2012-04-09 10:05:00+00:00,-15.557238265754,0.0129643652214896,39.9999999964079,49.9999999955098,"(1200, 1200)",,,,data/flights/processed/h17_v4_20120409_0820_20120409_1005.csv
MODTBGA.A2012100.h11v04.006.2015240000258,data/granules/MODTBGA/MODTBGA.A2012100.h11v04.006.2015240000258.hdf,h11,v4,2012-04-09 13:20:00+00:00,2012-04-09 16:40:00+00:00,-108.900667860278,-78.3135589547063,39.9999999964079,49.9999999955098,"(1200, 1200)",,data/output/20210921-0113_standard_a_0/MODTBGA.A2012100.h11v04.006.2015240000258.png,data/output/20210921-0113_standard_a_0/MODTBGA.A2012100.h11v04.006.2015240000258_mask.png,data/flights/processed/h11_v4_20120409_1320_20120409_1640.csv
MODTBGA.A2012092.h13v04.006.2015240001623,data/granules/MODTBGA/MODTBGA.A2012092.h13v04.006.2015240001623.hdf,h13,v4,2012-04-01 12:25:00+00:00,2012-04-01 14:10:00+00:00,-77.7861913287703,-52.2054131717788,39.9999999964079,49.9999999955098,"(1200, 1200)",,,,data/flights/processed/h13_v4_20120401_1225_20120401_1410.csv
MODTBGA.A2012101.h12v03.006.2015240013448,data/granules/MODTBGA/MODTBGA.A2012101.h12v03.006.2015240013448.hdf,h12,v3,2012-04-10 13:55:00+00:00,2012-04-10 18:55:00+00:00,-119.999999969677,-77.7732269635488,49.9999999955098,59.9999999946118,"(1200, 1200)",,data/output/20210921-0113_standard_a_0/MODTBGA.A2012101.h12v03.006.2015240013448.png,data/output/20210921-0113_standard_a_0/MODTBGA.A2012101.h12v03.006.2015240013448_mask.png,data/flights/processed/h12_v3_20120410_1355_20120410_1855.csv
MODTBGA.A2012098.h12v03.006.2015239215709,data/granules/MODTBGA/MODTBGA.A2012098.h12v03.006.2015239215709.hdf,h12,v3,2012-04-07 13:25:00+00:00,2012-04-07 18:25:00+00:00,-119.999999969677,-77.7732269635488,49.9999999955098,59.9999999946118,"(1200, 1200)",,data/output/20210921-0113_standard_a_0/MODTBGA.A2012098.h12v03.006.2015239215709.png,data/output/20210921-0113_standard_a_0/MODTBGA.A2012098.h12v03.006.2015239215709_mask.png,data/flights/processed/h12_v3_20120407_1325_20120407_1825.csv
MODTBGA.A2012099.h17v04.006.2015239220813,data/granules/MODTBGA/MODTBGA.A2012099.h17v04.006.2015239220813.hdf,h17,v4,2012-04-08 09:15:00+00:00,2012-04-08 11:00:00+00:00,-15.557238265754,0.0129643652214896,39.9999999964079,49.9999999955098,"(1200, 1200)",,,,data/flights/processed/h17_v4_20120408_0915_20120408_1100.csv
MODTBGA.A2012098.h15v05.006.2015239215321,data/granules/MODTBGA/MODTBGA.A2012098.h15v05.006.2015239215321.hdf,h15,v5,2012-04-07 10:10:00+00:00,2012-04-07 12:00:00+00:00,-39.1622186743913,-23.0843882603988,29.9999999973059,39.9999999964079,"(1200, 1200)",,,,data/flights/processed/h15_v5_20120407_1010_20120407_1200.csv
MODTBGA.A2012094.h17v04.006.2015240001240,data/granules/MODTBGA/MODTBGA.A2012094.h17v04.006.2015240001240.hdf,h17,v4,2012-04-03 08:55:00+00:00,2012-04-03 10:40:00+00:00,-15.557238265754,0.0129643652214896,39.9999999964079,49.9999999955098,"(1200, 1200)",,,,data/flights/processed/h17_v4_20120403_0855_20120403_1040.csv
MODTBGA.A2012098.h12v04.006.2015239215512,data/granules/MODTBGA/MODTBGA.A2012098.h12v04.006.2015239215512.hdf,h12,v4,2012-04-07 13:25:00+00:00,2012-04-07 15:15:00+00:00,-93.3434295945244,-65.2594860632426,39.9999999964079,49.9999999955098,"(1200, 1200)",,,,data/flights/processed/h12_v4_20120407_1325_20120407_1515.csv
MODTBGA.A2012098.h18v05.006.2015239215438,data/granules/MODTBGA/MODTBGA.A2012098.h18v05.006.2015239215438.hdf,h18,v5,2012-04-07 08:35:00+00:00,2012-04-07 08:40:00+00:00,0.0,13.06495128554,29.9999999973059,39.9999999964079,"(1200, 1200)",,data/output/20210921-0113_standard_a_0/MODTBGA.A2012098.h18v05.006.2015239215438.png,data/output/20210921-0113_standard_a_0/MODTBGA.A2012098.h18v05.006.2015239215438_mask.png,data/flights/processed/h18_v5_20120407_0835_20120407_0840.csv
MODTBGA.A2012094.h12v03.006.2015240000900,data/granules/MODTBGA/MODTBGA.A2012094.h12v03.006.2015240000900.hdf,h12,v3,2012-04-03 13:50:00+00:00,2012-04-03 18:50:00+00:00,-119.999999969677,-77.7732269635488,49.9999999955098,59.9999999946118,"(1200, 1200)",,data/output/20210921-0113_standard_a_0/MODTBGA.A2012094.h12v03.006.2015240000900.png,data/output/20210921-0113_standard_a_0/MODTBGA.A2012094.h12v03.006.2015240000900_mask.png,data/flights/processed/h12_v3_20120403_1350_20120403_1850.csv
MODTBGA.A2012097.h12v03.006.2015239224719,data/granules/MODTBGA/MODTBGA.A2012097.h12v03.006.2015239224719.hdf,h12,v3,2012-04-06 14:20:00+00:00,2012-04-06 17:45:00+00:00,-119.999999969677,-77.7732269635488,49.9999999955098,59.9999999946118,"(1200, 1200)",,data/output/20210921-0113_standard_a_0/MODTBGA.A2012097.h12v03.006.2015239224719.png,data/output/20210921-0113_standard_a_0/MODTBGA.A2012097.h12v03.006.2015239224719_mask.png,data/flights/processed/h12_v3_20120406_1420_20120406_1745.csv
MODTBGA.A2012092.h19v05.006.2015240000611,data/granules/MODTBGA/MODTBGA.A2012092.h19v05.006.2015240000611.hdf,h19,v5,2012-04-01 07:30:00+00:00,2012-04-01 07:40:00+00:00,11.5470053824421,26.1190241770037,29.9999999973059,39.9999999964079,"(1200, 1200)",,data/output/20210921-0113_standard_a_0/MODTBGA.A2012092.h19v05.006.2015240000611.png,data/output/20210921-0113_standard_a_0/MODTBGA.A2012092.h19v05.006.2015240000611_mask.png,data/flights/processed/h19_v5_20120401_0730_20120401_0740.csv
MODTBGA.A2012094.h11v03.006.2015240001413,data/granules/MODTBGA/MODTBGA.A2012094.h11v03.006.2015240001413.hdf,h11,v3,2012-04-03 15:30:00+00:00,2012-04-03 18:50:00+00:00,-139.999999964624,-93.3304652293029,49.9999999955098,59.9999999946118,"(1200, 1200)",,data/output/20210921-0113_standard_a_0/MODTBGA.A2012094.h11v03.006.2015240001413.png,data/output/20210921-0113_standard_a_0/MODTBGA.A2012094.h11v03.006.2015240001413_mask.png,data/flights/processed/h11_v3_20120403_1530_20120403_1850.csv
MODTBGA.A2012095.h18v03.006.2015240012352,data/granules/MODTBGA/MODTBGA.A2012095.h18v03.006.2015240012352.hdf,h18,v3,2012-04-04 07:55:00+00:00,2012-04-04 09:45:00+00:00,0.0,20.0166666616087,49.9999999955098,59.9999999946118,"(1200, 1200)",,,,data/flights/processed/h18_v3_20120404_0755_20120404_0945.csv
MODTBGA.A2012093.h12v04.006.2015239224453,data/granules/MODTBGA/MODTBGA.A2012093.h12v04.006.2015239224453.hdf,h12,v4,2012-04-02 13:10:00+00:00,2012-04-02 16:30:00+00:00,-93.3434295945244,-65.2594860632426,39.9999999964079,49.9999999955098,"(1200, 1200)",,data/output/20210921-0113_standard_a_0/MODTBGA.A2012093.h12v04.006.2015239224453.png,data/output/20210921-0113_standard_a_0/MODTBGA.A2012093.h12v04.006.2015239224453_mask.png,data/flights/processed/h12_v4_20120402_1310_20120402_1630.csv
MODTBGA.A2012093.h14v04.006.2015239224520,data/granules/MODTBGA/MODTBGA.A2012093.h14v04.006.2015239224520.hdf,h14,v4,2012-04-02 11:30:00+00:00,2012-04-02 13:15:00+00:00,-62.2289530630162,-39.1513402803151,39.9999999964079,49.9999999955098,"(1200, 1200)",,,,data/flights/processed/h14_v4_20120402_1130_20120402_1315.csv
MODTBGA.A2012092.h17v05.006.2015239235909,data/granules/MODTBGA/MODTBGA.A2012092.h17v05.006.2015239235909.hdf,h17,v5,2012-04-01 09:10:00+00:00,2012-04-01 09:20:00+00:00,-13.0540728914637,0.0108783940762432,29.9999999973059,39.9999999964079,"(1200, 1200)",,data/output/20210921-0113_standard_a_0/MODTBGA.A2012092.h17v05.006.2015239235909.png,data/output/20210921-0113_standard_a_0/MODTBGA.A2012092.h17v05.006.2015239235909_mask.png,data/flights/processed/h17_v5_20120401_0910_20120401_0920.csv
MODTBGA.A2012093.h15v03.006.2015239224535,data/granules/MODTBGA/MODTBGA.A2012093.h15v03.006.2015239224535.hdf,h15,v3,2012-04-02 11:25:00+00:00,2012-04-02 14:50:00+00:00,-59.9999999848387,-31.1015121662867,49.9999999955098,59.9999999946118,"(1200, 1200)",,data/output/20210921-0113_standard_a_0/MODTBGA.A2012093.h15v03.006.2015239224535.png,data/output/20210921-0113_standard_a_0/MODTBGA.A2012093.h15v03.006.2015239224535_mask.png,data/flights/processed/h15_v3_20120402_1125_20120402_1450.csv
MODTBGA.A2012093.h15v05.006.2015239225011,data/granules/MODTBGA/MODTBGA.A2012093.h15v05.006.2015239225011.hdf,h15,v5,2012-04-02 09:55:00+00:00,2012-04-02 11:40:00+00:00,-39.1622186743913,-23.0843882603988,29.9999999973059,39.9999999964079,"(1200, 1200)",,,,data/flights/processed/h15_v5_20120402_0955_20120402_1140.csv
MODTBGA.A2012092.h19v04.006.2015240000541,data/granules/MODTBGA/MODTBGA.A2012092.h19v04.006.2015240000541.hdf,h19,v4,2012-04-01 07:30:00+00:00,2012-04-01 09:15:00+00:00,13.0540728914638,31.1274408967296,39.9999999964079,49.9999999955098,"(1200, 1200)",,,,data/flights/processed/h19_v4_20120401_0730_20120401_0915.csv
MODTBGA.A2012099.h19v04.006.2015239221115,data/granules/MODTBGA/MODTBGA.A2012099.h19v04.006.2015239221115.hdf,h19,v4,2012-04-08 05:55:00+00:00,2012-04-08 09:20:00+00:00,13.0540728914638,31.1274408967296,39.9999999964079,49.9999999955098,"(1200, 1200)",,,,data/flights/processed/h19_v4_20120408_0555_20120408_0920.csv
MODTBGA.A2012095.h12v05.006.2015240011916,data/granules/MODTBGA/MODTBGA.A2012095.h12v05.006.2015240011916.hdf,h12,v5,2012-04-04 13:00:00+00:00,2012-04-04 14:45:00+00:00,-78.3244373487825,-57.7254044077251,29.9999999973059,39.9999999964079,"(1200, 1200)",,data/output/20210921-0113_standard_a_0/MODTBGA.A2012095.h12v05.006.2015240011916.png,data/output/20210921-0113_standard_a_0/MODTBGA.A2012095.h12v05.006.2015240011916_mask.png,data/flights/processed/h12_v5_20120404_1300_20120404_1445.csv
MODTBGA.A2012101.h16v05.006.2015240012939,data/granules/MODTBGA/MODTBGA.A2012101.h16v05.006.2015240012939.hdf,h16,v5,2012-04-10 09:05:00+00:00,2012-04-10 10:50:00+00:00,-26.1081457829275,-11.5373828779567,29.9999999973059,39.9999999964079,"(1200, 1200)",,data/output/20210921-0113_standard_a_0/MODTBGA.A2012101.h16v05.006.2015240012939.png,data/output/20210921-0113_standard_a_0/MODTBGA.A2012101.h16v05.006.2015240012939_mask.png,data/flights/processed/h16_v5_20120410_0905_20120410_1050.csv
MODTBGA.A2012092.h18v04.006.2015240000542,data/granules/MODTBGA/MODTBGA.A2012092.h18v04.006.2015240000542.hdf,h18,v4,2012-04-01 07:30:00+00:00,2012-04-01 09:15:00+00:00,0.0,15.5702026309755,39.9999999964079,49.9999999955098,"(1200, 1200)",,,,data/flights/processed/h18_v4_20120401_0730_20120401_0915.csv
MODTBGA.A2012100.h15v05.006.2015240000503,data/granules/MODTBGA/MODTBGA.A2012100.h15v05.006.2015240000503.hdf,h15,v5,2012-04-09 10:00:00+00:00,2012-04-09 11:45:00+00:00,-39.1622186743913,-23.0843882603988,29.9999999973059,39.9999999964079,"(1200, 1200)",,data/output/20210921-0113_standard_a_0/MODTBGA.A2012100.h15v05.006.2015240000503.png,data/output/20210921-0113_standard_a_0/MODTBGA.A2012100.h15v05.006.2015240000503_mask.png,data/flights/processed/h15_v5_20120409_1000_20120409_1145.csv
MODTBGA.A2012098.h19v05.006.2015239215604,data/granules/MODTBGA/MODTBGA.A2012098.h19v05.006.2015239215604.hdf,h19,v5,2012-04-07 06:55:00+00:00,2012-04-07 08:40:00+00:00,11.5470053824421,26.1190241770037,29.9999999973059,39.9999999964079,"(1200, 1200)",,,,data/flights/processed/h19_v5_20120407_0655_20120407_0840.csv
MODTBGA.A2012099.h18v05.006.2015239220620,data/granules/MODTBGA/MODTBGA.A2012099.h18v05.006.2015239220620.hdf,h18,v5,2012-04-08 07:40:00+00:00,2012-04-08 09:25:00+00:00,0.0,13.06495128554,29.9999999973059,39.9999999964079,"(1200, 1200)",,,,data/flights/processed/h18_v5_20120408_0740_20120408_0925.csv
MODTBGA.A2012101.h13v03.006.2015240013509,data/granules/MODTBGA/MODTBGA.A2012101.h13v03.006.2015240013509.hdf,h13,v3,2012-04-10 12:20:00+00:00,2012-04-10 17:15:00+00:00,-99.9999999747312,-62.2159886977948,49.9999999955098,59.9999999946118,"(1200, 1200)",,,,data/flights/processed/h13_v3_20120410_1220_20120410_1715.csv
MODTBGA.A2012092.h11v04.006.2015240000129,data/granules/MODTBGA/MODTBGA.A2012092.h11v04.006.2015240000129.hdf,h11,v4,2012-04-01 14:05:00+00:00,2012-04-01 17:25:00+00:00,-108.900667860278,-78.3135589547063,39.9999999964079,49.9999999955098,"(1200, 1200)",,data/output/20210921-0113_standard_a_0/MODTBGA.A2012092.h11v04.006.2015240000129.png,data/output/20210921-0113_standard_a_0/MODTBGA.A2012092.h11v04.006.2015240000129_mask.png,data/flights/processed/h11_v4_20120401_1405_20120401_1725.csv
MODTBGA.A2012096.h13v04.006.2015240021822,data/granules/MODTBGA/MODTBGA.A2012096.h13v04.006.2015240021822.hdf,h13,v4,2012-04-05 12:00:00+00:00,2012-04-05 13:45:00+00:00,-77.7861913287703,-52.2054131717788,39.9999999964079,49.9999999955098,"(1200, 1200)",,data/output/20210921-0113_standard_a_0/MODTBGA.A2012096.h13v04.006.2015240021822.png,data/output/20210921-0113_standard_a_0/MODTBGA.A2012096.h13v04.006.2015240021822_mask.png,data/flights/processed/h13_v4_20120405_1200_20120405_1345.csv
MODTBGA.A2012098.h11v05.006.2015239215602,data/granules/MODTBGA/MODTBGA.A2012098.h11v05.006.2015239215602.hdf,h11,v5,2012-04-07 13:30:00+00:00,2012-04-07 15:15:00+00:00,-91.3785102402463,-69.2724097901671,29.9999999973059,39.9999999964079,"(1200, 1200)",,,,data/flights/processed/h11_v5_20120407_1330_20120407_1515.csv
MODTBGA.A2012094.h15v05.006.2015239235606,data/granules/MODTBGA/MODTBGA.A2012094.h15v05.006.2015239235606.hdf,h15,v5,2012-04-03 10:35:00+00:00,2012-04-03 12:20:00+00:00,-39.1622186743913,-23.0843882603988,29.9999999973059,39.9999999964079,"(1200, 1200)",,,,data/flights/processed/h15_v5_20120403_1035_20120403_1220.csv
MODTBGA.A2012101.h12v04.006.2015240013057,data/granules/MODTBGA/MODTBGA.A2012101.h12v04.006.2015240013057.hdf,h12,v4,2012-04-10 12:20:00+00:00,2012-04-10 15:45:00+00:00,-93.3434295945244,-65.2594860632426,39.9999999964079,49.9999999955098,"(1200, 1200)",,data/output/20210921-0113_standard_a_0/MODTBGA.A2012101.h12v04.006.2015240013057.png,data/output/20210921-0113_standard_a_0/MODTBGA.A2012101.h12v04.006.2015240013057_mask.png,data/flights/processed/h12_v4_20120410_1220_20120410_1545.csv
MODTBGA.A2012096.h13v03.006.2015240021531,data/granules/MODTBGA/MODTBGA.A2012096.h13v03.006.2015240021531.hdf,h13,v3,2012-04-05 13:35:00+00:00,2012-04-05 13:45:00+00:00,-99.9999999747312,-62.2159886977948,49.9999999955098,59.9999999946118,"(1200, 1200)",,data/output/20210921-0113_standard_a_0/MODTBGA.A2012096.h13v03.006.2015240021531.png,data/output/20210921-0113_standard_a_0/MODTBGA.A2012096.h13v03.006.2015240021531_mask.png,data/flights/processed/h13_v3_20120405_1335_20120405_1345.csv
MODTBGA.A2012093.h19v05.006.2015239224434,data/granules/MODTBGA/MODTBGA.A2012093.h19v05.006.2015239224434.hdf,h19,v5,2012-04-02 06:35:00+00:00,2012-04-02 08:20:00+00:00,11.5470053824421,26.1190241770037,29.9999999973059,39.9999999964079,"(1200, 1200)",,,,data/flights/processed/h19_v5_20120402_0635_20120402_0820.csv
MODTBGA.A2012100.h13v03.006.2015240001908,data/granules/MODTBGA/MODTBGA.A2012100.h13v03.006.2015240001908.hdf,h13,v3,2012-04-09 13:10:00+00:00,2012-04-09 16:35:00+00:00,-99.9999999747312,-62.2159886977948,49.9999999955098,59.9999999946118,"(1200, 1200)",,data/output/20210921-0113_standard_a_0/MODTBGA.A2012100.h13v03.006.2015240001908.png,data/output/20210921-0113_standard_a_0/MODTBGA.A2012100.h13v03.006.2015240001908_mask.png,data/flights/processed/h13_v3_20120409_1310_20120409_1635.csv
MODTBGA.A2012097.h11v04.006.2015239224451,data/granules/MODTBGA/MODTBGA.A2012097.h11v04.006.2015239224451.hdf,h11,v4,2012-04-06 14:25:00+00:00,2012-04-06 16:10:00+00:00,-108.900667860278,-78.3135589547063,39.9999999964079,49.9999999955098,"(1200, 1200)",,,,data/flights/processed/h11_v4_20120406_1425_20120406_1610.csv
MODTBGA.A2012094.h14v03.006.2015240000135,data/granules/MODTBGA/MODTBGA.A2012094.h14v03.006.2015240000135.hdf,h14,v3,2012-04-03 12:10:00+00:00,2012-04-03 15:35:00+00:00,-79.9999999797849,-46.6587504320407,49.9999999955098,59.9999999946118,"(1200, 1200)",,data/output/20210921-0113_standard_a_0/MODTBGA.A2012094.h14v03.006.2015240000135.png,data/output/20210921-0113_standard_a_0/MODTBGA.A2012094.h14v03.006.2015240000135_mask.png,data/flights/processed/h14_v3_20120403_1210_20120403_1535.csv
MODTBGA.A2012092.h15v03.006.2015240001531,data/granules/MODTBGA/MODTBGA.A2012092.h15v03.006.2015240001531.hdf,h15,v3,2012-04-01 10:45:00+00:00,2012-04-01 14:05:00+00:00,-59.9999999848387,-31.1015121662867,49.9999999955098,59.9999999946118,"(1200, 1200)",,,,data/flights/processed/h15_v3_20120401_1045_20120401_1405.csv
MODTBGA.A2012095.h17v05.006.2015240011721,data/granules/MODTBGA/MODTBGA.A2012095.h17v05.006.2015240011721.hdf,h17,v5,2012-04-04 08:05:00+00:00,2012-04-04 09:50:00+00:00,-13.0540728914637,0.0108783940762432,29.9999999973059,39.9999999964079,"(1200, 1200)",,data/output/20210921-0113_standard_a_0/MODTBGA.A2012095.h17v05.006.2015240011721.png,data/output/20210921-0113_standard_a_0/MODTBGA.A2012095.h17v05.006.2015240011721_mask.png,data/flights/processed/h17_v5_20120404_0805_20120404_0950.csv
MODTBGA.A2012101.h13v04.006.2015240013440,data/granules/MODTBGA/MODTBGA.A2012101.h13v04.006.2015240013440.hdf,h13,v4,2012-04-10 12:20:00+00:00,2012-04-10 14:05:00+00:00,-77.7861913287703,-52.2054131717788,39.9999999964079,49.9999999955098,"(1200, 1200)",,,,data/flights/processed/h13_v4_20120410_1220_20120410_1405.csv
MODTBGA.A2012101.h17v04.006.2015240012954,data/granules/MODTBGA/MODTBGA.A2012101.h17v04.006.2015240012954.hdf,h17,v4,2012-04-10 09:00:00+00:00,2012-04-10 10:45:00+00:00,-15.557238265754,0.0129643652214896,39.9999999964079,49.9999999955098,"(1200, 1200)",,data/output/20210921-0113_standard_a_0/MODTBGA.A2012101.h17v04.006.2015240012954.png,data/output/20210921-0113_standard_a_0/MODTBGA.A2012101.h17v04.006.2015240012954_mask.png,data/flights/processed/h17_v4_20120410_0900_20120410_1045.csv
MODTBGA.A2012093.h14v03.006.2015239224415,data/granules/MODTBGA/MODTBGA.A2012093.h14v03.006.2015239224415.hdf,h14,v3,2012-04-02 11:30:00+00:00,2012-04-02 14:50:00+00:00,-79.9999999797849,-46.6587504320407,49.9999999955098,59.9999999946118,"(1200, 1200)",,data/output/20210921-0113_standard_a_0/MODTBGA.A2012093.h14v03.006.2015239224415.png,data/output/20210921-0113_standard_a_0/MODTBGA.A2012093.h14v03.006.2015239224415_mask.png,data/flights/processed/h14_v3_20120402_1130_20120402_1450.csv
MODTBGA.A2012092.h15v05.006.2015240000114,data/granules/MODTBGA/MODTBGA.A2012092.h15v05.006.2015240000114.hdf,h15,v5,2012-04-01 10:50:00+00:00,2012-04-01 12:30:00+00:00,-39.1622186743913,-23.0843882603988,29.9999999973059,39.9999999964079,"(1200, 1200)",,,,data/flights/processed/h15_v5_20120401_1050_20120401_1230.csv
MODTBGA.A2012096.h11v05.006.2015240021342,data/granules/MODTBGA/MODTBGA.A2012096.h11v05.006.2015240021342.hdf,h11,v5,2012-04-05 13:40:00+00:00,2012-04-05 13:50:00+00:00,-91.3785102402463,-69.2724097901671,29.9999999973059,39.9999999964079,"(1200, 1200)",,data/output/20210921-0113_standard_a_0/MODTBGA.A2012096.h11v05.006.2015240021342.png,data/output/20210921-0113_standard_a_0/MODTBGA.A2012096.h11v05.006.2015240021342_mask.png,data/flights/processed/h11_v5_20120405_1340_20120405_1350.csv
MODTBGA.A2012098.h17v04.006.2015239215538,data/granules/MODTBGA/MODTBGA.A2012098.h17v04.006.2015239215538.hdf,h17,v4,2012-04-07 08:30:00+00:00,2012-04-07 10:15:00+00:00,-15.557238265754,0.0129643652214896,39.9999999964079,49.9999999955098,"(1200, 1200)",,,,data/flights/processed/h17_v4_20120407_0830_20120407_1015.csv
MODTBGA.A2012100.h17v03.006.2015240001429,data/granules/MODTBGA/MODTBGA.A2012100.h17v03.006.2015240001429.hdf,h17,v3,2012-04-09 08:15:00+00:00,2012-04-09 11:40:00+00:00,-19.9999999949462,0.016666666662491,49.9999999955098,59.9999999946118,"(1200, 1200)",,data/output/20210921-0113_standard_a_0/MODTBGA.A2012100.h17v03.006.2015240001429.png,data/output/20210921-0113_standard_a_0/MODTBGA.A2012100.h17v03.006.2015240001429_mask.png,data/flights/processed/h17_v3_20120409_0815_20120409_1140.csv
MODTBGA.A2012092.h14v03.006.2015240000714,data/granules/MODTBGA/MODTBGA.A2012092.h14v03.006.2015240000714.hdf,h14,v3,2012-04-01 12:25:00+00:00,2012-04-01 15:45:00+00:00,-79.9999999797849,-46.6587504320407,49.9999999955098,59.9999999946118,"(1200, 1200)",,data/output/20210921-0113_standard_a_0/MODTBGA.A2012092.h14v03.006.2015240000714.png,data/output/20210921-0113_standard_a_0/MODTBGA.A2012092.h14v03.006.2015240000714_mask.png,data/flights/processed/h14_v3_20120401_1225_20120401_1545.csv
MODTBGA.A2012092.h12v03.006.2015240000707,data/granules/MODTBGA/MODTBGA.A2012092.h12v03.006.2015240000707.hdf,h12,v3,2012-04-01 14:05:00+00:00,2012-04-01 19:00:00+00:00,-119.999999969677,-77.7732269635488,49.9999999955098,59.9999999946118,"(1200, 1200)",,,,data/flights/processed/h12_v3_20120401_1405_20120401_1900.csv
MODTBGA.A2012093.h12v05.006.2015239224506,data/granules/MODTBGA/MODTBGA.A2012093.h12v05.006.2015239224506.hdf,h12,v5,2012-04-02 13:10:00+00:00,2012-04-02 14:55:00+00:00,-78.3244373487825,-57.7254044077251,29.9999999973059,39.9999999964079,"(1200, 1200)",,data/output/20210921-0113_standard_a_0/MODTBGA.A2012093.h12v05.006.2015239224506.png,data/output/20210921-0113_standard_a_0/MODTBGA.A2012093.h12v05.006.2015239224506_mask.png,data/flights/processed/h12_v5_20120402_1310_20120402_1455.csv
MODTBGA.A2012096.h11v03.006.2015240021418,data/granules/MODTBGA/MODTBGA.A2012096.h11v03.006.2015240021418.hdf,h11,v3,2012-04-05 18:30:00+00:00,2012-04-05 20:15:00+00:00,-139.999999964624,-93.3304652293029,49.9999999955098,59.9999999946118,"(1200, 1200)",,,,data/flights/processed/h11_v3_20120405_1830_20120405_2015.csv
MODTBGA.A2012095.h19v03.006.2015240012104,data/granules/MODTBGA/MODTBGA.A2012095.h19v03.006.2015240012104.hdf,h19,v3,2012-04-04 06:20:00+00:00,2012-04-04 09:40:00+00:00,15.5572382657541,40.016666656555,49.9999999955098,59.9999999946118,"(1200, 1200)",,data/output/20210921-0113_standard_a_0/MODTBGA.A2012095.h19v03.006.2015240012104.png,data/output/20210921-0113_standard_a_0/MODTBGA.A2012095.h19v03.006.2015240012104_mask.png,data/flights/processed/h19_v3_20120404_0620_20120404_0940.csv
MODTBGA.A2012099.h15v03.006.2015239222620,data/granules/MODTBGA/MODTBGA.A2012099.h15v03.006.2015239222620.hdf,h15,v3,2012-04-08 10:50:00+00:00,2012-04-08 14:15:00+00:00,-59.9999999848387,-31.1015121662867,49.9999999955098,59.9999999946118,"(1200, 1200)",,,,data/flights/processed/h15_v3_20120408_1050_20120408_1415.csv
MODTBGA.A2012097.h18v03.006.2015239224708,data/granules/MODTBGA/MODTBGA.A2012097.h18v03.006.2015239224708.hdf,h18,v3,2012-04-06 07:45:00+00:00,2012-04-06 09:30:00+00:00,0.0,20.0166666616087,49.9999999955098,59.9999999946118,"(1200, 1200)",,,,data/flights/processed/h18_v3_20120406_0745_20120406_0930.csv
MODTBGA.A2012094.h13v04.006.2015240000607,data/granules/MODTBGA/MODTBGA.A2012094.h13v04.006.2015240000607.hdf,h13,v4,2012-04-03 12:15:00+00:00,2012-04-03 14:00:00+00:00,-77.7861913287703,-52.2054131717788,39.9999999964079,49.9999999955098,"(1200, 1200)",,,,data/flights/processed/h13_v4_20120403_1215_20120403_1400.csv
MODTBGA.A2012098.h16v05.006.2015239215202,data/granules/MODTBGA/MODTBGA.A2012098.h16v05.006.2015239215202.hdf,h16,v5,2012-04-07 10:10:00+00:00,2012-04-07 10:20:00+00:00,-26.1081457829275,-11.5373828779567,29.9999999973059,39.9999999964079,"(1200, 1200)",,data/output/20210921-0113_standard_a_0/MODTBGA.A2012098.h16v05.006.2015239215202.png,data/output/20210921-0113_standard_a_0/MODTBGA.A2012098.h16v05.006.2015239215202_mask.png,data/flights/processed/h16_v5_20120407_1010_20120407_1020.csv
MODTBGA.A2012094.h14v04.006.2015239235846,data/granules/MODTBGA/MODTBGA.A2012094.h14v04.006.2015239235846.hdf,h14,v4,2012-04-03 10:35:00+00:00,2012-04-03 13:55:00+00:00,-62.2289530630162,-39.1513402803151,39.9999999964079,49.9999999955098,"(1200, 1200)",,data/output/20210921-0113_standard_a_0/MODTBGA.A2012094.h14v04.006.2015239235846.png,data/output/20210921-0113_standard_a_0/MODTBGA.A2012094.h14v04.006.2015239235846_mask.png,data/flights/processed/h14_v4_20120403_1035_20120403_1355.csv
MODTBGA.A2012093.h11v05.006.2015239223636,data/granules/MODTBGA/MODTBGA.A2012093.h11v05.006.2015239223636.hdf,h11,v5,2012-04-02 13:10:00+00:00,2012-04-02 14:55:00+00:00,-91.3785102402463,-69.2724097901671,29.9999999973059,39.9999999964079,"(1200, 1200)",,data/output/20210921-0113_standard_a_0/MODTBGA.A2012093.h11v05.006.2015239223636.png,data/output/20210921-0113_standard_a_0/MODTBGA.A2012093.h11v05.006.2015239223636_mask.png,data/flights/processed/h11_v5_20120402_1310_20120402_1455.csv
MODTBGA.A2012099.h11v03.006.2015239220741,data/granules/MODTBGA/MODTBGA.A2012099.h11v03.006.2015239220741.hdf,h11,v3,2012-04-08 15:45:00+00:00,2012-04-08 19:10:00+00:00,-139.999999964624,-93.3304652293029,49.9999999955098,59.9999999946118,"(1200, 1200)",,,,data/flights/processed/h11_v3_20120408_1545_20120408_1910.csv
MODTBGA.A2012096.h19v04.006.2015240022151,data/granules/MODTBGA/MODTBGA.A2012096.h19v04.006.2015240022151.hdf,h19,v4,2012-04-05 07:05:00+00:00,2012-04-05 08:50:00+00:00,13.0540728914638,31.1274408967296,39.9999999964079,49.9999999955098,"(1200, 1200)",,data/output/20210921-0113_standard_a_0/MODTBGA.A2012096.h19v04.006.2015240022151.png,data/output/20210921-0113_standard_a_0/MODTBGA.A2012096.h19v04.006.2015240022151_mask.png,data/flights/processed/h19_v4_20120405_0705_20120405_0850.csv
MODTBGA.A2012095.h19v04.006.2015240011705,data/granules/MODTBGA/MODTBGA.A2012095.h19v04.006.2015240011705.hdf,h19,v4,2012-04-04 06:20:00+00:00,2012-04-04 08:05:00+00:00,13.0540728914638,31.1274408967296,39.9999999964079,49.9999999955098,"(1200, 1200)",,,,data/flights/processed/h19_v4_20120404_0620_20120404_0805.csv
MODTBGA.A2012100.h14v03.006.2015240003354,data/granules/MODTBGA/MODTBGA.A2012100.h14v03.006.2015240003354.hdf,h14,v3,2012-04-09 11:35:00+00:00,2012-04-09 14:55:00+00:00,-79.9999999797849,-46.6587504320407,49.9999999955098,59.9999999946118,"(1200, 1200)",,data/output/20210921-0113_standard_a_0/MODTBGA.A2012100.h14v03.006.2015240003354.png,data/output/20210921-0113_standard_a_0/MODTBGA.A2012100.h14v03.006.2015240003354_mask.png,data/flights/processed/h14_v3_20120409_1135_20120409_1455.csv
MODTBGA.A2012101.h17v03.006.2015240013120,data/granules/MODTBGA/MODTBGA.A2012101.h17v03.006.2015240013120.hdf,h17,v3,2012-04-10 09:00:00+00:00,2012-04-10 12:20:00+00:00,-19.9999999949462,0.016666666662491,49.9999999955098,59.9999999946118,"(1200, 1200)",,data/output/20210921-0113_standard_a_0/MODTBGA.A2012101.h17v03.006.2015240013120.png,data/output/20210921-0113_standard_a_0/MODTBGA.A2012101.h17v03.006.2015240013120_mask.png,data/flights/processed/h17_v3_20120410_0900_20120410_1220.csv
MODTBGA.A2012095.h16v05.006.2015240011954,data/granules/MODTBGA/MODTBGA.A2012095.h16v05.006.2015240011954.hdf,h16,v5,2012-04-04 09:40:00+00:00,2012-04-04 11:25:00+00:00,-26.1081457829275,-11.5373828779567,29.9999999973059,39.9999999964079,"(1200, 1200)",,,,data/flights/processed/h16_v5_20120404_0940_20120404_1125.csv
