name,category,flight_count,flight_pixel,flight_pixel_percent,contrail_pixel,contrail_pixel_percent,deviation,deviation_percent,deviation_percent_abs,intersections_per_granule,line_types_per_granule,runtime_seconds
MODTBGA.A2012095.h18v05.006.2015240011541,1,197,66592.87026601483,4.6245048795843635,54424.0,3.779444444444444,-0.8450604351399194,-0.18273533213697696,0.18273533213697696,747.0,135.0,634.97
MODTBGA.A2012096.h17v05.006.2015240021802,0,0,0.0,0.0,0.0,0.0,0.0,0.0,0.0,0.0,0.0,0.02
MODTBGA.A2012099.h16v05.006.2015239220821,0,0,0.0,0.0,0.0,0.0,0.0,0.0,0.0,0.0,0.0,0.02
MODTBGA.A2012095.h15v05.006.2015240012339,0,0,0.0,0.0,0.0,0.0,0.0,0.0,0.0,0.0,0.0,0.02
MODTBGA.A2012101.h11v04.006.2015240012943,3,2873,1096203.1449231284,76.12521839743948,173069.0,12.018680555555555,-64.10653784188392,-0.8421195917914133,0.8421195917914133,860.0,301.0,706.5
MODTBGA.A2012100.h19v04.006.2015240001742,0,0,0.0,0.0,0.0,0.0,0.0,0.0,0.0,0.0,0.0,0.02
MODTBGA.A2012095.h12v03.006.2015240011907,1,490,185716.6939535967,12.896992635666438,260505.0,18.090625,5.193632364333562,0.40270104132421153,0.40270104132421153,739.0,318.0,489.48
MODTBGA.A2012099.h18v04.006.2015239220842,0,0,0.0,0.0,0.0,0.0,0.0,0.0,0.0,0.0,0.0,0.02
MODTBGA.A2012100.h18v03.006.2015240003246,0,0,0.0,0.0,0.0,0.0,0.0,0.0,0.0,0.0,0.0,0.02
MODTBGA.A2012100.h12v04.006.2015240001042,0,0,0.0,0.0,0.0,0.0,0.0,0.0,0.0,0.0,0.0,0.02
MODTBGA.A2012094.h17v03.006.2015240001502,0,0,0.0,0.0,0.0,0.0,0.0,0.0,0.0,0.0,0.0,0.02
MODTBGA.A2012099.h12v03.006.2015239220644,2,253,101145.2222051735,7.02397376424816,223533.0,15.523124999999999,8.499151235751839,1.2100203561426002,1.2100203561426002,779.0,355.0,700.97
MODTBGA.A2012097.h19v03.006.2015239225201,3,915,335389.71087214124,23.290952143898696,82182.0,5.707083333333333,-17.583868810565363,-0.7549656494044035,0.7549656494044035,823.0,164.0,650.91
MODTBGA.A2012100.h11v05.006.2015240000946,0,0,0.0,0.0,0.0,0.0,0.0,0.0,0.0,0.0,0.0,0.02
MODTBGA.A2012096.h12v03.006.2015240020926,0,0,0.0,0.0,0.0,0.0,0.0,0.0,0.0,0.0,0.0,0.01
MODTBGA.A2012095.h11v05.006.2015240011726,3,2924,1139357.3289989168,79.12203673603588,191994.0,13.332916666666666,-65.78912006936922,-0.8314892131613414,0.8314892131613414,737.0,245.0,649.58
MODTBGA.A2012096.h14v03.006.2015240021806,2,196,80531.58786911205,5.592471379799448,280128.0,19.453333333333333,13.860861953533885,2.4784859880732997,2.4784859880732997,758.0,291.0,707.16
MODTBGA.A2012098.h13v03.006.2015239215429,2,208,72988.89160500423,5.068673028125294,236740.0,16.44027777777778,11.371604749652487,2.2435072624636048,2.2435072624636048,776.0,295.0,598.08
MODTBGA.A2012099.h12v05.006.2015239221751,0,0,0.0,0.0,0.0,0.0,0.0,0.0,0.0,0.0,0.0,0.02
MODTBGA.A2012092.h12v04.006.2015240000342,3,2753,1015804.9437528148,70.54200998283436,193313.0,13.424513888888889,-57.11749609394547,-0.8096947635578345,0.8096947635578345,761.0,288.0,790.08
MODTBGA.A2012095.h14v03.006.2015240013203,2,205,25731.73963194334,1.7869263633293986,210453.0,14.614791666666665,12.827865303337267,7.178731908927913,7.178731908927913,790.0,302.0,717.67
MODTBGA.A2012101.h19v05.006.2015240013307,2,71,17365.8593340575,1.205962453753993,160870.0,11.171527777777778,9.965565324023785,8.26357843314472,8.26357843314472,802.0,178.0,721.39
MODTBGA.A2012098.h15v03.006.2015239215510,2,100,48065.2876772345,3.337867199807951,201374.0,13.984305555555556,10.646438355747605,3.1895931498892955,3.1895931498892955,751.0,247.0,669.18
MODTBGA.A2012096.h17v04.006.2015240021842,0,0,0.0,0.0,0.0,0.0,0.0,0.0,0.0,0.0,0.0,0.01
MODTBGA.A2012097.h19v05.006.2015239224600,0,0,0.0,0.0,0.0,0.0,0.0,0.0,0.0,0.0,0.0,0.01
MODTBGA.A2012096.h14v04.006.2015240021947,2,108,42383.36614853229,2.943289315870298,190935.0,13.259375,10.316085684129703,3.504951289873232,3.504951289873232,780.0,224.0,712.99
MODTBGA.A2012094.h16v05.006.2015240000902,2,91,30819.59883144122,2.1402499188500848,55545.0,3.8572916666666663,1.7170417478165816,0.802262265118606,0.802262265118606,787.0,111.0,574.18
MODTBGA.A2012093.h11v04.006.2015239224744,0,0,0.0,0.0,0.0,0.0,0.0,0.0,0.0,0.0,0.0,0.01
MODTBGA.A2012100.h12v03.006.2015240001249,2,403,34669.945491585066,2.407635103582296,303086.0,21.04763888888889,18.640003785306593,7.7420385496009425,7.7420385496009425,811.0,357.0,747.32
MODTBGA.A2012097.h14v03.006.2015239224453,0,0,0.0,0.0,0.0,0.0,0.0,0.0,0.0,0.0,0.0,0.02
MODTBGA.A2012098.h14v04.006.2015239215501,0,0,0.0,0.0,0.0,0.0,0.0,0.0,0.0,0.0,0.0,0.03
MODTBGA.A2012099.h13v03.006.2015239222429,2,152,20011.74200789696,1.3897043061039556,195772.0,13.595277777777778,12.205573471673823,8.782856481097207,8.782856481097207,919.0,309.0,791.35
MODTBGA.A2012099.h17v05.006.2015239220724,2,166,34550.51332056004,2.39934120281667,74725.0,5.189236111111111,2.789894908294441,1.1627753922698807,1.1627753922698807,691.0,137.0,551.97
MODTBGA.A2012093.h18v03.006.2015239224200,3,1665,625921.3841121129,43.4667627855634,98098.0,6.812361111111111,-36.65440167445229,-0.8432742473894629,0.8432742473894629,756.0,168.0,698.56
MODTBGA.A2012092.h11v05.006.2015240000031,3,2659,1046502.4132292286,72.67377869647422,167453.0,11.628680555555555,-61.04509814091866,-0.8399879466275816,0.8399879466275816,760.0,247.0,545.02
MODTBGA.A2012093.h18v04.006.2015239224242,0,0,0.0,0.0,0.0,0.0,0.0,0.0,0.0,0.0,0.0,0.02
MODTBGA.A2012095.h18v04.006.2015240012141,3,2077,777334.4438142434,53.98155859821134,56182.0,3.901527777777778,-50.080030820433564,-0.9277248030791935,0.9277248030791935,777.0,120.0,775.19
MODTBGA.A2012093.h19v03.006.2015239224348,0,0,0.0,0.0,0.0,0.0,0.0,0.0,0.0,0.0,0.0,0.02
MODTBGA.A2012094.h18v05.006.2015240002230,0,0,0.0,0.0,0.0,0.0,0.0,0.0,0.0,0.0,0.0,0.02
MODTBGA.A2012096.h15v03.006.2015240021727,1,214,113766.08510669619,7.900422576853902,87433.0,6.071736111111111,-1.8286864657427913,-0.2314669181241453,0.2314669181241453,818.0,170.0,552.26
MODTBGA.A2012096.h11v04.006.2015240021059,3,685,208287.65423400624,14.4644204329171,83489.0,5.797847222222222,-8.666573210694878,-0.5991649130283925,0.5991649130283925,78.0,33.0,66.52
MODTBGA.A2012101.h14v04.006.2015240012838,0,0,0.0,0.0,0.0,0.0,0.0,0.0,0.0,0.0,0.0,0.02
MODTBGA.A2012101.h15v03.006.2015240013148,0,0,0.0,0.0,0.0,0.0,0.0,0.0,0.0,0.0,0.0,0.02
MODTBGA.A2012097.h19v04.006.2015239224751,3,808,296811.15912551613,20.611886050383067,63734.0,4.425972222222222,-16.185913828160846,-0.785270876648381,0.785270876648381,773.0,142.0,704.14
MODTBGA.A2012093.h16v05.006.2015239225020,0,0,0.0,0.0,0.0,0.0,0.0,0.0,0.0,0.0,0.0,0.01
MODTBGA.A2012097.h14v04.006.2015239224813,2,106,38457.48268714165,2.6706585199403925,244613.0,16.98701388888889,14.316355368948496,5.360608727044605,5.360608727044605,801.0,256.0,623.05
MODTBGA.A2012095.h19v05.006.2015240011629,0,0,0.0,0.0,0.0,0.0,0.0,0.0,0.0,0.0,0.0,0.02
MODTBGA.A2012092.h13v03.006.2015240001519,2,190,16813.735395792504,1.1676205135967017,213624.0,14.835,13.667379486403298,11.705326625602638,11.705326625602638,794.0,279.0,664.7
MODTBGA.A2012101.h18v05.006.2015240012751,0,0,0.0,0.0,0.0,0.0,0.0,0.0,0.0,0.0,0.0,0.02
MODTBGA.A2012093.h13v03.006.2015239224811,1,381,135823.10208631234,9.432159867105023,175942.0,12.218194444444444,2.7860345773394215,0.2953760980086662,0.2953760980086662,879.0,288.0,806.96
MODTBGA.A2012095.h11v04.006.2015240011952,0,0,0.0,0.0,0.0,0.0,0.0,0.0,0.0,0.0,0.0,0.04
MODTBGA.A2012100.h12v05.006.2015240000643,0,0,0.0,0.0,0.0,0.0,0.0,0.0,0.0,0.0,0.0,0.03
MODTBGA.A2012094.h12v04.006.2015240004352,0,0,0.0,0.0,0.0,0.0,0.0,0.0,0.0,0.0,0.0,0.02
MODTBGA.A2012098.h18v04.006.2015239215315,0,0,0.0,0.0,0.0,0.0,0.0,0.0,0.0,0.0,0.0,0.02
MODTBGA.A2012096.h16v05.006.2015240022307,0,0,0.0,0.0,0.0,0.0,0.0,0.0,0.0,0.0,0.0,0.02
MODTBGA.A2012098.h13v04.006.2015239215449,0,0,0.0,0.0,0.0,0.0,0.0,0.0,0.0,0.0,0.0,0.02
MODTBGA.A2012096.h17v03.006.2015240023227,0,0,0.0,0.0,0.0,0.0,0.0,0.0,0.0,0.0,0.0,0.03
MODTBGA.A2012094.h12v05.006.2015240000746,0,0,0.0,0.0,0.0,0.0,0.0,0.0,0.0,0.0,0.0,0.02
MODTBGA.A2012095.h13v04.006.2015240013015,0,0,0.0,0.0,0.0,0.0,0.0,0.0,0.0,0.0,0.0,0.02
MODTBGA.A2012097.h12v05.006.2015239223920,0,0,0.0,0.0,0.0,0.0,0.0,0.0,0.0,0.0,0.0,0.02
MODTBGA.A2012096.h18v03.006.2015240022117,3,2496,891280.9058100352,61.89450734791912,104645.0,7.267013888888889,-54.62749345903023,-0.8825903266659864,0.8825903266659864,796.0,169.0,751.79
MODTBGA.A2012093.h19v04.006.2015239224530,0,0,0.0,0.0,0.0,0.0,0.0,0.0,0.0,0.0,0.0,0.02
MODTBGA.A2012094.h19v04.006.2015239235807,0,0,0.0,0.0,0.0,0.0,0.0,0.0,0.0,0.0,0.0,0.02
MODTBGA.A2012099.h15v05.006.2015239220636,0,0,0.0,0.0,0.0,0.0,0.0,0.0,0.0,0.0,0.0,0.02
MODTBGA.A2012093.h18v05.006.2015239223631,2,50,11720.978471202512,0.8139568382779522,58653.0,4.073124999999999,3.259168161722047,4.004104405114781,4.004104405114781,714.0,127.0,646.51
MODTBGA.A2012092.h18v05.006.2015240000249,0,0,0.0,0.0,0.0,0.0,0.0,0.0,0.0,0.0,0.0,0.01
MODTBGA.A2012097.h13v04.006.2015239224624,0,0,0.0,0.0,0.0,0.0,0.0,0.0,0.0,0.0,0.0,0.02
MODTBGA.A2012092.h19v03.006.2015240000128,0,0,0.0,0.0,0.0,0.0,0.0,0.0,0.0,0.0,0.0,0.02
MODTBGA.A2012098.h18v03.006.2015239215407,0,0,0.0,0.0,0.0,0.0,0.0,0.0,0.0,0.0,0.0,0.02
MODTBGA.A2012092.h14v04.006.2015239235951,0,0,0.0,0.0,0.0,0.0,0.0,0.0,0.0,0.0,0.0,0.01
MODTBGA.A2012100.h11v03.006.2015240000821,0,0,0.0,0.0,0.0,0.0,0.0,0.0,0.0,0.0,0.0,0.03
MODTBGA.A2012095.h11v03.006.2015240012231,2,520,45193.53213830794,3.1384397318269404,384293.0,26.687013888888888,23.54857415706195,7.5032742920807705,7.5032742920807705,786.0,471.0,640.37
MODTBGA.A2012094.h19v03.006.2015240000841,0,0,0.0,0.0,0.0,0.0,0.0,0.0,0.0,0.0,0.0,0.02
MODTBGA.A2012098.h14v03.006.2015239215747,0,0,0.0,0.0,0.0,0.0,0.0,0.0,0.0,0.0,0.0,0.01
MODTBGA.A2012099.h12v04.006.2015239222156,3,2429,899031.2019528822,62.43272235783904,143574.0,9.970416666666667,-52.462305691172375,-0.840301427038208,0.840301427038208,932.0,308.0,644.31
MODTBGA.A2012094.h17v05.006.2015240001008,1,365,124923.8740407388,8.675269030606861,102981.0,7.151458333333334,-1.523810697273527,-0.17564996450224574,0.17564996450224574,835.0,185.0,781.32
MODTBGA.A2012100.h16v05.006.2015240000948,2,30,2598.5855123282854,0.1804573272450198,97849.0,6.795069444444445,6.6146121171994245,36.654716204558945,36.654716204558945,784.0,163.0,663.58
MODTBGA.A2012097.h18v04.006.2015239225116,0,0,0.0,0.0,0.0,0.0,0.0,0.0,0.0,0.0,0.0,0.02
MODTBGA.A2012097.h15v05.006.2015239224538,0,0,0.0,0.0,0.0,0.0,0.0,0.0,0.0,0.0,0.0,0.01
MODTBGA.A2012101.h15v05.006.2015240013234,0,0,0.0,0.0,0.0,0.0,0.0,0.0,0.0,0.0,0.0,0.01
MODTBGA.A2012096.h12v04.006.2015240021411,3,872,265304.9808466892,18.423957003242304,45526.0,3.1615277777777777,-15.262429225464526,-0.8284012616170673,0.8284012616170673,500.0,115.0,454.35
MODTBGA.A2012098.h12v05.006.2015239215453,0,0,0.0,0.0,0.0,0.0,0.0,0.0,0.0,0.0,0.0,0.02
MODTBGA.A2012092.h18v03.006.2015240001014,3,2155,782579.4821160318,54.34579736916888,73395.0,5.096875,-49.24892236916888,-0.9062139991179607,0.9062139991179607,812.0,143.0,645.27
MODTBGA.A2012094.h18v04.006.2015240002946,0,0,0.0,0.0,0.0,0.0,0.0,0.0,0.0,0.0,0.0,0.01
MODTBGA.A2012095.h15v03.006.2015240012109,2,237,102449.43543567395,7.114544127477358,154304.0,10.715555555555556,3.6010114280781975,0.5061478801109113,0.5061478801109113,737.0,259.0,558.43
MODTBGA.A2012099.h14v03.006.2015239222504,2,148,69442.26749707414,4.822379687296815,178427.0,12.39076388888889,7.568384201592075,1.5694293465794131,1.5694293465794131,706.0,228.0,659.83
MODTBGA.A2012094.h19v05.006.2015239235750,0,0,0.0,0.0,0.0,0.0,0.0,0.0,0.0,0.0,0.0,0.02
MODTBGA.A2012093.h12v03.006.2015239224018,0,0,0.0,0.0,0.0,0.0,0.0,0.0,0.0,0.0,0.0,0.02
MODTBGA.A2012097.h17v04.006.2015239224636,0,0,0.0,0.0,0.0,0.0,0.0,0.0,0.0,0.0,0.0,0.02
MODTBGA.A2012095.h13v03.006.2015240013127,0,0,0.0,0.0,0.0,0.0,0.0,0.0,0.0,0.0,0.0,0.02
MODTBGA.A2012100.h15v03.006.2015240001100,1,209,97001.19207336131,6.736193893983425,86238.0,5.9887500000000005,-0.7474438939834247,-0.11095937939836027,0.11095937939836027,813.0,171.0,696.34
MODTBGA.A2012100.h13v04.006.2015240000420,0,0,0.0,0.0,0.0,0.0,0.0,0.0,0.0,0.0,0.0,0.01
MODTBGA.A2012099.h11v04.006.2015239220623,3,2209,857059.1274008688,59.51799495839367,141198.0,9.805416666666666,-49.712578291727006,-0.835252906729785,0.835252906729785,824.0,290.0,538.49
MODTBGA.A2012099.h17v03.006.2015239220739,3,716,260705.04771694445,18.10451720256559,75437.0,5.238680555555556,-12.865836647010033,-0.7106423498101798,0.7106423498101798,756.0,124.0,731.3
MODTBGA.A2012101.h11v03.006.2015240013220,2,508,194493.15711152717,13.506469243856053,327005.0,22.708680555555556,9.202211311699504,0.6813187921695739,0.6813187921695739,808.0,411.0,685.85
MODTBGA.A2012098.h11v03.006.2015239215714,2,308,26561.794244700322,1.8445690447708558,253360.0,17.59444444444444,15.749875399673586,8.538512258092316,8.538512258092316,849.0,444.0,671.85
MODTBGA.A2012096.h12v05.006.2015240021446,3,1021,367730.5667262992,25.536844911548556,122381.0,8.498680555555556,-17.038164355993,-0.6671992728548785,0.6671992728548785,825.0,257.0,621.54
MODTBGA.A2012101.h18v03.006.2015240013341,3,2330,806311.1905811961,55.993832679249735,56415.0,3.9177083333333336,-52.0761243459164,-0.930033217126336,0.930033217126336,720.0,117.0,526.35
MODTBGA.A2012098.h17v03.006.2015239215401,3,1085,382060.3745074782,26.53197045190821,77330.0,5.370138888888889,-21.161831563019323,-0.7975974344377177,0.7975974344377177,734.0,138.0,622.78
MODTBGA.A2012096.h15v05.006.2015240021524,0,0,0.0,0.0,0.0,0.0,0.0,0.0,0.0,0.0,0.0,0.01
MODTBGA.A2012100.h17v05.006.2015240000335,0,0,0.0,0.0,0.0,0.0,0.0,0.0,0.0,0.0,0.0,0.1
MODTBGA.A2012097.h11v03.006.2015239225045,0,0,0.0,0.0,0.0,0.0,0.0,0.0,0.0,0.0,0.0,0.02
MODTBGA.A2012097.h17v05.006.2015239224159,2,133,21864.45955070752,1.518365246576911,64863.0,4.5043750000000005,2.9860097534230894,1.9665951655274774,1.9665951655274774,849.0,149.0,774.51
MODTBGA.A2012097.h11v05.006.2015239223847,0,0,0.0,0.0,0.0,0.0,0.0,0.0,0.0,0.0,0.0,0.02
MODTBGA.A2012098.h11v04.006.2015239215556,3,2265,873043.3868149489,60.62801297326034,293601.0,20.388958333333335,-40.239054639927005,-0.6637039986396095,0.6637039986396095,911.0,382.0,799.13
MODTBGA.A2012098.h19v03.006.2015239220335,0,0,0.0,0.0,0.0,0.0,0.0,0.0,0.0,0.0,0.0,0.02
MODTBGA.A2012094.h13v03.006.2015240000758,0,0,0.0,0.0,0.0,0.0,0.0,0.0,0.0,0.0,0.0,0.02
MODTBGA.A2012101.h18v04.006.2015240012841,0,0,0.0,0.0,0.0,0.0,0.0,0.0,0.0,0.0,0.0,0.02
MODTBGA.A2012094.h18v03.006.2015240000903,3,2244,786768.3597858516,54.636691651795246,143052.0,9.934166666666666,-44.702524985128576,-0.8181777416177018,0.8181777416177018,728.0,175.0,597.02
MODTBGA.A2012100.h18v04.006.2015240003409,0,0,0.0,0.0,0.0,0.0,0.0,0.0,0.0,0.0,0.0,0.01
MODTBGA.A2012101.h19v03.006.2015240013615,0,0,0.0,0.0,0.0,0.0,0.0,0.0,0.0,0.0,0.0,0.02
MODTBGA.A2012097.h16v05.006.2015239224659,0,0,0.0,0.0,0.0,0.0,0.0,0.0,0.0,0.0,0.0,0.02
MODTBGA.A2012100.h19v03.006.2015240002404,0,0,0.0,0.0,0.0,0.0,0.0,0.0,0.0,0.0,0.0,0.02
MODTBGA.A2012099.h18v03.006.2015239221245,3,1902,692513.6502145933,48.09122570934676,99087.0,6.8810416666666665,-41.21018404268009,-0.8569168998050863,0.8569168998050863,923.0,183.0,765.81
MODTBGA.A2012099.h13v04.006.2015239220416,0,0,0.0,0.0,0.0,0.0,0.0,0.0,0.0,0.0,0.0,0.02
MODTBGA.A2012092.h17v04.006.2015240000711,3,618,226216.5133874054,15.709480096347598,95349.0,6.621458333333333,-9.088021763014265,-0.5785055716215077,0.5785055716215077,924.0,198.0,795.44
MODTBGA.A2012101.h19v04.006.2015240013130,0,0,0.0,0.0,0.0,0.0,0.0,0.0,0.0,0.0,0.0,0.01
MODTBGA.A2012101.h14v03.006.2015240013150,2,335,155520.89943717132,10.800062460914676,263176.0,18.276111111111113,7.476048650196438,0.692222723456664,0.692222723456664,747.0,298.0,733.86
MODTBGA.A2012095.h17v03.006.2015240011807,0,0,0.0,0.0,0.0,0.0,0.0,0.0,0.0,0.0,0.0,0.02
MODTBGA.A2012093.h13v04.006.2015239224608,3,1881,656111.79278597,45.56331894347014,176739.0,12.273541666666667,-33.28977727680348,-0.7306266981583519,0.7306266981583519,841.0,281.0,711.84
MODTBGA.A2012093.h17v04.006.2015239224458,0,0,0.0,0.0,0.0,0.0,0.0,0.0,0.0,0.0,0.0,0.02
MODTBGA.A2012099.h19v05.006.2015239220624,2,83,15753.739222912745,1.0940096682578295,90279.0,6.269375000000001,5.175365331742172,4.730639483272348,4.730639483272348,779.0,175.0,507.48
MODTBGA.A2012095.h17v04.006.2015240011727,3,835,268896.17010379676,18.673345146097,56467.0,3.921319444444445,-14.752025701652554,-0.7900044467788324,0.7900044467788324,869.0,165.0,762.5
MODTBGA.A2012092.h12v05.006.2015240000342,0,0,0.0,0.0,0.0,0.0,0.0,0.0,0.0,0.0,0.0,0.02
MODTBGA.A2012101.h11v05.006.2015240012845,3,2832,1093573.4185906753,75.94259851324135,125849.0,8.739513888888888,-67.20308462435246,-0.8849194778689977,0.8849194778689977,816.0,263.0,642.24
MODTBGA.A2012092.h16v05.006.2015240000951,2,124,37937.419718380246,2.6345430359986284,62313.0,4.3272916666666665,1.6927486306680382,0.6425207740159001,0.6425207740159001,774.0,128.0,672.57
MODTBGA.A2012092.h11v03.006.2015240001023,0,0,0.0,0.0,0.0,0.0,0.0,0.0,0.0,0.0,0.0,0.02
MODTBGA.A2012100.h14v04.006.2015240003720,0,0,0.0,0.0,0.0,0.0,0.0,0.0,0.0,0.0,0.0,0.02
MODTBGA.A2012101.h12v05.006.2015240013124,0,0,0.0,0.0,0.0,0.0,0.0,0.0,0.0,0.0,0.0,0.01
MODTBGA.A2012096.h18v05.006.2015240021506,2,71,14951.915344009723,1.0383274544451198,55843.0,3.8779861111111114,2.839658656665992,2.734839230638951,2.734839230638951,854.0,179.0,720.06
MODTBGA.A2012093.h17v05.006.2015239224123,0,0,0.0,0.0,0.0,0.0,0.0,0.0,0.0,0.0,0.0,0.02
MODTBGA.A2012096.h19v05.006.2015240022012,1,258,90288.35869199614,6.270024909166398,89890.0,6.242361111111111,-0.02766379805528718,-0.00441207147595927,0.00441207147595927,781.0,183.0,633.67
MODTBGA.A2012098.h17v05.006.2015239215336,0,0,0.0,0.0,0.0,0.0,0.0,0.0,0.0,0.0,0.0,0.01
MODTBGA.A2012098.h19v04.006.2015239220115,0,0,0.0,0.0,0.0,0.0,0.0,0.0,0.0,0.0,0.0,0.01
MODTBGA.A2012097.h12v04.006.2015239223941,0,0,0.0,0.0,0.0,0.0,0.0,0.0,0.0,0.0,0.0,0.01
MODTBGA.A2012096.h19v03.006.2015240022257,3,928,340269.0529298869,23.62979534235326,59926.0,4.161527777777778,-19.46826756457548,-0.8238864231583591,0.8238864231583591,865.0,178.0,585.49
MODTBGA.A2012093.h17v03.006.2015239224042,3,1264,468498.72297408164,32.53463353986678,62781.0,4.359791666666666,-28.174841873200116,-0.865995365789987,0.865995365789987,740.0,145.0,628.11
MODTBGA.A2012094.h15v03.006.2015240000438,2,181,93412.43697280917,6.486974789778414,236867.0,16.44909722222222,9.962122432443806,1.5357115998263495,1.5357115998263495,862.0,276.0,785.0
MODTBGA.A2012095.h14v04.006.2015240012741,0,0,0.0,0.0,0.0,0.0,0.0,0.0,0.0,0.0,0.0,0.02
MODTBGA.A2012100.h18v05.006.2015240000813,2,56,12604.757876189986,0.875330408068749,60817.0,4.223402777777778,3.3480723697090293,3.824924095914728,3.824924095914728,747.0,128.0,798.7
MODTBGA.A2012099.h14v04.006.2015239222332,0,0,0.0,0.0,0.0,0.0,0.0,0.0,0.0,0.0,0.0,0.02
MODTBGA.A2012100.h19v05.006.2015240001632,0,0,0.0,0.0,0.0,0.0,0.0,0.0,0.0,0.0,0.0,0.02
MODTBGA.A2012094.h11v04.006.2015240001003,0,0,0.0,0.0,0.0,0.0,0.0,0.0,0.0,0.0,0.0,0.02
MODTBGA.A2012097.h15v03.006.2015239225327,1,246,129356.67793554904,8.983102634413127,167521.0,11.633402777777778,2.6503001433646514,0.2950317113389852,0.2950317113389852,772.0,207.0,632.19
MODTBGA.A2012097.h17v03.006.2015239225503,0,0,0.0,0.0,0.0,0.0,0.0,0.0,0.0,0.0,0.0,0.02
MODTBGA.A2012099.h11v05.006.2015239220359,3,3205,1218932.5146520152,84.64809129527883,136394.0,9.471805555555555,-75.17628573972328,-0.8881037314531411,0.8881037314531411,683.0,213.0,592.38
MODTBGA.A2012097.h13v03.006.2015239224019,0,0,0.0,0.0,0.0,0.0,0.0,0.0,0.0,0.0,0.0,0.02
MODTBGA.A2012097.h18v05.006.2015239224651,0,0,0.0,0.0,0.0,0.0,0.0,0.0,0.0,0.0,0.0,0.01
MODTBGA.A2012095.h12v04.006.2015240011822,0,0,0.0,0.0,0.0,0.0,0.0,0.0,0.0,0.0,0.0,0.02
MODTBGA.A2012101.h17v05.006.2015240012747,1,413,146932.03690720967,10.203613674111782,113682.0,7.894583333333334,-2.309030340778448,-0.22629535128685158,0.22629535128685158,784.0,206.0,672.19
MODTBGA.A2012099.h19v03.006.2015239221609,0,0,0.0,0.0,0.0,0.0,0.0,0.0,0.0,0.0,0.0,0.03
MODTBGA.A2012096.h18v04.006.2015240021829,3,2093,783259.8516132629,54.393045250921034,35471.0,2.4632638888888887,-51.929781362032145,-0.9547136241862249,0.9547136241862249,760.0,124.0,534.6
MODTBGA.A2012092.h17v03.006.2015240001238,3,763,288086.45347728644,20.006003713700448,95032.0,6.599444444444444,-13.406559269256004,-0.6701268009899931,0.6701268009899931,757.0,139.0,710.58
MODTBGA.A2012094.h11v05.006.2015240000911,0,0,0.0,0.0,0.0,0.0,0.0,0.0,0.0,0.0,0.0,0.02
MODTBGA.A2012093.h11v03.006.2015239225347,2,473,38975.68744360275,2.706644961361302,333311.0,23.146597222222223,20.43995226086092,7.551767059459725,7.551767059459725,694.0,387.0,674.07
MODTBGA.A2012100.h17v04.006.2015240001646,0,0,0.0,0.0,0.0,0.0,0.0,0.0,0.0,0.0,0.0,0.02
MODTBGA.A2012100.h11v04.006.2015240000258,3,2962,1137968.846048619,79.02561430893186,101313.0,7.035625,-71.98998930893187,-0.9109703219452886,0.9109703219452886,830.0,273.0,699.86
MODTBGA.A2012092.h13v04.006.2015240001623,0,0,0.0,0.0,0.0,0.0,0.0,0.0,0.0,0.0,0.0,0.02
MODTBGA.A2012101.h12v03.006.2015240013448,2,453,33639.812688176025,2.3360981033455577,335401.0,23.29173611111111,20.95563800776555,8.97035872669675,8.97035872669675,805.0,377.0,632.36
MODTBGA.A2012098.h12v03.006.2015239215709,2,253,21107.57558884915,1.4658038603367465,272720.0,18.93888888888889,17.473085028552145,11.920479609419207,11.920479609419207,749.0,362.0,622.16
MODTBGA.A2012099.h17v04.006.2015239220813,0,0,0.0,0.0,0.0,0.0,0.0,0.0,0.0,0.0,0.0,0.02
MODTBGA.A2012098.h15v05.006.2015239215321,0,0,0.0,0.0,0.0,0.0,0.0,0.0,0.0,0.0,0.0,0.02
MODTBGA.A2012094.h17v04.006.2015240001240,0,0,0.0,0.0,0.0,0.0,0.0,0.0,0.0,0.0,0.0,0.02
MODTBGA.A2012098.h12v04.006.2015239215512,0,0,0.0,0.0,0.0,0.0,0.0,0.0,0.0,0.0,0.0,0.03
MODTBGA.A2012098.h18v05.006.2015239215438,2,47,9346.519314969515,0.6490638413173274,42279.0,2.9360416666666667,2.2869778253493394,3.5235021268597144,3.5235021268597144,745.0,113.0,676.32
MODTBGA.A2012094.h12v03.006.2015240000900,2,462,37323.37547857902,2.5919010749013207,266664.0,18.518333333333334,15.926432258432014,6.1446914053378245,6.1446914053378245,788.0,309.0,510.37
MODTBGA.A2012097.h12v03.006.2015239224719,2,372,146353.31210428884,10.163424451686724,288672.0,20.046666666666667,9.883242214979942,0.9724322999557218,0.9724322999557218,839.0,398.0,691.1
MODTBGA.A2012092.h19v05.006.2015240000611,2,80,15670.587683025997,1.0882352557656942,88963.0,6.177986111111111,5.089750855345417,4.6770685183914695,4.6770685183914695,892.0,187.0,684.66
MODTBGA.A2012094.h11v03.006.2015240001413,2,515,196317.49993476027,13.633159717691687,344322.0,23.91125,10.278090282308312,0.7539037534321911,0.7539037534321911,667.0,399.0,534.91
MODTBGA.A2012095.h18v03.006.2015240012352,0,0,0.0,0.0,0.0,0.0,0.0,0.0,0.0,0.0,0.0,0.02
MODTBGA.A2012093.h12v04.006.2015239224453,3,3609,1330912.0493966301,92.42444787476597,189741.0,13.176458333333333,-79.24798954143264,-0.8574353578915909,0.8574353578915909,926.0,313.0,701.76
MODTBGA.A2012093.h14v04.006.2015239224520,0,0,0.0,0.0,0.0,0.0,0.0,0.0,0.0,0.0,0.0,0.02
MODTBGA.A2012092.h17v05.006.2015239235909,2,169,34125.58816964102,2.3698325117806265,61517.0,4.272013888888889,1.9021813771082625,0.8026649004317256,0.8026649004317256,841.0,173.0,577.88
MODTBGA.A2012093.h15v03.006.2015239224535,1,296,162386.3565441853,11.276830315568425,113983.0,7.915486111111111,-3.361344204457314,-0.29807526675441337,0.29807526675441337,742.0,170.0,676.34
MODTBGA.A2012093.h15v05.006.2015239225011,0,0,0.0,0.0,0.0,0.0,0.0,0.0,0.0,0.0,0.0,0.02
MODTBGA.A2012092.h19v04.006.2015240000541,0,0,0.0,0.0,0.0,0.0,0.0,0.0,0.0,0.0,0.0,0.02
MODTBGA.A2012099.h19v04.006.2015239221115,0,0,0.0,0.0,0.0,0.0,0.0,0.0,0.0,0.0,0.0,0.02
MODTBGA.A2012095.h12v05.006.2015240011916,3,949,334790.0028215813,23.249305751498703,85543.0,5.940486111111111,-17.30881964038759,-0.7444875913884794,0.7444875913884794,731.0,179.0,532.25
MODTBGA.A2012101.h16v05.006.2015240012939,2,104,30677.183909372125,2.1303599937063975,140387.0,9.749097222222222,7.618737228515824,3.576267509258262,3.576267509258262,799.0,209.0,632.18
MODTBGA.A2012092.h18v04.006.2015240000542,0,0,0.0,0.0,0.0,0.0,0.0,0.0,0.0,0.0,0.0,0.01
MODTBGA.A2012100.h15v05.006.2015240000503,2,13,4717.850438534146,0.3276285026759823,69013.0,4.792569444444444,4.464940941768462,13.6280601513605,13.6280601513605,802.0,140.0,711.0
MODTBGA.A2012098.h19v05.006.2015239215604,0,0,0.0,0.0,0.0,0.0,0.0,0.0,0.0,0.0,0.0,0.02
MODTBGA.A2012099.h18v05.006.2015239220620,0,0,0.0,0.0,0.0,0.0,0.0,0.0,0.0,0.0,0.0,0.02
MODTBGA.A2012101.h13v03.006.2015240013509,0,0,0.0,0.0,0.0,0.0,0.0,0.0,0.0,0.0,0.0,0.02
MODTBGA.A2012092.h11v04.006.2015240000129,3,2457,943497.5793364636,65.52066523169886,103969.0,7.220069444444445,-58.30059578725441,-0.8898046987326468,0.8898046987326468,778.0,266.0,603.68
MODTBGA.A2012096.h13v04.006.2015240021822,3,1273,459959.0986951093,31.941604076049256,190680.0,13.241666666666665,-18.699937409382592,-0.5854414000267554,0.5854414000267554,732.0,243.0,567.56
MODTBGA.A2012098.h11v05.006.2015239215602,0,0,0.0,0.0,0.0,0.0,0.0,0.0,0.0,0.0,0.0,0.02
MODTBGA.A2012094.h15v05.006.2015239235606,0,0,0.0,0.0,0.0,0.0,0.0,0.0,0.0,0.0,0.0,0.02
MODTBGA.A2012101.h12v04.006.2015240013057,3,3832,1436233.040752539,99.73840560781521,222563.0,15.455763888888887,-84.28264171892633,-0.8450369865579863,0.8450369865579863,854.0,327.0,736.8
MODTBGA.A2012096.h13v03.006.2015240021531,2,66,18387.811496131828,1.2769313538980436,75091.0,5.214652777777777,3.937721423879734,3.083737752902057,3.083737752902057,383.0,115.0,217.87
MODTBGA.A2012093.h19v05.006.2015239224434,0,0,0.0,0.0,0.0,0.0,0.0,0.0,0.0,0.0,0.0,0.02
MODTBGA.A2012100.h13v03.006.2015240001908,2,309,114540.9939560535,7.954235691392604,288924.0,20.064166666666665,12.109930975274061,1.5224506093499839,1.5224506093499839,712.0,321.0,727.29
MODTBGA.A2012097.h11v04.006.2015239224451,0,0,0.0,0.0,0.0,0.0,0.0,0.0,0.0,0.0,0.0,0.02
MODTBGA.A2012094.h14v03.006.2015240000135,2,286,122252.6322634876,8.489766129408862,235214.0,16.334305555555556,7.844539426146694,0.9239994726089004,0.9239994726089004,756.0,244.0,721.07
MODTBGA.A2012092.h15v03.006.2015240001531,0,0,0.0,0.0,0.0,0.0,0.0,0.0,0.0,0.0,0.0,0.01
MODTBGA.A2012095.h17v05.006.2015240011721,3,381,136788.63979453454,9.499211096842677,57101.0,3.9653472222222224,-5.5338638746204545,-0.5825603640348392,0.5825603640348392,814.0,134.0,701.01
MODTBGA.A2012101.h13v04.006.2015240013440,0,0,0.0,0.0,0.0,0.0,0.0,0.0,0.0,0.0,0.0,0.02
MODTBGA.A2012101.h17v04.006.2015240012954,3,604,215407.86405668632,14.958879448380994,60617.0,4.209513888888889,-10.749365559492105,-0.7185943035763627,0.7185943035763627,850.0,140.0,524.33
MODTBGA.A2012093.h14v03.006.2015239224415,1,287,136340.42639135293,9.468085166066176,199083.0,13.825208333333332,4.357123167267156,0.46019053386667674,0.46019053386667674,725.0,214.0,279.27
MODTBGA.A2012092.h15v05.006.2015240000114,0,0,0.0,0.0,0.0,0.0,0.0,0.0,0.0,0.0,0.0,0.01
MODTBGA.A2012096.h11v05.006.2015240021342,3,1308,417763.36303569394,29.011344655256522,103755.0,7.205208333333333,-21.80613632192319,-0.7516416967585186,0.7516416967585186,507.0,155.0,536.57
MODTBGA.A2012098.h17v04.006.2015239215538,0,0,0.0,0.0,0.0,0.0,0.0,0.0,0.0,0.0,0.0,0.02
MODTBGA.A2012100.h17v03.006.2015240001429,3,1186,432001.5052001645,30.0001045277892,61073.0,4.241180555555555,-25.758923972233646,-0.8586278073922398,0.8586278073922398,801.0,140.0,586.14
MODTBGA.A2012092.h14v03.006.2015240000714,1,306,145417.50714966108,10.098437996504241,111955.0,7.774652777777778,-2.3237852187264636,-0.23011333233227596,0.23011333233227596,832.0,206.0,824.15
MODTBGA.A2012092.h12v03.006.2015240000707,0,0,0.0,0.0,0.0,0.0,0.0,0.0,0.0,0.0,0.0,0.02
MODTBGA.A2012093.h12v05.006.2015239224506,3,957,336193.78246085084,23.346790448670195,117214.0,8.139861111111111,-15.206929337559083,-0.6513498877283688,0.6513498877283688,772.0,215.0,395.2
MODTBGA.A2012096.h11v03.006.2015240021418,0,0,0.0,0.0,0.0,0.0,0.0,0.0,0.0,0.0,0.0,0.05
MODTBGA.A2012095.h19v03.006.2015240012104,3,911,326438.902301595,22.669368215388545,123255.0,8.559375,-14.109993215388545,-0.6224255162881126,0.6224255162881126,776.0,206.0,275.38
MODTBGA.A2012099.h15v03.006.2015239222620,0,0,0.0,0.0,0.0,0.0,0.0,0.0,0.0,0.0,0.0,0.01
MODTBGA.A2012097.h18v03.006.2015239224708,0,0,0.0,0.0,0.0,0.0,0.0,0.0,0.0,0.0,0.0,0.01
MODTBGA.A2012094.h13v04.006.2015240000607,0,0,0.0,0.0,0.0,0.0,0.0,0.0,0.0,0.0,0.0,0.03
MODTBGA.A2012098.h16v05.006.2015239215202,2,35,3003.475037857928,0.20857465540680054,122017.0,8.473402777777778,8.264828122370977,39.62527521021858,39.62527521021858,860.0,207.0,729.26
MODTBGA.A2012094.h14v04.006.2015239235846,2,118,41322.492358743286,2.8696175249127283,117084.0,8.130833333333333,5.261215808420605,1.8334205735590532,1.8334205735590532,762.0,198.0,415.29
MODTBGA.A2012093.h11v05.006.2015239223636,3,2913,1135889.4105214782,78.88120906399155,70012.0,4.861944444444444,-74.0192646195471,-0.9383637180243999,0.9383637180243999,752.0,155.0,285.76
MODTBGA.A2012099.h11v03.006.2015239220741,0,0,0.0,0.0,0.0,0.0,0.0,0.0,0.0,0.0,0.0,0.01
MODTBGA.A2012096.h19v04.006.2015240022151,3,862,316186.7983085388,21.957416549204083,76873.0,5.338402777777778,-16.619013771426307,-0.7568747322429749,0.7568747322429749,756.0,129.0,249.42
MODTBGA.A2012095.h19v04.006.2015240011705,0,0,0.0,0.0,0.0,0.0,0.0,0.0,0.0,0.0,0.0,0.01
MODTBGA.A2012100.h14v03.006.2015240003354,2,227,105707.60336748524,7.340805789408697,219397.0,15.235902777777778,7.8950969883690805,1.0755082227839503,1.0755082227839503,751.0,264.0,240.61
MODTBGA.A2012101.h17v03.006.2015240013120,3,1173,417771.03477779275,29.0118774151245,32240.0,2.238888888888889,-26.772988526235608,-0.9228285416743933,0.9228285416743933,848.0,111.0,265.97
MODTBGA.A2012095.h16v05.006.2015240011954,0,0,0.0,0.0,0.0,0.0,0.0,0.0,0.0,0.0,0.0,0.01
