name,category,flight_count,flight_pixel,flight_pixel_percent,contrail_pixel,contrail_pixel_percent,deviation,deviation_percent,deviation_percent_abs,intersections_per_granule,line_types_per_granule,runtime_seconds
MODTBGA.A2012095.h18v05.006.2015240011541,3,197,66592.87026601483,4.6245048795843635,11947.0,0.8296527777777778,-3.794852101806586,-0.8205964099118122,0.8205964099118122,476.0,25.0,18.35
MODTBGA.A2012096.h17v05.006.2015240021802,0,0,0.0,0.0,0.0,0.0,0.0,0.0,0.0,0.0,0.0,0.02
MODTBGA.A2012099.h16v05.006.2015239220821,0,0,0.0,0.0,0.0,0.0,0.0,0.0,0.0,0.0,0.0,0.02
MODTBGA.A2012095.h15v05.006.2015240012339,0,0,0.0,0.0,0.0,0.0,0.0,0.0,0.0,0.0,0.0,0.02
MODTBGA.A2012101.h11v04.006.2015240012943,3,2873,1096203.1449231284,76.12521839743948,46924.0,3.2586111111111116,-72.86660728632837,-0.9571940655184943,0.9571940655184943,386.0,80.0,24.23
MODTBGA.A2012100.h19v04.006.2015240001742,0,0,0.0,0.0,0.0,0.0,0.0,0.0,0.0,0.0,0.0,0.02
MODTBGA.A2012095.h12v03.006.2015240011907,3,490,185716.6939535967,12.896992635666438,65414.0,4.542638888888889,-8.354353746777548,-0.647775336683818,0.647775336683818,278.0,137.0,28.22
MODTBGA.A2012099.h18v04.006.2015239220842,0,0,0.0,0.0,0.0,0.0,0.0,0.0,0.0,0.0,0.0,0.02
MODTBGA.A2012100.h18v03.006.2015240003246,0,0,0.0,0.0,0.0,0.0,0.0,0.0,0.0,0.0,0.0,0.02
MODTBGA.A2012100.h12v04.006.2015240001042,0,0,0.0,0.0,0.0,0.0,0.0,0.0,0.0,0.0,0.0,0.02
MODTBGA.A2012094.h17v03.006.2015240001502,0,0,0.0,0.0,0.0,0.0,0.0,0.0,0.0,0.0,0.0,0.04
MODTBGA.A2012099.h12v03.006.2015239220644,1,253,101145.2222051735,7.02397376424816,77255.0,5.3649305555555555,-1.6590432086926041,-0.23619723882470775,0.23619723882470775,408.0,169.0,31.32
MODTBGA.A2012097.h19v03.006.2015239225201,3,915,335389.71087214124,23.290952143898696,12721.0,0.8834027777777778,-22.407549366120918,-0.9620709890982626,0.9620709890982626,434.0,27.0,17.29
MODTBGA.A2012100.h11v05.006.2015240000946,0,0,0.0,0.0,0.0,0.0,0.0,0.0,0.0,0.0,0.0,0.02
MODTBGA.A2012096.h12v03.006.2015240020926,0,0,0.0,0.0,0.0,0.0,0.0,0.0,0.0,0.0,0.0,0.01
MODTBGA.A2012095.h11v05.006.2015240011726,3,2924,1139357.3289989168,79.12203673603588,54816.0,3.8066666666666666,-75.31537006936921,-0.9518886668784028,0.9518886668784028,500.0,89.0,26.59
MODTBGA.A2012096.h14v03.006.2015240021806,1,196,80531.58786911205,5.592471379799448,88554.0,6.149583333333333,0.5571119535338855,0.09961820377771236,0.09961820377771236,443.0,185.0,29.67
MODTBGA.A2012098.h13v03.006.2015239215429,1,208,72988.89160500423,5.068673028125294,74902.0,5.201527777777778,0.13285474965248412,0.026210952830315423,0.026210952830315423,235.0,124.0,20.42
MODTBGA.A2012099.h12v05.006.2015239221751,0,0,0.0,0.0,0.0,0.0,0.0,0.0,0.0,0.0,0.0,0.02
MODTBGA.A2012092.h12v04.006.2015240000342,3,2753,1015804.9437528148,70.54200998283436,94339.0,6.551319444444445,-63.99069053838991,-0.9071288237174041,0.9071288237174041,508.0,177.0,34.12
MODTBGA.A2012095.h14v03.006.2015240013203,2,205,25731.73963194334,1.7869263633293986,60103.0,4.173819444444445,2.386893081115046,1.3357534647750062,1.3357534647750062,406.0,137.0,24.75
MODTBGA.A2012101.h19v05.006.2015240013307,1,71,17365.8593340575,1.205962453753993,14480.0,1.0055555555555555,-0.2004068981984375,-0.16618004779054169,0.16618004779054169,261.0,17.0,11.01
MODTBGA.A2012098.h15v03.006.2015239215510,2,100,48065.2876772345,3.337867199807951,81937.0,5.690069444444444,2.352202244636493,0.7047021657338045,0.7047021657338045,433.0,123.0,22.61
MODTBGA.A2012096.h17v04.006.2015240021842,0,0,0.0,0.0,0.0,0.0,0.0,0.0,0.0,0.0,0.0,0.02
MODTBGA.A2012097.h19v05.006.2015239224600,0,0,0.0,0.0,0.0,0.0,0.0,0.0,0.0,0.0,0.0,0.02
MODTBGA.A2012096.h14v04.006.2015240021947,2,108,42383.36614853229,2.943289315870298,73752.0,5.121666666666667,2.178377350796369,0.740116623619193,0.740116623619193,516.0,125.0,25.73
MODTBGA.A2012094.h16v05.006.2015240000902,3,91,30819.59883144122,2.1402499188500848,14330.0,0.9951388888888888,-1.145111029961196,-0.5350361281996647,0.5350361281996647,644.0,22.0,18.4
MODTBGA.A2012093.h11v04.006.2015239224744,0,0,0.0,0.0,0.0,0.0,0.0,0.0,0.0,0.0,0.0,0.02
MODTBGA.A2012100.h12v03.006.2015240001249,2,403,34669.945491585066,2.407635103582296,121103.0,8.409930555555556,6.002295451973261,2.4930253936913056,2.4930253936913056,350.0,181.0,31.39
MODTBGA.A2012097.h14v03.006.2015239224453,0,0,0.0,0.0,0.0,0.0,0.0,0.0,0.0,0.0,0.0,0.02
MODTBGA.A2012098.h14v04.006.2015239215501,0,0,0.0,0.0,0.0,0.0,0.0,0.0,0.0,0.0,0.0,0.03
MODTBGA.A2012099.h13v03.006.2015239222429,2,152,20011.74200789696,1.3897043061039556,44309.0,3.0770138888888887,1.6873095827849331,1.2141500716186997,1.2141500716186997,202.0,110.0,19.1
MODTBGA.A2012099.h17v05.006.2015239220724,1,166,34550.51332056004,2.39934120281667,31496.0,2.187222222222222,-0.21211898059444767,-0.08840717624714395,0.08840717624714395,510.0,56.0,24.41
MODTBGA.A2012093.h18v03.006.2015239224200,3,1665,625921.3841121129,43.4667627855634,32694.0,2.2704166666666667,-41.19634611889673,-0.9477666032350414,0.9477666032350414,499.0,60.0,26.53
MODTBGA.A2012092.h11v05.006.2015240000031,3,2659,1046502.4132292286,72.67377869647422,80289.0,5.575625,-67.09815369647421,-0.9232787244586952,0.9232787244586952,377.0,137.0,38.26
MODTBGA.A2012093.h18v04.006.2015239224242,0,0,0.0,0.0,0.0,0.0,0.0,0.0,0.0,0.0,0.0,0.02
MODTBGA.A2012095.h18v04.006.2015240012141,3,2077,777334.4438142434,53.98155859821134,9279.0,0.644375,-53.33718359821135,-0.988063053073437,0.988063053073437,695.0,24.0,23.71
MODTBGA.A2012093.h19v03.006.2015239224348,0,0,0.0,0.0,0.0,0.0,0.0,0.0,0.0,0.0,0.0,0.02
MODTBGA.A2012094.h18v05.006.2015240002230,0,0,0.0,0.0,0.0,0.0,0.0,0.0,0.0,0.0,0.0,0.02
MODTBGA.A2012096.h15v03.006.2015240021727,3,214,113766.08510669619,7.900422576853902,23314.0,1.619027777777778,-6.281394799076124,-0.7950707367829803,0.7950707367829803,449.0,36.0,16.89
MODTBGA.A2012096.h11v04.006.2015240021059,3,685,208287.65423400624,14.4644204329171,29015.0,2.0149305555555554,-12.449489877361545,-0.8606974565693541,0.8606974565693541,38.0,9.0,7.59
MODTBGA.A2012101.h14v04.006.2015240012838,0,0,0.0,0.0,0.0,0.0,0.0,0.0,0.0,0.0,0.0,0.02
MODTBGA.A2012101.h15v03.006.2015240013148,0,0,0.0,0.0,0.0,0.0,0.0,0.0,0.0,0.0,0.0,0.02
MODTBGA.A2012097.h19v04.006.2015239224751,3,808,296811.15912551613,20.611886050383067,16092.0,1.1175,-19.494386050383067,-0.9457837095902618,0.9457837095902618,587.0,35.0,20.21
MODTBGA.A2012093.h16v05.006.2015239225020,0,0,0.0,0.0,0.0,0.0,0.0,0.0,0.0,0.0,0.0,0.02
MODTBGA.A2012097.h14v04.006.2015239224813,2,106,38457.48268714165,2.6706585199403925,78128.0,5.4255555555555555,2.754897035615163,1.0315422264006446,1.0315422264006446,480.0,102.0,25.11
MODTBGA.A2012095.h19v05.006.2015240011629,0,0,0.0,0.0,0.0,0.0,0.0,0.0,0.0,0.0,0.0,0.02
MODTBGA.A2012092.h13v03.006.2015240001519,2,190,16813.735395792504,1.1676205135967017,55752.0,3.871666666666667,2.7040461530699655,2.315860437172782,2.315860437172782,212.0,84.0,20.22
MODTBGA.A2012101.h18v05.006.2015240012751,0,0,0.0,0.0,0.0,0.0,0.0,0.0,0.0,0.0,0.0,0.02
MODTBGA.A2012093.h13v03.006.2015239224811,3,381,135823.10208631234,9.432159867105023,40509.0,2.813125,-6.619034867105023,-0.7017517684564626,0.7017517684564626,264.0,78.0,17.88
MODTBGA.A2012095.h11v04.006.2015240011952,0,0,0.0,0.0,0.0,0.0,0.0,0.0,0.0,0.0,0.0,0.03
MODTBGA.A2012100.h12v05.006.2015240000643,0,0,0.0,0.0,0.0,0.0,0.0,0.0,0.0,0.0,0.0,0.02
MODTBGA.A2012094.h12v04.006.2015240004352,0,0,0.0,0.0,0.0,0.0,0.0,0.0,0.0,0.0,0.0,0.02
MODTBGA.A2012098.h18v04.006.2015239215315,0,0,0.0,0.0,0.0,0.0,0.0,0.0,0.0,0.0,0.0,0.02
MODTBGA.A2012096.h16v05.006.2015240022307,0,0,0.0,0.0,0.0,0.0,0.0,0.0,0.0,0.0,0.0,0.02
MODTBGA.A2012098.h13v04.006.2015239215449,0,0,0.0,0.0,0.0,0.0,0.0,0.0,0.0,0.0,0.0,0.02
MODTBGA.A2012096.h17v03.006.2015240023227,0,0,0.0,0.0,0.0,0.0,0.0,0.0,0.0,0.0,0.0,0.02
MODTBGA.A2012094.h12v05.006.2015240000746,0,0,0.0,0.0,0.0,0.0,0.0,0.0,0.0,0.0,0.0,0.02
MODTBGA.A2012095.h13v04.006.2015240013015,0,0,0.0,0.0,0.0,0.0,0.0,0.0,0.0,0.0,0.0,0.02
MODTBGA.A2012097.h12v05.006.2015239223920,0,0,0.0,0.0,0.0,0.0,0.0,0.0,0.0,0.0,0.0,0.02
MODTBGA.A2012096.h18v03.006.2015240022117,3,2496,891280.9058100352,61.89450734791912,34633.0,2.4050694444444445,-59.48943790347467,-0.9611424414298161,0.9611424414298161,421.0,41.0,22.04
MODTBGA.A2012093.h19v04.006.2015239224530,0,0,0.0,0.0,0.0,0.0,0.0,0.0,0.0,0.0,0.0,0.02
MODTBGA.A2012094.h19v04.006.2015239235807,0,0,0.0,0.0,0.0,0.0,0.0,0.0,0.0,0.0,0.0,0.02
MODTBGA.A2012099.h15v05.006.2015239220636,0,0,0.0,0.0,0.0,0.0,0.0,0.0,0.0,0.0,0.0,0.02
MODTBGA.A2012093.h18v05.006.2015239223631,1,50,11720.978471202512,0.8139568382779522,5987.0,0.4157638888888889,-0.3981929493890633,-0.4892064673005269,0.4892064673005269,417.0,19.0,15.17
MODTBGA.A2012092.h18v05.006.2015240000249,0,0,0.0,0.0,0.0,0.0,0.0,0.0,0.0,0.0,0.0,0.02
MODTBGA.A2012097.h13v04.006.2015239224624,0,0,0.0,0.0,0.0,0.0,0.0,0.0,0.0,0.0,0.0,0.02
MODTBGA.A2012092.h19v03.006.2015240000128,0,0,0.0,0.0,0.0,0.0,0.0,0.0,0.0,0.0,0.0,0.02
MODTBGA.A2012098.h18v03.006.2015239215407,0,0,0.0,0.0,0.0,0.0,0.0,0.0,0.0,0.0,0.0,0.02
MODTBGA.A2012092.h14v04.006.2015239235951,0,0,0.0,0.0,0.0,0.0,0.0,0.0,0.0,0.0,0.0,0.02
MODTBGA.A2012100.h11v03.006.2015240000821,0,0,0.0,0.0,0.0,0.0,0.0,0.0,0.0,0.0,0.0,0.02
MODTBGA.A2012095.h11v03.006.2015240012231,2,520,45193.53213830794,3.1384397318269404,145898.0,10.131805555555555,6.993365823728615,2.2282938088021385,2.2282938088021385,450.0,275.0,39.42
MODTBGA.A2012094.h19v03.006.2015240000841,0,0,0.0,0.0,0.0,0.0,0.0,0.0,0.0,0.0,0.0,0.02
MODTBGA.A2012098.h14v03.006.2015239215747,0,0,0.0,0.0,0.0,0.0,0.0,0.0,0.0,0.0,0.0,0.02
MODTBGA.A2012099.h12v04.006.2015239222156,3,2429,899031.2019528822,62.43272235783904,45232.0,3.141111111111111,-59.29161124672793,-0.949688064327749,0.949688064327749,326.0,65.0,18.62
MODTBGA.A2012094.h17v05.006.2015240001008,3,365,124923.8740407388,8.675269030606861,13620.0,0.9458333333333333,-7.729435697273528,-0.8909736020869927,0.8909736020869927,654.0,28.0,21.65
MODTBGA.A2012100.h16v05.006.2015240000948,2,30,2598.5855123282854,0.1804573272450198,34917.0,2.4247916666666667,2.244334339421647,12.436925525192745,12.436925525192745,443.0,48.0,18.27
MODTBGA.A2012097.h18v04.006.2015239225116,0,0,0.0,0.0,0.0,0.0,0.0,0.0,0.0,0.0,0.0,0.02
MODTBGA.A2012097.h15v05.006.2015239224538,0,0,0.0,0.0,0.0,0.0,0.0,0.0,0.0,0.0,0.0,0.01
MODTBGA.A2012101.h15v05.006.2015240013234,0,0,0.0,0.0,0.0,0.0,0.0,0.0,0.0,0.0,0.0,0.01
MODTBGA.A2012096.h12v04.006.2015240021411,3,872,265304.9808466892,18.423957003242304,38473.0,2.671736111111111,-15.752220892131193,-0.8549857606245537,0.8549857606245537,337.0,65.0,17.73
MODTBGA.A2012098.h12v05.006.2015239215453,0,0,0.0,0.0,0.0,0.0,0.0,0.0,0.0,0.0,0.0,0.02
MODTBGA.A2012092.h18v03.006.2015240001014,3,2155,782579.4821160318,54.34579736916888,22551.0,1.5660416666666666,-52.779755702502214,-0.971183757668903,0.971183757668903,520.0,45.0,22.95
MODTBGA.A2012094.h18v04.006.2015240002946,0,0,0.0,0.0,0.0,0.0,0.0,0.0,0.0,0.0,0.0,0.02
MODTBGA.A2012095.h15v03.006.2015240012109,1,237,102449.43543567395,7.114544127477358,63084.0,4.380833333333333,-2.7337107941440246,-0.3842425804326736,0.3842425804326736,629.0,179.0,35.1
MODTBGA.A2012099.h14v03.006.2015239222504,1,148,69442.26749707414,4.822379687296815,76713.0,5.327291666666667,0.5049119793698527,0.10470183023951835,0.10470183023951835,373.0,125.0,26.81
MODTBGA.A2012094.h19v05.006.2015239235750,0,0,0.0,0.0,0.0,0.0,0.0,0.0,0.0,0.0,0.0,0.01
MODTBGA.A2012093.h12v03.006.2015239224018,0,0,0.0,0.0,0.0,0.0,0.0,0.0,0.0,0.0,0.0,0.02
MODTBGA.A2012097.h17v04.006.2015239224636,0,0,0.0,0.0,0.0,0.0,0.0,0.0,0.0,0.0,0.0,0.01
MODTBGA.A2012095.h13v03.006.2015240013127,0,0,0.0,0.0,0.0,0.0,0.0,0.0,0.0,0.0,0.0,0.02
MODTBGA.A2012100.h15v03.006.2015240001100,3,209,97001.19207336131,6.736193893983425,25473.0,1.7689583333333334,-4.967235560650092,-0.7373949798396813,0.7373949798396813,379.0,53.0,16.53
MODTBGA.A2012100.h13v04.006.2015240000420,0,0,0.0,0.0,0.0,0.0,0.0,0.0,0.0,0.0,0.0,0.02
MODTBGA.A2012099.h11v04.006.2015239220623,3,2209,857059.1274008688,59.51799495839367,41399.0,2.8749305555555558,-56.643064402838114,-0.9516964481487441,0.9516964481487441,364.0,82.0,29.09
MODTBGA.A2012099.h17v03.006.2015239220739,3,716,260705.04771694445,18.10451720256559,19955.0,1.3857638888888888,-16.7187533136767,-0.9234575618126667,0.9234575618126667,602.0,50.0,25.09
MODTBGA.A2012101.h11v03.006.2015240013220,3,508,194493.15711152717,13.506469243856053,86062.0,5.976527777777778,-7.529941466078275,-0.5575062831097449,0.5575062831097449,358.0,182.0,29.12
MODTBGA.A2012098.h11v03.006.2015239215714,2,308,26561.794244700322,1.8445690447708558,58112.0,4.035555555555556,2.1909865107847,1.1878040114550867,1.1878040114550867,234.0,113.0,19.83
MODTBGA.A2012096.h12v05.006.2015240021446,3,1021,367730.5667262992,25.536844911548556,59559.0,4.136041666666666,-21.40080324488189,-0.8380363086750697,0.8380363086750697,459.0,96.0,27.21
MODTBGA.A2012101.h18v03.006.2015240013341,3,2330,806311.1905811961,55.993832679249735,30357.0,2.108125,-53.885707679249734,-0.9623507643765697,0.9623507643765697,566.0,49.0,18.83
MODTBGA.A2012098.h17v03.006.2015239215401,3,1085,382060.3745074782,26.53197045190821,27325.0,1.8975694444444444,-24.63440100746377,-0.9284798900298803,0.9284798900298803,538.0,48.0,17.66
MODTBGA.A2012096.h15v05.006.2015240021524,0,0,0.0,0.0,0.0,0.0,0.0,0.0,0.0,0.0,0.0,0.02
MODTBGA.A2012100.h17v05.006.2015240000335,0,0,0.0,0.0,0.0,0.0,0.0,0.0,0.0,0.0,0.0,0.02
MODTBGA.A2012097.h11v03.006.2015239225045,0,0,0.0,0.0,0.0,0.0,0.0,0.0,0.0,0.0,0.0,0.02
MODTBGA.A2012097.h17v05.006.2015239224159,3,133,21864.45955070752,1.518365246576911,7911.0,0.5493750000000001,-0.968990246576911,-0.6381799430416744,0.6381799430416744,520.0,18.0,15.71
MODTBGA.A2012097.h11v05.006.2015239223847,0,0,0.0,0.0,0.0,0.0,0.0,0.0,0.0,0.0,0.0,0.02
MODTBGA.A2012098.h11v04.006.2015239215556,3,2265,873043.3868149489,60.62801297326034,67626.0,4.69625,-55.93176297326034,-0.9225399321255794,0.9225399321255794,353.0,93.0,31.28
MODTBGA.A2012098.h19v03.006.2015239220335,0,0,0.0,0.0,0.0,0.0,0.0,0.0,0.0,0.0,0.0,0.02
MODTBGA.A2012094.h13v03.006.2015240000758,0,0,0.0,0.0,0.0,0.0,0.0,0.0,0.0,0.0,0.0,0.02
MODTBGA.A2012101.h18v04.006.2015240012841,0,0,0.0,0.0,0.0,0.0,0.0,0.0,0.0,0.0,0.0,0.02
MODTBGA.A2012094.h18v03.006.2015240000903,3,2244,786768.3597858516,54.636691651795246,45451.0,3.1563194444444442,-51.480372207350804,-0.9422307729655383,0.9422307729655383,558.0,90.0,32.66
MODTBGA.A2012100.h18v04.006.2015240003409,0,0,0.0,0.0,0.0,0.0,0.0,0.0,0.0,0.0,0.0,0.02
MODTBGA.A2012101.h19v03.006.2015240013615,0,0,0.0,0.0,0.0,0.0,0.0,0.0,0.0,0.0,0.0,0.03
MODTBGA.A2012097.h16v05.006.2015239224659,0,0,0.0,0.0,0.0,0.0,0.0,0.0,0.0,0.0,0.0,0.03
MODTBGA.A2012100.h19v03.006.2015240002404,0,0,0.0,0.0,0.0,0.0,0.0,0.0,0.0,0.0,0.0,0.03
MODTBGA.A2012099.h18v03.006.2015239221245,3,1902,692513.6502145933,48.09122570934676,22033.0,1.5300694444444445,-46.561156264902316,-0.968184020642521,0.968184020642521,460.0,45.0,20.24
MODTBGA.A2012099.h13v04.006.2015239220416,0,0,0.0,0.0,0.0,0.0,0.0,0.0,0.0,0.0,0.0,0.02
MODTBGA.A2012092.h17v04.006.2015240000711,3,618,226216.5133874054,15.709480096347598,30247.0,2.100486111111111,-13.608993985236486,-0.8662918124451828,0.8662918124451828,342.0,39.0,15.95
MODTBGA.A2012101.h19v04.006.2015240013130,0,0,0.0,0.0,0.0,0.0,0.0,0.0,0.0,0.0,0.0,0.02
MODTBGA.A2012101.h14v03.006.2015240013150,1,335,155520.89943717132,10.800062460914676,97402.0,6.764027777777777,-4.036034683136899,-0.373704753814459,0.373704753814459,534.0,190.0,37.33
MODTBGA.A2012095.h17v03.006.2015240011807,0,0,0.0,0.0,0.0,0.0,0.0,0.0,0.0,0.0,0.0,0.02
MODTBGA.A2012093.h13v04.006.2015239224608,3,1881,656111.79278597,45.56331894347014,85765.0,5.955902777777778,-39.607416165692364,-0.8692829469870885,0.8692829469870885,322.0,134.0,24.93
MODTBGA.A2012093.h17v04.006.2015239224458,0,0,0.0,0.0,0.0,0.0,0.0,0.0,0.0,0.0,0.0,0.02
MODTBGA.A2012099.h19v05.006.2015239220624,1,83,15753.739222912745,1.0940096682578295,8594.0,0.5968055555555556,-0.49720411270227394,-0.4544787190903471,0.4544787190903471,273.0,10.0,11.26
MODTBGA.A2012095.h17v04.006.2015240011727,3,835,268896.17010379676,18.673345146097,18560.0,1.288888888888889,-17.38445625720811,-0.9309770756763266,0.9309770756763266,666.0,35.0,21.09
MODTBGA.A2012092.h12v05.006.2015240000342,0,0,0.0,0.0,0.0,0.0,0.0,0.0,0.0,0.0,0.0,0.02
MODTBGA.A2012101.h11v05.006.2015240012845,3,2832,1093573.4185906753,75.94259851324135,37263.0,2.587708333333333,-73.35489017990801,-0.9659254702368112,0.9659254702368112,241.0,60.0,19.96
MODTBGA.A2012092.h16v05.006.2015240000951,3,124,37937.419718380246,2.6345430359986284,9759.0,0.6777083333333334,-1.956834702665295,-0.7427605759051695,0.7427605759051695,516.0,17.0,14.96
MODTBGA.A2012092.h11v03.006.2015240001023,0,0,0.0,0.0,0.0,0.0,0.0,0.0,0.0,0.0,0.0,0.02
MODTBGA.A2012100.h14v04.006.2015240003720,0,0,0.0,0.0,0.0,0.0,0.0,0.0,0.0,0.0,0.0,0.02
MODTBGA.A2012101.h12v05.006.2015240013124,0,0,0.0,0.0,0.0,0.0,0.0,0.0,0.0,0.0,0.0,0.02
MODTBGA.A2012096.h18v05.006.2015240021506,1,71,14951.915344009723,1.0383274544451198,15103.0,1.0488194444444443,0.010491989999324547,0.01010470247551284,0.01010470247551284,386.0,26.0,13.28
MODTBGA.A2012093.h17v05.006.2015239224123,0,0,0.0,0.0,0.0,0.0,0.0,0.0,0.0,0.0,0.0,0.02
MODTBGA.A2012096.h19v05.006.2015240022012,3,258,90288.35869199614,6.270024909166398,25490.0,1.7701388888888887,-4.4998860202775095,-0.717682319522997,0.717682319522997,370.0,28.0,14.04
MODTBGA.A2012098.h17v05.006.2015239215336,0,0,0.0,0.0,0.0,0.0,0.0,0.0,0.0,0.0,0.0,0.02
MODTBGA.A2012098.h19v04.006.2015239220115,0,0,0.0,0.0,0.0,0.0,0.0,0.0,0.0,0.0,0.0,0.02
MODTBGA.A2012097.h12v04.006.2015239223941,0,0,0.0,0.0,0.0,0.0,0.0,0.0,0.0,0.0,0.0,0.02
MODTBGA.A2012096.h19v03.006.2015240022257,3,928,340269.0529298869,23.62979534235326,18369.0,1.275625,-22.354170342353257,-0.9460162484897356,0.9460162484897356,324.0,24.0,14.45
MODTBGA.A2012093.h17v03.006.2015239224042,3,1264,468498.72297408164,32.53463353986678,28153.0,1.9550694444444443,-30.579564095422338,-0.9399080539189485,0.9399080539189485,675.0,51.0,23.55
MODTBGA.A2012094.h15v03.006.2015240000438,1,181,93412.43697280917,6.486974789778414,73959.0,5.136041666666666,-1.3509331231117478,-0.20825317916148303,0.20825317916148303,403.0,155.0,25.36
MODTBGA.A2012095.h14v04.006.2015240012741,0,0,0.0,0.0,0.0,0.0,0.0,0.0,0.0,0.0,0.0,0.02
MODTBGA.A2012100.h18v05.006.2015240000813,2,56,12604.757876189986,0.875330408068749,28813.0,2.0009027777777777,1.1255723697090287,1.2858828612985025,1.2858828612985025,447.0,50.0,15.08
MODTBGA.A2012099.h14v04.006.2015239222332,0,0,0.0,0.0,0.0,0.0,0.0,0.0,0.0,0.0,0.0,0.03
MODTBGA.A2012100.h19v05.006.2015240001632,0,0,0.0,0.0,0.0,0.0,0.0,0.0,0.0,0.0,0.0,0.02
MODTBGA.A2012094.h11v04.006.2015240001003,0,0,0.0,0.0,0.0,0.0,0.0,0.0,0.0,0.0,0.0,0.02
MODTBGA.A2012097.h15v03.006.2015239225327,3,246,129356.67793554904,8.983102634413127,53442.0,3.71125,-5.271852634413127,-0.5868632307747802,0.5868632307747802,474.0,79.0,30.39
MODTBGA.A2012097.h17v03.006.2015239225503,0,0,0.0,0.0,0.0,0.0,0.0,0.0,0.0,0.0,0.0,0.02
MODTBGA.A2012099.h11v05.006.2015239220359,3,3205,1218932.5146520152,84.64809129527883,53825.0,3.7378472222222223,-80.9102440730566,-0.9558425102677927,0.9558425102677927,397.0,87.0,23.74
MODTBGA.A2012097.h13v03.006.2015239224019,0,0,0.0,0.0,0.0,0.0,0.0,0.0,0.0,0.0,0.0,0.02
MODTBGA.A2012097.h18v05.006.2015239224651,0,0,0.0,0.0,0.0,0.0,0.0,0.0,0.0,0.0,0.0,0.01
MODTBGA.A2012095.h12v04.006.2015240011822,0,0,0.0,0.0,0.0,0.0,0.0,0.0,0.0,0.0,0.0,0.01
MODTBGA.A2012101.h17v05.006.2015240012747,3,413,146932.03690720967,10.203613674111782,35214.0,2.4454166666666666,-7.758197007445116,-0.7603381757904962,0.7603381757904962,503.0,51.0,20.08
MODTBGA.A2012099.h19v03.006.2015239221609,0,0,0.0,0.0,0.0,0.0,0.0,0.0,0.0,0.0,0.0,0.03
MODTBGA.A2012096.h18v04.006.2015240021829,3,2093,783259.8516132629,54.393045250921034,12470.0,0.8659722222222221,-53.52707302869881,-0.9840793576048665,0.9840793576048665,632.0,25.0,23.7
MODTBGA.A2012092.h17v03.006.2015240001238,3,763,288086.45347728644,20.006003713700448,27953.0,1.9411805555555557,-18.064823158144893,-0.9029700992094587,0.9029700992094587,494.0,39.0,15.64
MODTBGA.A2012094.h11v05.006.2015240000911,0,0,0.0,0.0,0.0,0.0,0.0,0.0,0.0,0.0,0.0,0.01
MODTBGA.A2012093.h11v03.006.2015239225347,2,473,38975.68744360275,2.706644961361302,157237.0,10.919236111111111,8.212591149749809,3.0342328849881004,3.0342328849881004,362.0,195.0,23.69
MODTBGA.A2012100.h17v04.006.2015240001646,0,0,0.0,0.0,0.0,0.0,0.0,0.0,0.0,0.0,0.0,0.02
MODTBGA.A2012100.h11v04.006.2015240000258,3,2962,1137968.846048619,79.02561430893186,44563.0,3.0946527777777777,-75.93096153115408,-0.9608398769836831,0.9608398769836831,350.0,62.0,18.33
MODTBGA.A2012092.h13v04.006.2015240001623,0,0,0.0,0.0,0.0,0.0,0.0,0.0,0.0,0.0,0.0,0.01
MODTBGA.A2012101.h12v03.006.2015240013448,2,453,33639.812688176025,2.3360981033455577,82717.0,5.744236111111111,3.4081380077655536,1.4589019197801296,1.4589019197801296,261.0,142.0,18.92
MODTBGA.A2012098.h12v03.006.2015239215709,2,253,21107.57558884915,1.4658038603367465,103883.0,7.214097222222223,5.748293361885477,3.9215979145838054,3.9215979145838054,374.0,170.0,26.05
MODTBGA.A2012099.h17v04.006.2015239220813,0,0,0.0,0.0,0.0,0.0,0.0,0.0,0.0,0.0,0.0,0.01
MODTBGA.A2012098.h15v05.006.2015239215321,0,0,0.0,0.0,0.0,0.0,0.0,0.0,0.0,0.0,0.0,0.01
MODTBGA.A2012094.h17v04.006.2015240001240,0,0,0.0,0.0,0.0,0.0,0.0,0.0,0.0,0.0,0.0,0.01
MODTBGA.A2012098.h12v04.006.2015239215512,0,0,0.0,0.0,0.0,0.0,0.0,0.0,0.0,0.0,0.0,0.01
MODTBGA.A2012098.h18v05.006.2015239215438,1,47,9346.519314969515,0.6490638413173274,8732.0,0.6063888888888889,-0.04267495242843855,-0.06574846681002333,0.06574846681002333,404.0,18.0,11.02
MODTBGA.A2012094.h12v03.006.2015240000900,2,462,37323.37547857902,2.5919010749013207,59282.0,4.116805555555556,1.524904480654235,0.5883343679358176,0.5883343679358176,247.0,105.0,15.51
MODTBGA.A2012097.h12v03.006.2015239224719,1,372,146353.31210428884,10.163424451686724,92440.0,6.419444444444444,-3.74398000724228,-0.368377806618214,0.368377806618214,274.0,165.0,20.15
MODTBGA.A2012092.h19v05.006.2015240000611,1,80,15670.587683025997,1.0882352557656942,12261.0,0.8514583333333334,-0.23677692243236081,-0.21757880125447873,0.21757880125447873,283.0,18.0,8.88
MODTBGA.A2012094.h11v03.006.2015240001413,1,515,196317.49993476027,13.633159717691687,148771.0,10.331319444444444,-3.301840273247242,-0.24219185732581563,0.24219185732581563,363.0,239.0,28.51
MODTBGA.A2012095.h18v03.006.2015240012352,0,0,0.0,0.0,0.0,0.0,0.0,0.0,0.0,0.0,0.0,0.01
MODTBGA.A2012093.h12v04.006.2015239224453,3,3609,1330912.0493966301,92.42444787476597,65314.0,4.535694444444444,-87.88875343032153,-0.9509253823123698,0.9509253823123698,310.0,124.0,22.64
MODTBGA.A2012093.h14v04.006.2015239224520,0,0,0.0,0.0,0.0,0.0,0.0,0.0,0.0,0.0,0.0,0.06
MODTBGA.A2012092.h17v05.006.2015239235909,1,169,34125.58816964102,2.3698325117806265,22514.0,1.5634722222222224,-0.8063602895584041,-0.34026045534860494,0.34026045534860494,652.0,44.0,16.89
MODTBGA.A2012093.h15v03.006.2015239224535,3,296,162386.3565441853,11.276830315568425,64458.0,4.476249999999999,-6.800580315568426,-0.6030577853228638,0.6030577853228638,644.0,121.0,23.91
MODTBGA.A2012093.h15v05.006.2015239225011,0,0,0.0,0.0,0.0,0.0,0.0,0.0,0.0,0.0,0.0,0.01
MODTBGA.A2012092.h19v04.006.2015240000541,0,0,0.0,0.0,0.0,0.0,0.0,0.0,0.0,0.0,0.0,0.01
MODTBGA.A2012099.h19v04.006.2015239221115,0,0,0.0,0.0,0.0,0.0,0.0,0.0,0.0,0.0,0.0,0.01
MODTBGA.A2012095.h12v05.006.2015240011916,3,949,334790.0028215813,23.249305751498703,20263.0,1.407152777777778,-21.842152973720925,-0.9394754926096204,0.9394754926096204,371.0,35.0,13.62
MODTBGA.A2012101.h16v05.006.2015240012939,1,104,30677.183909372125,2.1303599937063975,34933.0,2.425902777777778,0.29554278407138046,0.1387290340339125,0.1387290340339125,373.0,41.0,12.9
MODTBGA.A2012092.h18v04.006.2015240000542,0,0,0.0,0.0,0.0,0.0,0.0,0.0,0.0,0.0,0.0,0.01
MODTBGA.A2012100.h15v05.006.2015240000503,2,13,4717.850438534146,0.3276285026759823,24773.0,1.720347222222222,1.3927187195462398,4.250908294519202,4.250908294519202,642.0,35.0,22.12
MODTBGA.A2012098.h19v05.006.2015239215604,0,0,0.0,0.0,0.0,0.0,0.0,0.0,0.0,0.0,0.0,0.07
MODTBGA.A2012099.h18v05.006.2015239220620,0,0,0.0,0.0,0.0,0.0,0.0,0.0,0.0,0.0,0.0,0.02
MODTBGA.A2012101.h13v03.006.2015240013509,0,0,0.0,0.0,0.0,0.0,0.0,0.0,0.0,0.0,0.0,0.02
MODTBGA.A2012092.h11v04.006.2015240000129,3,2457,943497.5793364636,65.52066523169886,61766.0,4.289305555555555,-61.2313596761433,-0.9345350731652768,0.9345350731652768,485.0,106.0,34.74
MODTBGA.A2012096.h13v04.006.2015240021822,3,1273,459959.0986951093,31.941604076049256,79468.0,5.518611111111111,-26.422992964938146,-0.8272281160967391,0.8272281160967391,486.0,124.0,23.88
MODTBGA.A2012098.h11v05.006.2015239215602,0,0,0.0,0.0,0.0,0.0,0.0,0.0,0.0,0.0,0.0,0.01
MODTBGA.A2012094.h15v05.006.2015239235606,0,0,0.0,0.0,0.0,0.0,0.0,0.0,0.0,0.0,0.0,0.01
MODTBGA.A2012101.h12v04.006.2015240013057,3,3832,1436233.040752539,99.73840560781521,73755.0,5.121875,-94.6165306078152,-0.9486469132047297,0.9486469132047297,555.0,146.0,26.47
MODTBGA.A2012096.h13v03.006.2015240021531,2,66,18387.811496131828,1.2769313538980436,74110.0,5.146527777777778,3.8695964238797345,3.0303871951042263,3.0303871951042263,398.0,104.0,15.33
MODTBGA.A2012093.h19v05.006.2015239224434,0,0,0.0,0.0,0.0,0.0,0.0,0.0,0.0,0.0,0.0,0.01
MODTBGA.A2012100.h13v03.006.2015240001908,1,309,114540.9939560535,7.954235691392604,123751.0,8.593819444444446,0.6395837530518413,0.08040794588774185,0.08040794588774185,478.0,204.0,27.29
MODTBGA.A2012097.h11v04.006.2015239224451,0,0,0.0,0.0,0.0,0.0,0.0,0.0,0.0,0.0,0.0,0.01
MODTBGA.A2012094.h14v03.006.2015240000135,1,286,122252.6322634876,8.489766129408862,82162.0,5.705694444444444,-2.7840716849644176,-0.32793267123346204,0.32793267123346204,403.0,136.0,21.49
MODTBGA.A2012092.h15v03.006.2015240001531,0,0,0.0,0.0,0.0,0.0,0.0,0.0,0.0,0.0,0.0,0.01
MODTBGA.A2012095.h17v05.006.2015240011721,3,381,136788.63979453454,9.499211096842677,9108.0,0.6325,-8.866711096842677,-0.9334155232943261,0.9334155232943261,752.0,16.0,21.33
MODTBGA.A2012101.h13v04.006.2015240013440,0,0,0.0,0.0,0.0,0.0,0.0,0.0,0.0,0.0,0.0,0.01
MODTBGA.A2012101.h17v04.006.2015240012954,3,604,215407.86405668632,14.958879448380994,9016.0,0.6261111111111112,-14.332768337269883,-0.9581445178917546,0.9581445178917546,589.0,23.0,13.54
MODTBGA.A2012093.h14v03.006.2015239224415,1,287,136340.42639135293,9.468085166066176,84545.0,5.871180555555556,-3.59690461051062,-0.3798977879288628,0.3798977879288628,425.0,143.0,19.07
MODTBGA.A2012092.h15v05.006.2015240000114,0,0,0.0,0.0,0.0,0.0,0.0,0.0,0.0,0.0,0.0,0.01
MODTBGA.A2012096.h11v05.006.2015240021342,3,1308,417763.36303569394,29.011344655256522,96100.0,6.673611111111111,-22.33773354414541,-0.769965467288262,0.769965467288262,585.0,153.0,26.87
MODTBGA.A2012098.h17v04.006.2015239215538,0,0,0.0,0.0,0.0,0.0,0.0,0.0,0.0,0.0,0.0,0.01
MODTBGA.A2012100.h17v03.006.2015240001429,3,1186,432001.5052001645,30.0001045277892,17239.0,1.1971527777777777,-28.802951750011424,-0.9600950464466266,0.9600950464466266,613.0,28.0,17.24
MODTBGA.A2012092.h14v03.006.2015240000714,3,306,145417.50714966108,10.098437996504241,36254.0,2.517638888888889,-7.580799107615352,-0.7506902661817187,0.7506902661817187,466.0,71.0,16.37
MODTBGA.A2012092.h12v03.006.2015240000707,0,0,0.0,0.0,0.0,0.0,0.0,0.0,0.0,0.0,0.0,0.02
MODTBGA.A2012093.h12v05.006.2015239224506,3,957,336193.78246085084,23.346790448670195,54740.0,3.801388888888889,-19.545401559781304,-0.8371772386767016,0.8371772386767016,488.0,90.0,18.13
MODTBGA.A2012096.h11v03.006.2015240021418,0,0,0.0,0.0,0.0,0.0,0.0,0.0,0.0,0.0,0.0,0.01
MODTBGA.A2012095.h19v03.006.2015240012104,3,911,326438.902301595,22.669368215388545,37756.0,2.6219444444444444,-20.0474237709441,-0.8843397654697496,0.8843397654697496,474.0,79.0,15.94
MODTBGA.A2012099.h15v03.006.2015239222620,0,0,0.0,0.0,0.0,0.0,0.0,0.0,0.0,0.0,0.0,0.01
MODTBGA.A2012097.h18v03.006.2015239224708,0,0,0.0,0.0,0.0,0.0,0.0,0.0,0.0,0.0,0.0,0.01
MODTBGA.A2012094.h13v04.006.2015240000607,0,0,0.0,0.0,0.0,0.0,0.0,0.0,0.0,0.0,0.0,0.03
MODTBGA.A2012098.h16v05.006.2015239215202,2,35,3003.475037857928,0.20857465540680054,45858.0,3.184583333333333,2.9760086779265325,14.268314010262534,14.268314010262534,527.0,65.0,17.05
MODTBGA.A2012094.h14v04.006.2015239235846,1,118,41322.492358743286,2.8696175249127283,49731.0,3.4535416666666667,0.5839241417539385,0.20348500686400603,0.20348500686400603,554.0,117.0,21.45
MODTBGA.A2012093.h11v05.006.2015239223636,3,2913,1135889.4105214782,78.88120906399155,28609.0,1.986736111111111,-76.89447295288043,-0.9748135692304184,0.9748135692304184,403.0,44.0,15.02
MODTBGA.A2012099.h11v03.006.2015239220741,0,0,0.0,0.0,0.0,0.0,0.0,0.0,0.0,0.0,0.0,0.01
MODTBGA.A2012096.h19v04.006.2015240022151,3,862,316186.7983085388,21.957416549204083,19366.0,1.344861111111111,-20.612555438092972,-0.9387513959988221,0.9387513959988221,610.0,38.0,13.29
MODTBGA.A2012095.h19v04.006.2015240011705,0,0,0.0,0.0,0.0,0.0,0.0,0.0,0.0,0.0,0.0,0.01
MODTBGA.A2012100.h14v03.006.2015240003354,1,227,105707.60336748524,7.340805789408697,101828.0,7.071388888888889,-0.2694169005198077,-0.03670127071179597,0.03670127071179597,432.0,139.0,16.23
MODTBGA.A2012101.h17v03.006.2015240013120,3,1173,417771.03477779275,29.0118774151245,13427.0,0.9324305555555557,-28.079446859568943,-0.9678603855168139,0.9678603855168139,690.0,24.0,13.41
MODTBGA.A2012095.h16v05.006.2015240011954,0,0,0.0,0.0,0.0,0.0,0.0,0.0,0.0,0.0,0.0,0.01
