name,category,flight_count,flight_pixel,flight_pixel_percent,contrail_pixel,contrail_pixel_percent,deviation,deviation_percent,deviation_percent_abs,intersections_per_granule,line_types_per_granule,runtime_seconds
MODTBGA.A2012095.h18v05.006.2015240011541,3,197,66592.87026601483,4.6245048795843635,10423.0,0.7238194444444445,-3.900685435139919,-0.8434817427396684,0.8434817427396684,384.0,22.0,50.48
MODTBGA.A2012096.h17v05.006.2015240021802,0,0,0.0,0.0,0.0,0.0,0.0,0.0,0.0,0.0,0.0,0.02
MODTBGA.A2012099.h16v05.006.2015239220821,0,0,0.0,0.0,0.0,0.0,0.0,0.0,0.0,0.0,0.0,0.02
MODTBGA.A2012095.h15v05.006.2015240012339,0,0,0.0,0.0,0.0,0.0,0.0,0.0,0.0,0.0,0.0,0.02
MODTBGA.A2012101.h11v04.006.2015240012943,3,2873,1096203.1449231284,76.12521839743948,44454.0,3.087083333333333,-73.03813506410614,-0.9594472975142601,0.9594472975142601,379.0,86.0,54.75
MODTBGA.A2012100.h19v04.006.2015240001742,0,0,0.0,0.0,0.0,0.0,0.0,0.0,0.0,0.0,0.0,0.03
MODTBGA.A2012095.h12v03.006.2015240011907,3,490,185716.6939535967,12.896992635666438,67107.0,4.660208333333333,-8.236784302333104,-0.6386593010493317,0.6386593010493317,283.0,155.0,43.5
MODTBGA.A2012099.h18v04.006.2015239220842,0,0,0.0,0.0,0.0,0.0,0.0,0.0,0.0,0.0,0.0,0.02
MODTBGA.A2012100.h18v03.006.2015240003246,0,0,0.0,0.0,0.0,0.0,0.0,0.0,0.0,0.0,0.0,0.02
MODTBGA.A2012100.h12v04.006.2015240001042,0,0,0.0,0.0,0.0,0.0,0.0,0.0,0.0,0.0,0.0,0.02
MODTBGA.A2012094.h17v03.006.2015240001502,0,0,0.0,0.0,0.0,0.0,0.0,0.0,0.0,0.0,0.0,0.02
MODTBGA.A2012099.h12v03.006.2015239220644,1,253,101145.2222051735,7.02397376424816,78266.0,5.435138888888889,-1.5888348753592707,-0.22620170984214066,0.22620170984214066,406.0,198.0,56.67
MODTBGA.A2012097.h19v03.006.2015239225201,3,915,335389.71087214124,23.290952143898696,11390.0,0.7909722222222223,-22.499979921676474,-0.9660395067863541,0.9660395067863541,342.0,26.0,38.83
MODTBGA.A2012100.h11v05.006.2015240000946,0,0,0.0,0.0,0.0,0.0,0.0,0.0,0.0,0.0,0.0,0.02
MODTBGA.A2012096.h12v03.006.2015240020926,0,0,0.0,0.0,0.0,0.0,0.0,0.0,0.0,0.0,0.0,0.01
MODTBGA.A2012095.h11v05.006.2015240011726,3,2924,1139357.3289989168,79.12203673603588,51949.0,3.6075694444444446,-75.51446729159143,-0.9544049977317963,0.9544049977317963,450.0,90.0,73.54
MODTBGA.A2012096.h14v03.006.2015240021806,1,196,80531.58786911205,5.592471379799448,85187.0,5.915763888888889,0.3232925090894412,0.05780852276816387,0.05780852276816387,419.0,192.0,69.31
MODTBGA.A2012098.h13v03.006.2015239215429,1,208,72988.89160500423,5.068673028125294,80374.0,5.581527777777778,0.512854749652484,0.10118126515692198,0.10118126515692198,280.0,162.0,42.59
MODTBGA.A2012099.h12v05.006.2015239221751,0,0,0.0,0.0,0.0,0.0,0.0,0.0,0.0,0.0,0.0,0.01
MODTBGA.A2012092.h12v04.006.2015240000342,3,2753,1015804.9437528148,70.54200998283436,87902.0,6.104305555555555,-64.4377044272788,-0.9134656702149404,0.9134656702149404,423.0,175.0,54.09
MODTBGA.A2012095.h14v03.006.2015240013203,2,205,25731.73963194334,1.7869263633293986,63536.0,4.412222222222222,2.625295858892823,1.4691684631040842,1.4691684631040842,394.0,161.0,46.88
MODTBGA.A2012101.h19v05.006.2015240013307,1,71,17365.8593340575,1.205962453753993,15972.0,1.1091666666666666,-0.09679578708732639,-0.08026434553249531,0.08026434553249531,264.0,27.0,36.35
MODTBGA.A2012098.h15v03.006.2015239215510,2,100,48065.2876772345,3.337867199807951,79297.0,5.506736111111111,2.1688689113031594,0.6497768729169178,0.6497768729169178,447.0,128.0,50.73
MODTBGA.A2012096.h17v04.006.2015240021842,0,0,0.0,0.0,0.0,0.0,0.0,0.0,0.0,0.0,0.0,0.02
MODTBGA.A2012097.h19v05.006.2015239224600,0,0,0.0,0.0,0.0,0.0,0.0,0.0,0.0,0.0,0.0,0.02
MODTBGA.A2012096.h14v04.006.2015240021947,2,108,42383.36614853229,2.943289315870298,65290.0,4.534027777777778,1.5907384619074803,0.5404628261755221,0.5404628261755221,462.0,119.0,61.23
MODTBGA.A2012094.h16v05.006.2015240000902,3,91,30819.59883144122,2.1402499188500848,12592.0,0.8744444444444446,-1.2658054744056402,-0.5914288155122245,0.5914288155122245,488.0,20.0,50.64
MODTBGA.A2012093.h11v04.006.2015239224744,0,0,0.0,0.0,0.0,0.0,0.0,0.0,0.0,0.0,0.0,0.01
MODTBGA.A2012100.h12v03.006.2015240001249,2,403,34669.945491585066,2.407635103582296,114827.0,7.974097222222222,5.566462118639926,2.3120040534205715,2.3120040534205715,380.0,205.0,51.03
MODTBGA.A2012097.h14v03.006.2015239224453,0,0,0.0,0.0,0.0,0.0,0.0,0.0,0.0,0.0,0.0,0.01
MODTBGA.A2012098.h14v04.006.2015239215501,0,0,0.0,0.0,0.0,0.0,0.0,0.0,0.0,0.0,0.0,0.02
MODTBGA.A2012099.h13v03.006.2015239222429,2,152,20011.74200789696,1.3897043061039556,43268.0,3.004722222222222,1.6150179161182665,1.1621306122638269,1.1621306122638269,209.0,116.0,28.79
MODTBGA.A2012099.h17v05.006.2015239220724,1,166,34550.51332056004,2.39934120281667,27260.0,1.8930555555555555,-0.5062856472611144,-0.21101027509833453,0.21101027509833453,362.0,50.0,35.64
MODTBGA.A2012093.h18v03.006.2015239224200,3,1665,625921.3841121129,43.4667627855634,30408.0,2.1116666666666664,-41.35509611889673,-0.9514188190851882,0.9514188190851882,442.0,62.0,50.97
MODTBGA.A2012092.h11v05.006.2015240000031,3,2659,1046502.4132292286,72.67377869647422,78690.0,5.464583333333333,-67.20919536314088,-0.9248066712458086,0.9248066712458086,388.0,148.0,61.5
MODTBGA.A2012093.h18v04.006.2015239224242,0,0,0.0,0.0,0.0,0.0,0.0,0.0,0.0,0.0,0.0,0.02
MODTBGA.A2012095.h18v04.006.2015240012141,3,2077,777334.4438142434,53.98155859821134,8002.0,0.5556944444444444,-53.4258641537669,-0.9897058466099411,0.9897058466099411,507.0,20.0,41.45
MODTBGA.A2012093.h19v03.006.2015239224348,0,0,0.0,0.0,0.0,0.0,0.0,0.0,0.0,0.0,0.0,0.02
MODTBGA.A2012094.h18v05.006.2015240002230,0,0,0.0,0.0,0.0,0.0,0.0,0.0,0.0,0.0,0.0,0.02
MODTBGA.A2012096.h15v03.006.2015240021727,3,214,113766.08510669619,7.900422576853902,22710.0,1.5770833333333334,-6.323339243520569,-0.80037987614058,0.80037987614058,421.0,41.0,38.04
MODTBGA.A2012096.h11v04.006.2015240021059,3,685,208287.65423400624,14.4644204329171,28370.0,1.9701388888888889,-12.494281544028212,-0.8637941355461857,0.8637941355461857,48.0,9.0,17.89
MODTBGA.A2012101.h14v04.006.2015240012838,0,0,0.0,0.0,0.0,0.0,0.0,0.0,0.0,0.0,0.0,0.02
MODTBGA.A2012101.h15v03.006.2015240013148,0,0,0.0,0.0,0.0,0.0,0.0,0.0,0.0,0.0,0.0,0.02
MODTBGA.A2012097.h19v04.006.2015239224751,3,808,296811.15912551613,20.611886050383067,16667.0,1.1574305555555555,-19.45445549482751,-0.9438464508911815,0.9438464508911815,517.0,35.0,64.68
MODTBGA.A2012093.h16v05.006.2015239225020,0,0,0.0,0.0,0.0,0.0,0.0,0.0,0.0,0.0,0.0,0.02
MODTBGA.A2012097.h14v04.006.2015239224813,2,106,38457.48268714165,2.6706585199403925,76684.0,5.325277777777778,2.6546192578373855,0.9939942669632787,0.9939942669632787,462.0,116.0,69.87
MODTBGA.A2012095.h19v05.006.2015240011629,0,0,0.0,0.0,0.0,0.0,0.0,0.0,0.0,0.0,0.0,0.02
MODTBGA.A2012092.h13v03.006.2015240001519,2,190,16813.735395792504,1.1676205135967017,60858.0,4.22625,3.058629486403299,2.6195407247356353,2.6195407247356353,227.0,99.0,26.25
MODTBGA.A2012101.h18v05.006.2015240012751,0,0,0.0,0.0,0.0,0.0,0.0,0.0,0.0,0.0,0.0,0.02
MODTBGA.A2012093.h13v03.006.2015239224811,3,381,135823.10208631234,9.432159867105023,39162.0,2.719583333333333,-6.71257653377169,-0.7116690798660048,0.7116690798660048,261.0,88.0,32.63
MODTBGA.A2012095.h11v04.006.2015240011952,0,0,0.0,0.0,0.0,0.0,0.0,0.0,0.0,0.0,0.0,0.03
MODTBGA.A2012100.h12v05.006.2015240000643,0,0,0.0,0.0,0.0,0.0,0.0,0.0,0.0,0.0,0.0,0.02
MODTBGA.A2012094.h12v04.006.2015240004352,0,0,0.0,0.0,0.0,0.0,0.0,0.0,0.0,0.0,0.0,0.02
MODTBGA.A2012098.h18v04.006.2015239215315,0,0,0.0,0.0,0.0,0.0,0.0,0.0,0.0,0.0,0.0,0.02
MODTBGA.A2012096.h16v05.006.2015240022307,0,0,0.0,0.0,0.0,0.0,0.0,0.0,0.0,0.0,0.0,0.02
MODTBGA.A2012098.h13v04.006.2015239215449,0,0,0.0,0.0,0.0,0.0,0.0,0.0,0.0,0.0,0.0,0.01
MODTBGA.A2012096.h17v03.006.2015240023227,0,0,0.0,0.0,0.0,0.0,0.0,0.0,0.0,0.0,0.0,0.02
MODTBGA.A2012094.h12v05.006.2015240000746,0,0,0.0,0.0,0.0,0.0,0.0,0.0,0.0,0.0,0.0,0.01
MODTBGA.A2012095.h13v04.006.2015240013015,0,0,0.0,0.0,0.0,0.0,0.0,0.0,0.0,0.0,0.0,0.02
MODTBGA.A2012097.h12v05.006.2015239223920,0,0,0.0,0.0,0.0,0.0,0.0,0.0,0.0,0.0,0.0,0.02
MODTBGA.A2012096.h18v03.006.2015240022117,3,2496,891280.9058100352,61.89450734791912,31844.0,2.2113888888888886,-59.683118459030226,-0.9642716456816061,0.9642716456816061,361.0,46.0,45.3
MODTBGA.A2012093.h19v04.006.2015239224530,0,0,0.0,0.0,0.0,0.0,0.0,0.0,0.0,0.0,0.0,0.02
MODTBGA.A2012094.h19v04.006.2015239235807,0,0,0.0,0.0,0.0,0.0,0.0,0.0,0.0,0.0,0.0,0.02
MODTBGA.A2012099.h15v05.006.2015239220636,0,0,0.0,0.0,0.0,0.0,0.0,0.0,0.0,0.0,0.0,0.02
MODTBGA.A2012093.h18v05.006.2015239223631,1,50,11720.978471202512,0.8139568382779522,8195.0,0.5690972222222223,-0.24485961605572992,-0.30082629021677265,0.30082629021677265,370.0,21.0,51.94
MODTBGA.A2012092.h18v05.006.2015240000249,0,0,0.0,0.0,0.0,0.0,0.0,0.0,0.0,0.0,0.0,0.02
MODTBGA.A2012097.h13v04.006.2015239224624,0,0,0.0,0.0,0.0,0.0,0.0,0.0,0.0,0.0,0.0,0.02
MODTBGA.A2012092.h19v03.006.2015240000128,0,0,0.0,0.0,0.0,0.0,0.0,0.0,0.0,0.0,0.0,0.02
MODTBGA.A2012098.h18v03.006.2015239215407,0,0,0.0,0.0,0.0,0.0,0.0,0.0,0.0,0.0,0.0,0.02
MODTBGA.A2012092.h14v04.006.2015239235951,0,0,0.0,0.0,0.0,0.0,0.0,0.0,0.0,0.0,0.0,0.02
MODTBGA.A2012100.h11v03.006.2015240000821,0,0,0.0,0.0,0.0,0.0,0.0,0.0,0.0,0.0,0.0,0.03
MODTBGA.A2012095.h11v03.006.2015240012231,2,520,45193.53213830794,3.1384397318269404,143665.0,9.97673611111111,6.83829637928417,2.178884083685583,2.178884083685583,462.0,312.0,70.63
MODTBGA.A2012094.h19v03.006.2015240000841,0,0,0.0,0.0,0.0,0.0,0.0,0.0,0.0,0.0,0.0,0.02
MODTBGA.A2012098.h14v03.006.2015239215747,0,0,0.0,0.0,0.0,0.0,0.0,0.0,0.0,0.0,0.0,0.02
MODTBGA.A2012099.h12v04.006.2015239222156,3,2429,899031.2019528822,62.43272235783904,42862.0,2.976527777777778,-59.456194580061265,-0.9523242353470104,0.9523242353470104,313.0,72.0,36.47
MODTBGA.A2012094.h17v05.006.2015240001008,3,365,124923.8740407388,8.675269030606861,13289.0,0.9228472222222223,-7.752421808384639,-0.8936232157220297,0.8936232157220297,553.0,27.0,60.35
MODTBGA.A2012100.h16v05.006.2015240000948,2,30,2598.5855123282854,0.1804573272450198,33656.0,2.337222222222222,2.1567648949772025,11.951661525213707,11.951661525213707,398.0,48.0,54.17
MODTBGA.A2012097.h18v04.006.2015239225116,0,0,0.0,0.0,0.0,0.0,0.0,0.0,0.0,0.0,0.0,0.01
MODTBGA.A2012097.h15v05.006.2015239224538,0,0,0.0,0.0,0.0,0.0,0.0,0.0,0.0,0.0,0.0,0.01
MODTBGA.A2012101.h15v05.006.2015240013234,0,0,0.0,0.0,0.0,0.0,0.0,0.0,0.0,0.0,0.0,0.01
MODTBGA.A2012096.h12v04.006.2015240021411,3,872,265304.9808466892,18.423957003242304,41551.0,2.885486111111111,-15.538470892131192,-0.8433840183949998,0.8433840183949998,346.0,69.0,44.24
MODTBGA.A2012098.h12v05.006.2015239215453,0,0,0.0,0.0,0.0,0.0,0.0,0.0,0.0,0.0,0.0,0.02
MODTBGA.A2012092.h18v03.006.2015240001014,3,2155,782579.4821160318,54.34579736916888,20778.0,1.4429166666666666,-52.90288070250221,-0.9734493422395665,0.9734493422395665,448.0,47.0,48.63
MODTBGA.A2012094.h18v04.006.2015240002946,0,0,0.0,0.0,0.0,0.0,0.0,0.0,0.0,0.0,0.0,0.02
MODTBGA.A2012095.h15v03.006.2015240012109,1,237,102449.43543567395,7.114544127477358,57438.0,3.98875,-3.125794127477358,-0.43935269378751995,0.43935269378751995,514.0,175.0,52.0
MODTBGA.A2012099.h14v03.006.2015239222504,1,148,69442.26749707414,4.822379687296815,71582.0,4.970972222222223,0.1485925349254078,0.03081311397292762,0.03081311397292762,325.0,128.0,42.09
MODTBGA.A2012094.h19v05.006.2015239235750,0,0,0.0,0.0,0.0,0.0,0.0,0.0,0.0,0.0,0.0,0.02
MODTBGA.A2012093.h12v03.006.2015239224018,0,0,0.0,0.0,0.0,0.0,0.0,0.0,0.0,0.0,0.0,0.02
MODTBGA.A2012097.h17v04.006.2015239224636,0,0,0.0,0.0,0.0,0.0,0.0,0.0,0.0,0.0,0.0,0.02
MODTBGA.A2012095.h13v03.006.2015240013127,0,0,0.0,0.0,0.0,0.0,0.0,0.0,0.0,0.0,0.0,0.02
MODTBGA.A2012100.h15v03.006.2015240001100,3,209,97001.19207336131,6.736193893983425,22229.0,1.5436805555555555,-5.19251333842787,-0.7708378678151877,0.7708378678151877,321.0,50.0,38.71
MODTBGA.A2012100.h13v04.006.2015240000420,0,0,0.0,0.0,0.0,0.0,0.0,0.0,0.0,0.0,0.0,0.01
MODTBGA.A2012099.h11v04.006.2015239220623,3,2209,857059.1274008688,59.51799495839367,39585.0,2.7489583333333334,-56.76903662506034,-0.9538129882356587,0.9538129882356587,334.0,88.0,39.25
MODTBGA.A2012099.h17v03.006.2015239220739,3,716,260705.04771694445,18.10451720256559,18616.0,1.2927777777777778,-16.81173942478781,-0.9285936342122075,0.9285936342122075,451.0,52.0,33.31
MODTBGA.A2012101.h11v03.006.2015240013220,3,508,194493.15711152717,13.506469243856053,81229.0,5.640902777777778,-7.865566466078275,-0.5823554864019134,0.5823554864019134,354.0,195.0,47.09
MODTBGA.A2012098.h11v03.006.2015239215714,2,308,26561.794244700322,1.8445690447708558,62518.0,4.341527777777777,2.4969587330069216,1.3536813599282265,1.3536813599282265,241.0,138.0,33.88
MODTBGA.A2012096.h12v05.006.2015240021446,3,1021,367730.5667262992,25.536844911548556,57704.0,4.0072222222222225,-21.529622689326334,-0.8430807628701997,0.8430807628701997,451.0,95.0,62.65
MODTBGA.A2012101.h18v03.006.2015240013341,3,2330,806311.1905811961,55.993832679249735,27629.0,1.9186805555555555,-54.07515212369418,-0.9657340734908011,0.9657340734908011,456.0,49.0,42.56
MODTBGA.A2012098.h17v03.006.2015239215401,3,1085,382060.3745074782,26.53197045190821,24759.0,1.719375,-24.812595451908212,-0.9351961060292701,0.9351961060292701,412.0,44.0,33.52
MODTBGA.A2012096.h15v05.006.2015240021524,0,0,0.0,0.0,0.0,0.0,0.0,0.0,0.0,0.0,0.0,0.01
MODTBGA.A2012100.h17v05.006.2015240000335,0,0,0.0,0.0,0.0,0.0,0.0,0.0,0.0,0.0,0.0,0.02
MODTBGA.A2012097.h11v03.006.2015239225045,0,0,0.0,0.0,0.0,0.0,0.0,0.0,0.0,0.0,0.0,0.02
MODTBGA.A2012097.h17v05.006.2015239224159,3,133,21864.45955070752,1.518365246576911,7289.0,0.5061805555555555,-1.0121846910213557,-0.6666279363962541,0.6666279363962541,420.0,17.0,43.82
MODTBGA.A2012097.h11v05.006.2015239223847,0,0,0.0,0.0,0.0,0.0,0.0,0.0,0.0,0.0,0.0,0.01
MODTBGA.A2012098.h11v04.006.2015239215556,3,2265,873043.3868149489,60.62801297326034,84512.0,5.868888888888889,-54.75912408437145,-0.9031983962351309,0.9031983962351309,400.0,145.0,50.11
MODTBGA.A2012098.h19v03.006.2015239220335,0,0,0.0,0.0,0.0,0.0,0.0,0.0,0.0,0.0,0.0,0.02
MODTBGA.A2012094.h13v03.006.2015240000758,0,0,0.0,0.0,0.0,0.0,0.0,0.0,0.0,0.0,0.0,0.02
MODTBGA.A2012101.h18v04.006.2015240012841,0,0,0.0,0.0,0.0,0.0,0.0,0.0,0.0,0.0,0.0,0.02
MODTBGA.A2012094.h18v03.006.2015240000903,3,2244,786768.3597858516,54.636691651795246,40284.0,2.7975,-51.83919165179525,-0.9487981443344203,0.9487981443344203,449.0,87.0,44.58
MODTBGA.A2012100.h18v04.006.2015240003409,0,0,0.0,0.0,0.0,0.0,0.0,0.0,0.0,0.0,0.0,0.02
MODTBGA.A2012101.h19v03.006.2015240013615,0,0,0.0,0.0,0.0,0.0,0.0,0.0,0.0,0.0,0.0,0.02
MODTBGA.A2012097.h16v05.006.2015239224659,0,0,0.0,0.0,0.0,0.0,0.0,0.0,0.0,0.0,0.0,0.02
MODTBGA.A2012100.h19v03.006.2015240002404,0,0,0.0,0.0,0.0,0.0,0.0,0.0,0.0,0.0,0.0,0.02
MODTBGA.A2012099.h18v03.006.2015239221245,3,1902,692513.6502145933,48.09122570934676,22469.0,1.560347222222222,-46.53087848712454,-0.9675544301646077,0.9675544301646077,398.0,52.0,35.21
MODTBGA.A2012099.h13v04.006.2015239220416,0,0,0.0,0.0,0.0,0.0,0.0,0.0,0.0,0.0,0.0,0.01
MODTBGA.A2012092.h17v04.006.2015240000711,3,618,226216.5133874054,15.709480096347598,27539.0,1.9124305555555554,-13.797049540792042,-0.8782626449872017,0.8782626449872017,318.0,42.0,36.81
MODTBGA.A2012101.h19v04.006.2015240013130,0,0,0.0,0.0,0.0,0.0,0.0,0.0,0.0,0.0,0.0,0.01
MODTBGA.A2012101.h14v03.006.2015240013150,1,335,155520.89943717132,10.800062460914676,92832.0,6.446666666666667,-4.353395794248009,-0.40308987193388063,0.40308987193388063,486.0,200.0,57.4
MODTBGA.A2012095.h17v03.006.2015240011807,0,0,0.0,0.0,0.0,0.0,0.0,0.0,0.0,0.0,0.0,0.01
MODTBGA.A2012093.h13v04.006.2015239224608,3,1881,656111.79278597,45.56331894347014,86440.0,6.002777777777777,-39.560541165692364,-0.8682541588942334,0.8682541588942334,351.0,160.0,50.21
MODTBGA.A2012093.h17v04.006.2015239224458,0,0,0.0,0.0,0.0,0.0,0.0,0.0,0.0,0.0,0.0,0.02
MODTBGA.A2012099.h19v05.006.2015239220624,1,83,15753.739222912745,1.0940096682578295,8035.0,0.5579861111111111,-0.5360235571467185,-0.48996235837688384,0.48996235837688384,272.0,11.0,43.2
MODTBGA.A2012095.h17v04.006.2015240011727,3,835,268896.17010379676,18.673345146097,16118.0,1.1193055555555556,-17.554039590541443,-0.9400586479391719,0.9400586479391719,573.0,31.0,52.02
MODTBGA.A2012092.h12v05.006.2015240000342,0,0,0.0,0.0,0.0,0.0,0.0,0.0,0.0,0.0,0.0,0.02
MODTBGA.A2012101.h11v05.006.2015240012845,3,2832,1093573.4185906753,75.94259851324135,35754.0,2.4829166666666667,-73.45968184657468,-0.9673053501555685,0.9673053501555685,246.0,66.0,48.36
MODTBGA.A2012092.h16v05.006.2015240000951,3,124,37937.419718380246,2.6345430359986284,9567.0,0.664375,-1.9701680359986282,-0.7478215421339027,0.7478215421339027,431.0,18.0,41.62
MODTBGA.A2012092.h11v03.006.2015240001023,0,0,0.0,0.0,0.0,0.0,0.0,0.0,0.0,0.0,0.0,0.02
MODTBGA.A2012100.h14v04.006.2015240003720,0,0,0.0,0.0,0.0,0.0,0.0,0.0,0.0,0.0,0.0,0.02
MODTBGA.A2012101.h12v05.006.2015240013124,0,0,0.0,0.0,0.0,0.0,0.0,0.0,0.0,0.0,0.0,0.02
MODTBGA.A2012096.h18v05.006.2015240021506,1,71,14951.915344009723,1.0383274544451198,13750.0,0.9548611111111112,-0.0834663433340086,-0.08038537647895755,0.08038537647895755,335.0,28.0,35.43
MODTBGA.A2012093.h17v05.006.2015239224123,0,0,0.0,0.0,0.0,0.0,0.0,0.0,0.0,0.0,0.0,0.02
MODTBGA.A2012096.h19v05.006.2015240022012,3,258,90288.35869199614,6.270024909166398,22783.0,1.5821527777777777,-4.6878721313886205,-0.7476640363159058,0.7476640363159058,340.0,31.0,39.73
MODTBGA.A2012098.h17v05.006.2015239215336,0,0,0.0,0.0,0.0,0.0,0.0,0.0,0.0,0.0,0.0,0.02
MODTBGA.A2012098.h19v04.006.2015239220115,0,0,0.0,0.0,0.0,0.0,0.0,0.0,0.0,0.0,0.0,0.02
MODTBGA.A2012097.h12v04.006.2015239223941,0,0,0.0,0.0,0.0,0.0,0.0,0.0,0.0,0.0,0.0,0.02
MODTBGA.A2012096.h19v03.006.2015240022257,3,928,340269.0529298869,23.62979534235326,16383.0,1.1377083333333333,-22.492087009019926,-0.9518528063044989,0.9518528063044989,281.0,23.0,30.37
MODTBGA.A2012093.h17v03.006.2015239224042,3,1264,468498.72297408164,32.53463353986678,26288.0,1.8255555555555556,-30.709077984311225,-0.9438888545242538,0.9438888545242538,556.0,50.0,56.17
MODTBGA.A2012094.h15v03.006.2015240000438,1,181,93412.43697280917,6.486974789778414,74410.0,5.167361111111111,-1.3196136786673032,-0.20342512826574116,0.20342512826574116,405.0,189.0,61.97
MODTBGA.A2012095.h14v04.006.2015240012741,0,0,0.0,0.0,0.0,0.0,0.0,0.0,0.0,0.0,0.0,0.02
MODTBGA.A2012100.h18v05.006.2015240000813,2,56,12604.757876189986,0.875330408068749,25055.0,1.7399305555555558,0.8646001474868068,0.9877414739816746,0.9877414739816746,368.0,45.0,29.78
MODTBGA.A2012099.h14v04.006.2015239222332,0,0,0.0,0.0,0.0,0.0,0.0,0.0,0.0,0.0,0.0,0.02
MODTBGA.A2012100.h19v05.006.2015240001632,0,0,0.0,0.0,0.0,0.0,0.0,0.0,0.0,0.0,0.0,0.02
MODTBGA.A2012094.h11v04.006.2015240001003,0,0,0.0,0.0,0.0,0.0,0.0,0.0,0.0,0.0,0.0,0.02
MODTBGA.A2012097.h15v03.006.2015239225327,3,246,129356.67793554904,8.983102634413127,57754.0,4.010694444444445,-4.972408189968682,-0.5535290413937849,0.5535290413937849,424.0,94.0,50.93
MODTBGA.A2012097.h17v03.006.2015239225503,0,0,0.0,0.0,0.0,0.0,0.0,0.0,0.0,0.0,0.0,0.02
MODTBGA.A2012099.h11v05.006.2015239220359,3,3205,1218932.5146520152,84.64809129527883,52441.0,3.641736111111111,-81.00635518416772,-0.9569779299759092,0.9569779299759092,366.0,94.0,45.73
MODTBGA.A2012097.h13v03.006.2015239224019,0,0,0.0,0.0,0.0,0.0,0.0,0.0,0.0,0.0,0.0,0.02
MODTBGA.A2012097.h18v05.006.2015239224651,0,0,0.0,0.0,0.0,0.0,0.0,0.0,0.0,0.0,0.0,0.01
MODTBGA.A2012095.h12v04.006.2015240011822,0,0,0.0,0.0,0.0,0.0,0.0,0.0,0.0,0.0,0.0,0.01
MODTBGA.A2012101.h17v05.006.2015240012747,3,413,146932.03690720967,10.203613674111782,33708.0,2.3408333333333333,-7.862780340778449,-0.7705878125048574,0.7705878125048574,427.0,55.0,58.63
MODTBGA.A2012099.h19v03.006.2015239221609,0,0,0.0,0.0,0.0,0.0,0.0,0.0,0.0,0.0,0.0,0.02
MODTBGA.A2012096.h18v04.006.2015240021829,3,2093,783259.8516132629,54.393045250921034,11227.0,0.7796527777777779,-53.61339247314326,-0.9856663149823447,0.9856663149823447,533.0,25.0,64.97
MODTBGA.A2012092.h17v03.006.2015240001238,3,763,288086.45347728644,20.006003713700448,25009.0,1.736736111111111,-18.269267602589338,-0.9131892537877635,0.9131892537877635,433.0,37.0,46.18
MODTBGA.A2012094.h11v05.006.2015240000911,0,0,0.0,0.0,0.0,0.0,0.0,0.0,0.0,0.0,0.0,0.01
MODTBGA.A2012093.h11v03.006.2015239225347,2,473,38975.68744360275,2.706644961361302,148068.0,10.2825,7.575855038638698,2.7989836667859223,2.7989836667859223,343.0,209.0,58.75
MODTBGA.A2012100.h17v04.006.2015240001646,0,0,0.0,0.0,0.0,0.0,0.0,0.0,0.0,0.0,0.0,0.02
MODTBGA.A2012100.h11v04.006.2015240000258,3,2962,1137968.846048619,79.02561430893186,40462.0,2.809861111111111,-76.21575319782076,-0.964443666326634,0.964443666326634,343.0,61.0,51.93
MODTBGA.A2012092.h13v04.006.2015240001623,0,0,0.0,0.0,0.0,0.0,0.0,0.0,0.0,0.0,0.0,0.01
MODTBGA.A2012101.h12v03.006.2015240013448,2,453,33639.812688176025,2.3360981033455577,93200.0,6.472222222222222,4.136124118876665,1.7705267227233588,1.7705267227233588,323.0,193.0,42.25
MODTBGA.A2012098.h12v03.006.2015239215709,2,253,21107.57558884915,1.4658038603367465,107569.0,7.4700694444444435,6.0042655841076975,4.096227160111522,4.096227160111522,426.0,199.0,57.47
MODTBGA.A2012099.h17v04.006.2015239220813,0,0,0.0,0.0,0.0,0.0,0.0,0.0,0.0,0.0,0.0,0.02
MODTBGA.A2012098.h15v05.006.2015239215321,0,0,0.0,0.0,0.0,0.0,0.0,0.0,0.0,0.0,0.0,0.02
MODTBGA.A2012094.h17v04.006.2015240001240,0,0,0.0,0.0,0.0,0.0,0.0,0.0,0.0,0.0,0.0,0.02
MODTBGA.A2012098.h12v04.006.2015239215512,0,0,0.0,0.0,0.0,0.0,0.0,0.0,0.0,0.0,0.0,0.02
MODTBGA.A2012098.h18v05.006.2015239215438,1,47,9346.519314969515,0.6490638413173274,7710.0,0.5354166666666667,-0.11364717465066076,-0.17509398523880895,0.17509398523880895,321.0,18.0,25.85
MODTBGA.A2012094.h12v03.006.2015240000900,2,462,37323.37547857902,2.5919010749013207,62880.0,4.366666666666666,1.7747655917653455,0.684735080729466,0.684735080729466,255.0,136.0,28.51
MODTBGA.A2012097.h12v03.006.2015239224719,1,372,146353.31210428884,10.163424451686724,98304.0,6.826666666666667,-3.3367577850200574,-0.3283103840523248,0.3283103840523248,319.0,205.0,44.88
MODTBGA.A2012092.h19v05.006.2015240000611,1,80,15670.587683025997,1.0882352557656942,13618.0,0.9456944444444445,-0.14254081132124974,-0.13098345285731114,0.13098345285731114,254.0,17.0,28.23
MODTBGA.A2012094.h11v03.006.2015240001413,1,515,196317.49993476027,13.633159717691687,145426.0,10.099027777777778,-3.534131939913909,-0.2592305828653707,0.2592305828653707,416.0,278.0,71.37
MODTBGA.A2012095.h18v03.006.2015240012352,0,0,0.0,0.0,0.0,0.0,0.0,0.0,0.0,0.0,0.0,0.02
MODTBGA.A2012093.h12v04.006.2015239224453,3,3609,1330912.0493966301,92.42444787476597,64909.0,4.507569444444445,-87.91687843032153,-0.9512296849146219,0.9512296849146219,337.0,150.0,51.16
MODTBGA.A2012093.h14v04.006.2015239224520,0,0,0.0,0.0,0.0,0.0,0.0,0.0,0.0,0.0,0.0,0.07
MODTBGA.A2012092.h17v05.006.2015239235909,1,169,34125.58816964102,2.3698325117806265,21668.0,1.5047222222222223,-0.8651102895584042,-0.36505123685233953,0.36505123685233953,544.0,40.0,50.48
MODTBGA.A2012093.h15v03.006.2015239224535,3,296,162386.3565441853,11.276830315568425,59389.0,4.124236111111111,-7.152594204457314,-0.6342734619836103,0.6342734619836103,543.0,122.0,53.59
MODTBGA.A2012093.h15v05.006.2015239225011,0,0,0.0,0.0,0.0,0.0,0.0,0.0,0.0,0.0,0.0,0.02
MODTBGA.A2012092.h19v04.006.2015240000541,0,0,0.0,0.0,0.0,0.0,0.0,0.0,0.0,0.0,0.0,0.01
MODTBGA.A2012099.h19v04.006.2015239221115,0,0,0.0,0.0,0.0,0.0,0.0,0.0,0.0,0.0,0.0,0.01
MODTBGA.A2012095.h12v05.006.2015240011916,3,949,334790.0028215813,23.249305751498703,19206.0,1.33375,-21.915555751498704,-0.9426326956058022,0.9426326956058022,351.0,37.0,47.25
MODTBGA.A2012101.h16v05.006.2015240012939,1,104,30677.183909372125,2.1303599937063975,32478.0,2.2554166666666666,0.12505667296026912,0.05870213171938874,0.05870213171938874,326.0,43.0,39.5
MODTBGA.A2012092.h18v04.006.2015240000542,0,0,0.0,0.0,0.0,0.0,0.0,0.0,0.0,0.0,0.0,0.01
MODTBGA.A2012100.h15v05.006.2015240000503,2,13,4717.850438534146,0.3276285026759823,22411.0,1.5563194444444444,1.2286909417684622,3.7502565611137064,3.7502565611137064,551.0,32.0,60.38
MODTBGA.A2012098.h19v05.006.2015239215604,0,0,0.0,0.0,0.0,0.0,0.0,0.0,0.0,0.0,0.0,0.02
MODTBGA.A2012099.h18v05.006.2015239220620,0,0,0.0,0.0,0.0,0.0,0.0,0.0,0.0,0.0,0.0,0.02
MODTBGA.A2012101.h13v03.006.2015240013509,0,0,0.0,0.0,0.0,0.0,0.0,0.0,0.0,0.0,0.0,0.02
MODTBGA.A2012092.h11v04.006.2015240000129,3,2457,943497.5793364636,65.52066523169886,55258.0,3.837361111111111,-61.68330412058775,-0.9414328121129241,0.9414328121129241,414.0,97.0,57.02
MODTBGA.A2012096.h13v04.006.2015240021822,3,1273,459959.0986951093,31.941604076049256,73063.0,5.073819444444445,-26.86778463160481,-0.841153267307294,0.841153267307294,461.0,121.0,71.12
MODTBGA.A2012098.h11v05.006.2015239215602,0,0,0.0,0.0,0.0,0.0,0.0,0.0,0.0,0.0,0.0,0.01
MODTBGA.A2012094.h15v05.006.2015239235606,0,0,0.0,0.0,0.0,0.0,0.0,0.0,0.0,0.0,0.0,0.01
MODTBGA.A2012101.h12v04.006.2015240013057,3,3832,1436233.040752539,99.73840560781521,68353.0,4.746736111111112,-94.9916694967041,-0.9524081412552763,0.9524081412552763,476.0,137.0,44.98
MODTBGA.A2012096.h13v03.006.2015240021531,2,66,18387.811496131828,1.2769313538980436,71669.0,4.977013888888889,3.7000825349908455,2.89763621489576,2.89763621489576,435.0,117.0,35.09
MODTBGA.A2012093.h19v05.006.2015239224434,0,0,0.0,0.0,0.0,0.0,0.0,0.0,0.0,0.0,0.0,0.02
MODTBGA.A2012100.h13v03.006.2015240001908,1,309,114540.9939560535,7.954235691392604,117458.0,8.156805555555556,0.20256986416295142,0.02546691750436252,0.02546691750436252,459.0,214.0,63.22
MODTBGA.A2012097.h11v04.006.2015239224451,0,0,0.0,0.0,0.0,0.0,0.0,0.0,0.0,0.0,0.0,0.02
MODTBGA.A2012094.h14v03.006.2015240000135,1,286,122252.6322634876,8.489766129408862,77543.0,5.384930555555555,-3.1048355738533067,-0.3657150887935584,0.3657150887935584,375.0,147.0,49.57
MODTBGA.A2012092.h15v03.006.2015240001531,0,0,0.0,0.0,0.0,0.0,0.0,0.0,0.0,0.0,0.0,0.01
MODTBGA.A2012095.h17v05.006.2015240011721,3,381,136788.63979453454,9.499211096842677,8261.0,0.5736805555555555,-8.925530541287122,-0.9396075579638152,0.9396075579638152,614.0,15.0,52.43
MODTBGA.A2012101.h13v04.006.2015240013440,0,0,0.0,0.0,0.0,0.0,0.0,0.0,0.0,0.0,0.0,0.02
MODTBGA.A2012101.h17v04.006.2015240012954,3,604,215407.86405668632,14.958879448380994,8479.0,0.5888194444444445,-14.37006000393655,-0.9606374630883082,0.9606374630883082,452.0,25.0,30.95
MODTBGA.A2012093.h14v03.006.2015239224415,1,287,136340.42639135293,9.468085166066176,75942.0,5.27375,-4.1943351660661765,-0.44299719452236924,0.44299719452236924,365.0,139.0,29.92
MODTBGA.A2012092.h15v05.006.2015240000114,0,0,0.0,0.0,0.0,0.0,0.0,0.0,0.0,0.0,0.0,0.01
MODTBGA.A2012096.h11v05.006.2015240021342,3,1308,417763.36303569394,29.011344655256522,102840.0,7.141666666666667,-21.869677988589856,-0.7538319319034846,0.7538319319034846,573.0,181.0,80.53
MODTBGA.A2012098.h17v04.006.2015239215538,0,0,0.0,0.0,0.0,0.0,0.0,0.0,0.0,0.0,0.0,0.02
MODTBGA.A2012100.h17v03.006.2015240001429,3,1186,432001.5052001645,30.0001045277892,16188.0,1.1241666666666668,-28.875937861122534,-0.9625279083402744,0.9625279083402744,497.0,31.0,41.85
MODTBGA.A2012092.h14v03.006.2015240000714,3,306,145417.50714966108,10.098437996504241,34393.0,2.388402777777778,-7.710035218726464,-0.7634878999500154,0.7634878999500154,403.0,80.0,36.68
MODTBGA.A2012092.h12v03.006.2015240000707,0,0,0.0,0.0,0.0,0.0,0.0,0.0,0.0,0.0,0.0,0.02
MODTBGA.A2012093.h12v05.006.2015239224506,3,957,336193.78246085084,23.346790448670195,51693.0,3.5897916666666667,-19.756998782003528,-0.8462404639918659,0.8462404639918659,453.0,94.0,42.27
MODTBGA.A2012096.h11v03.006.2015240021418,0,0,0.0,0.0,0.0,0.0,0.0,0.0,0.0,0.0,0.0,0.01
MODTBGA.A2012095.h19v03.006.2015240012104,3,911,326438.902301595,22.669368215388545,34309.0,2.3825694444444445,-20.2867987709441,-0.8948991687017066,0.8948991687017066,392.0,80.0,26.56
MODTBGA.A2012099.h15v03.006.2015239222620,0,0,0.0,0.0,0.0,0.0,0.0,0.0,0.0,0.0,0.0,0.01
MODTBGA.A2012097.h18v03.006.2015239224708,0,0,0.0,0.0,0.0,0.0,0.0,0.0,0.0,0.0,0.0,0.01
MODTBGA.A2012094.h13v04.006.2015240000607,0,0,0.0,0.0,0.0,0.0,0.0,0.0,0.0,0.0,0.0,0.02
MODTBGA.A2012098.h16v05.006.2015239215202,2,35,3003.475037857928,0.20857465540680054,41078.0,2.852638888888889,2.6440642334820885,12.676824172741169,12.676824172741169,458.0,63.0,49.2
MODTBGA.A2012094.h14v04.006.2015239235846,1,118,41322.492358743286,2.8696175249127283,46187.0,3.207430555555556,0.3378130306428275,0.11772057694451848,0.11772057694451848,449.0,121.0,38.22
MODTBGA.A2012093.h11v05.006.2015239223636,3,2913,1135889.4105214782,78.88120906399155,33958.0,2.3581944444444445,-76.5230146195471,-0.9701044840409154,0.9701044840409154,365.0,56.0,31.14
MODTBGA.A2012099.h11v03.006.2015239220741,0,0,0.0,0.0,0.0,0.0,0.0,0.0,0.0,0.0,0.0,0.01
MODTBGA.A2012096.h19v04.006.2015240022151,3,862,316186.7983085388,21.957416549204083,17057.0,1.1845138888888889,-20.772902660315193,-0.9460540411830997,0.9460540411830997,461.0,31.0,23.27
MODTBGA.A2012095.h19v04.006.2015240011705,0,0,0.0,0.0,0.0,0.0,0.0,0.0,0.0,0.0,0.0,0.01
MODTBGA.A2012100.h14v03.006.2015240003354,1,227,105707.60336748524,7.340805789408697,92946.0,6.454583333333333,-0.8862224560753642,-0.12072550091898693,0.12072550091898693,383.0,140.0,27.25
MODTBGA.A2012101.h17v03.006.2015240013120,3,1173,417771.03477779275,29.0118774151245,12180.0,0.8458333333333333,-28.166044081791163,-0.970845274118924,0.970845274118924,495.0,24.0,19.29
MODTBGA.A2012095.h16v05.006.2015240011954,0,0,0.0,0.0,0.0,0.0,0.0,0.0,0.0,0.0,0.0,0.01
